ex3/add1bit/simulation/qsim/add1bit.msim.vcd
$comment
	File created using the following command:
		vcd file add1bit.msim.vcd -direction
$end
$date
	Tue Dec 08 13:54:52 2015
$end
$version
	ModelSim Version 10.3d
$end
$timescale
	1ps
$end

$scope module add1bit_vlg_vec_tst $end
$var reg 1 ! a $end
$var reg 1 " b $end
$var reg 1 # cin $end
$var wire 1 $ cout $end
$var wire 1 % somme $end
$var wire 1 & sampler $end

$scope module i1 $end
$var wire 1 ' gnd $end
$var wire 1 ( vcc $end
$var wire 1 ) unknown $end
$var tri1 1 * devclrn $end
$var tri1 1 + devpor $end
$var tri1 1 , devoe $end
$var wire 1 - somme~output_o $end
$var wire 1 . cout~output_o $end
$var wire 1 / a~input_o $end
$var wire 1 0 b~input_o $end
$var wire 1 1 cin~input_o $end
$var wire 1 2 somme~0_combout $end
$var wire 1 3 cout~0_combout $end
$upscope $end
$upscope $end
$enddefinitions $end
#0
$dumpvars
0!
0"
0#
0$
0%
x&
0'
1(
x)
1*
1+
1,
0-
0.
0/
00
01
02
03
$end
#20000
1"
10
0&
12
1-
1%
#40000
1!
0"
1/
00
1&
#60000
1"
10
0&
13
02
0-
1.
0%
1$
#80000
1#
0!
0"
11
0/
00
1&
03
12
1-
0.
1%
0$
#100000
1"
10
0&
13
02
0-
1.
0%
1$
#120000
1!
0"
1/
00
1&
#140000
1"
10
0&
12
1-
1%
#160000
0#
0!
0"
01
0/
00
1&
03
02
0-
0.
0%
0$
#180000
1"
10
0&
12
1-
1%
#199000
0"
00
1&
02
0-
0%
