PWM/simulation/qsim/pwm.msim.vcd
$comment
	File created using the following command:
		vcd file pwm.msim.vcd -direction
$end
$date
	Sat Dec 12 15:47:38 2015
$end
$version
	ModelSim Version 10.3d
$end
$timescale
	1ps
$end

$scope module pwm_vlg_vec_tst $end
$var reg 1 ! clk $end
$var reg 8 " duty [7:0] $end
$var reg 1 # ena $end
$var reg 1 $ reset_n $end
$var wire 1 % pwm_n_out [0] $end
$var wire 1 & pwm_out [0] $end
$var wire 1 ' sampler $end

$scope module i1 $end
$var wire 1 ( gnd $end
$var wire 1 ) vcc $end
$var wire 1 * unknown $end
$var tri1 1 + devclrn $end
$var tri1 1 , devpor $end
$var tri1 1 - devoe $end
$var wire 1 . Mult0~8_resulta $end
$var wire 1 / Mult0~9 $end
$var wire 1 0 Mult0~10 $end
$var wire 1 1 Mult0~11 $end
$var wire 1 2 Mult0~12 $end
$var wire 1 3 Mult0~13 $end
$var wire 1 4 Mult0~14 $end
$var wire 1 5 Mult0~15 $end
$var wire 1 6 Mult0~16 $end
$var wire 1 7 Mult0~27 $end
$var wire 1 8 Mult0~28 $end
$var wire 1 9 Mult0~29 $end
$var wire 1 : Mult0~30 $end
$var wire 1 ; Mult0~31 $end
$var wire 1 < Mult0~32 $end
$var wire 1 = Mult0~33 $end
$var wire 1 > Mult0~34 $end
$var wire 1 ? Mult0~35 $end
$var wire 1 @ Mult0~36 $end
$var wire 1 A Mult0~37 $end
$var wire 1 B Mult0~38 $end
$var wire 1 C Mult0~39 $end
$var wire 1 D Mult0~40 $end
$var wire 1 E Mult0~41 $end
$var wire 1 F Mult0~42 $end
$var wire 1 G Mult0~43 $end
$var wire 1 H Mult0~44 $end
$var wire 1 I Mult0~45 $end
$var wire 1 J Mult0~46 $end
$var wire 1 K Mult0~47 $end
$var wire 1 L Mult0~48 $end
$var wire 1 M Mult0~49 $end
$var wire 1 N Mult0~50 $end
$var wire 1 O Mult0~51 $end
$var wire 1 P Mult0~52 $end
$var wire 1 Q Mult0~53 $end
$var wire 1 R Mult0~54 $end
$var wire 1 S Mult0~55 $end
$var wire 1 T Mult0~56 $end
$var wire 1 U Mult0~57 $end
$var wire 1 V Mult0~58 $end
$var wire 1 W Mult0~59 $end
$var wire 1 X Mult0~60 $end
$var wire 1 Y Mult0~61 $end
$var wire 1 Z Mult0~62 $end
$var wire 1 [ Mult0~63 $end
$var wire 1 \ Mult0~64 $end
$var wire 1 ] Mult0~65 $end
$var wire 1 ^ Mult0~66 $end
$var wire 1 _ Mult0~67 $end
$var wire 1 ` Mult0~68 $end
$var wire 1 a Mult0~69 $end
$var wire 1 b Mult0~70 $end
$var wire 1 c Mult0~71 $end
$var wire 1 d pwm_out[0]~output_o $end
$var wire 1 e pwm_n_out[0]~output_o $end
$var wire 1 f clk~input_o $end
$var wire 1 g Add0~25_sumout $end
$var wire 1 h reset_n~input_o $end
$var wire 1 i Add0~2 $end
$var wire 1 j Add0~5_sumout $end
$var wire 1 k count[0][7]~q $end
$var wire 1 l Add0~6 $end
$var wire 1 m Add0~9_sumout $end
$var wire 1 n count[0][8]~q $end
$var wire 1 o Add0~10 $end
$var wire 1 p Add0~41_sumout $end
$var wire 1 q count[0][9]~q $end
$var wire 1 r Add0~42 $end
$var wire 1 s Add0~37_sumout $end
$var wire 1 t count[0][10]~q $end
$var wire 1 u Equal0~0_combout $end
$var wire 1 v Equal0~1_combout $end
$var wire 1 w Equal0~2_combout $end
$var wire 1 x count[0][0]~q $end
$var wire 1 y Add0~26 $end
$var wire 1 z Add0~29_sumout $end
$var wire 1 { count[0][1]~q $end
$var wire 1 | Add0~30 $end
$var wire 1 } Add0~33_sumout $end
$var wire 1 ~ count[0][2]~q $end
$var wire 1 !! Add0~34 $end
$var wire 1 "! Add0~13_sumout $end
$var wire 1 #! count[0][3]~q $end
$var wire 1 $! Add0~14 $end
$var wire 1 %! Add0~17_sumout $end
$var wire 1 &! count[0][4]~q $end
$var wire 1 '! Add0~18 $end
$var wire 1 (! Add0~21_sumout $end
$var wire 1 )! count[0][5]~q $end
$var wire 1 *! Add0~22 $end
$var wire 1 +! Add0~1_sumout $end
$var wire 1 ,! count[0][6]~q $end
$var wire 1 -! duty[0]~input_o $end
$var wire 1 .! duty[1]~input_o $end
$var wire 1 /! duty[2]~input_o $end
$var wire 1 0! duty[3]~input_o $end
$var wire 1 1! duty[4]~input_o $end
$var wire 1 2! duty[5]~input_o $end
$var wire 1 3! duty[6]~input_o $end
$var wire 1 4! duty[7]~input_o $end
$var wire 1 5! Mult0~23 $end
$var wire 1 6! ena~input_o $end
$var wire 1 7! half_duty[0][0]~0_combout $end
$var wire 1 8! half_duty[0][6]~q $end
$var wire 1 9! Mult0~22 $end
$var wire 1 :! half_duty[0][5]~q $end
$var wire 1 ;! Mult0~21 $end
$var wire 1 <! half_duty[0][4]~q $end
$var wire 1 =! Mult0~20 $end
$var wire 1 >! half_duty[0][3]~q $end
$var wire 1 ?! Mult0~19 $end
$var wire 1 @! half_duty[0][2]~q $end
$var wire 1 A! Mult0~18 $end
$var wire 1 B! half_duty[0][1]~q $end
$var wire 1 C! Mult0~17 $end
$var wire 1 D! half_duty[0][0]~q $end
$var wire 1 E! Add1~26 $end
$var wire 1 F! Add1~30 $end
$var wire 1 G! Add1~14 $end
$var wire 1 H! Add1~18 $end
$var wire 1 I! Add1~22 $end
$var wire 1 J! Add1~1_sumout $end
$var wire 1 K! Mult0~24 $end
$var wire 1 L! half_duty[0][7]~q $end
$var wire 1 M! Add1~2 $end
$var wire 1 N! Add1~5_sumout $end
$var wire 1 O! Mult0~25 $end
$var wire 1 P! half_duty[0][8]~q $end
$var wire 1 Q! Add1~6 $end
$var wire 1 R! Add1~9_sumout $end
$var wire 1 S! Equal2~0_combout $end
$var wire 1 T! Add1~13_sumout $end
$var wire 1 U! Add1~17_sumout $end
$var wire 1 V! Add1~21_sumout $end
$var wire 1 W! Equal2~1_combout $end
$var wire 1 X! Add1~25_sumout $end
$var wire 1 Y! Add1~29_sumout $end
$var wire 1 Z! Equal2~2_combout $end
$var wire 1 [! Mult0~26 $end
$var wire 1 \! half_duty[0][9]~q $end
$var wire 1 ]! Add1~10 $end
$var wire 1 ^! Add1~33_sumout $end
$var wire 1 _! Add1~34 $end
$var wire 1 `! Add1~37_sumout $end
$var wire 1 a! Equal2~3_combout $end
$var wire 1 b! Equal1~0_combout $end
$var wire 1 c! Equal1~1_combout $end
$var wire 1 d! Equal1~2_combout $end
$var wire 1 e! Equal1~3_combout $end
$var wire 1 f! Equal1~4_combout $end
$var wire 1 g! pwm_out~0_combout $end
$var wire 1 h! pwm_out[0]~reg0_q $end
$var wire 1 i! pwm_n_out[0]~0_combout $end
$var wire 1 j! pwm_n_out[0]~reg0_q $end
$var wire 1 k! half_duty_new [9] $end
$var wire 1 l! half_duty_new [8] $end
$var wire 1 m! half_duty_new [7] $end
$var wire 1 n! half_duty_new [6] $end
$var wire 1 o! half_duty_new [5] $end
$var wire 1 p! half_duty_new [4] $end
$var wire 1 q! half_duty_new [3] $end
$var wire 1 r! half_duty_new [2] $end
$var wire 1 s! half_duty_new [1] $end
$var wire 1 t! half_duty_new [0] $end
$var wire 1 u! Mult0~8_RESULTA_bus [63] $end
$var wire 1 v! Mult0~8_RESULTA_bus [62] $end
$var wire 1 w! Mult0~8_RESULTA_bus [61] $end
$var wire 1 x! Mult0~8_RESULTA_bus [60] $end
$var wire 1 y! Mult0~8_RESULTA_bus [59] $end
$var wire 1 z! Mult0~8_RESULTA_bus [58] $end
$var wire 1 {! Mult0~8_RESULTA_bus [57] $end
$var wire 1 |! Mult0~8_RESULTA_bus [56] $end
$var wire 1 }! Mult0~8_RESULTA_bus [55] $end
$var wire 1 ~! Mult0~8_RESULTA_bus [54] $end
$var wire 1 !" Mult0~8_RESULTA_bus [53] $end
$var wire 1 "" Mult0~8_RESULTA_bus [52] $end
$var wire 1 #" Mult0~8_RESULTA_bus [51] $end
$var wire 1 $" Mult0~8_RESULTA_bus [50] $end
$var wire 1 %" Mult0~8_RESULTA_bus [49] $end
$var wire 1 &" Mult0~8_RESULTA_bus [48] $end
$var wire 1 '" Mult0~8_RESULTA_bus [47] $end
$var wire 1 (" Mult0~8_RESULTA_bus [46] $end
$var wire 1 )" Mult0~8_RESULTA_bus [45] $end
$var wire 1 *" Mult0~8_RESULTA_bus [44] $end
$var wire 1 +" Mult0~8_RESULTA_bus [43] $end
$var wire 1 ," Mult0~8_RESULTA_bus [42] $end
$var wire 1 -" Mult0~8_RESULTA_bus [41] $end
$var wire 1 ." Mult0~8_RESULTA_bus [40] $end
$var wire 1 /" Mult0~8_RESULTA_bus [39] $end
$var wire 1 0" Mult0~8_RESULTA_bus [38] $end
$var wire 1 1" Mult0~8_RESULTA_bus [37] $end
$var wire 1 2" Mult0~8_RESULTA_bus [36] $end
$var wire 1 3" Mult0~8_RESULTA_bus [35] $end
$var wire 1 4" Mult0~8_RESULTA_bus [34] $end
$var wire 1 5" Mult0~8_RESULTA_bus [33] $end
$var wire 1 6" Mult0~8_RESULTA_bus [32] $end
$var wire 1 7" Mult0~8_RESULTA_bus [31] $end
$var wire 1 8" Mult0~8_RESULTA_bus [30] $end
$var wire 1 9" Mult0~8_RESULTA_bus [29] $end
$var wire 1 :" Mult0~8_RESULTA_bus [28] $end
$var wire 1 ;" Mult0~8_RESULTA_bus [27] $end
$var wire 1 <" Mult0~8_RESULTA_bus [26] $end
$var wire 1 =" Mult0~8_RESULTA_bus [25] $end
$var wire 1 >" Mult0~8_RESULTA_bus [24] $end
$var wire 1 ?" Mult0~8_RESULTA_bus [23] $end
$var wire 1 @" Mult0~8_RESULTA_bus [22] $end
$var wire 1 A" Mult0~8_RESULTA_bus [21] $end
$var wire 1 B" Mult0~8_RESULTA_bus [20] $end
$var wire 1 C" Mult0~8_RESULTA_bus [19] $end
$var wire 1 D" Mult0~8_RESULTA_bus [18] $end
$var wire 1 E" Mult0~8_RESULTA_bus [17] $end
$var wire 1 F" Mult0~8_RESULTA_bus [16] $end
$var wire 1 G" Mult0~8_RESULTA_bus [15] $end
$var wire 1 H" Mult0~8_RESULTA_bus [14] $end
$var wire 1 I" Mult0~8_RESULTA_bus [13] $end
$var wire 1 J" Mult0~8_RESULTA_bus [12] $end
$var wire 1 K" Mult0~8_RESULTA_bus [11] $end
$var wire 1 L" Mult0~8_RESULTA_bus [10] $end
$var wire 1 M" Mult0~8_RESULTA_bus [9] $end
$var wire 1 N" Mult0~8_RESULTA_bus [8] $end
$var wire 1 O" Mult0~8_RESULTA_bus [7] $end
$var wire 1 P" Mult0~8_RESULTA_bus [6] $end
$var wire 1 Q" Mult0~8_RESULTA_bus [5] $end
$var wire 1 R" Mult0~8_RESULTA_bus [4] $end
$var wire 1 S" Mult0~8_RESULTA_bus [3] $end
$var wire 1 T" Mult0~8_RESULTA_bus [2] $end
$var wire 1 U" Mult0~8_RESULTA_bus [1] $end
$var wire 1 V" Mult0~8_RESULTA_bus [0] $end
$upscope $end
$upscope $end
$enddefinitions $end
#0
$dumpvars
0!
b11000000 "
1#
1$
0%
0&
x'
0(
1)
x*
1+
1,
1-
0.
0/
00
01
02
03
04
05
06
07
08
09
0:
0;
0<
0=
0>
0?
0@
0A
0B
0C
0D
0E
0F
0G
0H
0I
0J
0K
0L
0M
0N
0O
0P
0Q
0R
0S
0T
0U
0V
0W
0X
0Y
0Z
0[
0\
0]
0^
0_
0`
0a
0b
0c
0d
0e
0f
1g
1h
0i
0j
0k
0l
0m
0n
0o
0p
0q
0r
0s
0t
0u
0v
0w
0x
0y
0z
0{
0|
0}
0~
0!!
0"!
0#!
0$!
0%!
0&!
0'!
0(!
0)!
0*!
0+!
0,!
0-!
0.!
0/!
00!
01!
02!
13!
14!
15!
16!
07!
08!
19!
0:!
0;!
0<!
1=!
0>!
1?!
0@!
1A!
0B!
0C!
0D!
1E!
1F!
1G!
1H!
1I!
1J!
1K!
0L!
1M!
1N!
0O!
0P!
1Q!
1R!
0S!
0T!
1U!
0V!
0W!
0X!
0Y!
1Z!
1[!
0\!
1]!
1^!
1_!
0`!
0a!
1b!
1c!
1d!
1e!
1f!
0g!
0h!
1i!
0j!
0t!
0s!
0r!
0q!
0p!
0o!
0n!
0m!
0l!
0k!
0V"
0U"
0T"
0S"
0R"
0Q"
0P"
0O"
0N"
0M"
1L"
1K"
1J"
0I"
1H"
1G"
1F"
0E"
1D"
0C"
0B"
0A"
0@"
0?"
0>"
0="
0<"
0;"
0:"
09"
08"
07"
06"
05"
04"
03"
02"
01"
00"
0/"
0."
0-"
0,"
0+"
0*"
0)"
0("
0'"
0&"
0%"
0$"
0#"
0""
0!"
0~!
0}!
0|!
0{!
0z!
0y!
0x!
0w!
0v!
0u!
$end
#2500
1!
0'
1f
1x
1j!
1k!
1m!
1s!
1r!
1q!
1o!
1n!
1e
0d!
0Z!
1y
1%
0g
0f!
1z
#5000
0!
1'
0f
#7500
1!
0'
1f
1{
0x
0y
1|
1g
0z
0|
1z
1}
0}
#10000
0!
1'
0f
#12500
1!
0'
1f
1x
1y
0g
1|
0z
1}
#15000
0!
1'
0f
#17500
1!
0'
1f
1~
0{
0x
1d!
0y
0|
0e!
1!!
1g
1z
0}
0!!
0z
1}
1"!
0"!
#20000
0!
1'
0f
#22500
1!
0'
1f
1x
0d!
1y
0g
1z
#25000
0!
1'
0f
#27500
1!
0'
1f
1{
0x
0y
1|
1g
0z
0|
1!!
1z
0}
0!!
1}
1"!
0"!
#30000
0!
1'
0f
#32500
1!
0'
1f
1x
1y
0g
1|
0z
1!!
0}
1"!
#35000
0!
1'
0f
#37500
1!
0'
1f
1#!
0~
0{
0x
1d!
1Z!
0y
0|
0!!
1$!
1g
1z
1}
0"!
0$!
0z
0}
1"!
1%!
0%!
#40000
0!
1'
0f
#42500
1!
0'
1f
1x
0d!
0Z!
1y
0g
1z
#45000
0!
1'
0f
#47500
1!
0'
1f
1{
0x
0y
1|
1g
0z
0|
1z
1}
0}
#50000
0!
1'
0f
#52500
1!
0'
1f
1x
1y
0g
1|
0z
1}
#55000
0!
1'
0f
#57500
1!
0'
1f
1~
0{
0x
1d!
0y
0|
1!!
1g
1z
0}
0!!
1$!
0z
1}
0"!
0$!
1"!
1%!
0%!
#60000
0!
1'
0f
#62500
1!
0'
1f
1x
0d!
1y
0g
1z
#65000
0!
1'
0f
#67500
1!
0'
1f
1{
0x
0y
1|
1v
1g
0z
0|
1!!
1z
0}
0!!
1$!
1}
0"!
0$!
1"!
1%!
0%!
#70000
0!
1'
0f
#72500
1!
0'
1f
1x
1y
0g
1|
0z
1!!
0}
1$!
0"!
1%!
#75000
0!
1'
0f
#77500
1!
0'
1f
1&!
0#!
0~
0{
0x
1d!
1Z!
0y
0|
0v
1e!
0!!
1W!
0$!
1'!
1g
1z
1}
1"!
0%!
0'!
0z
0}
0"!
1%!
1(!
0(!
#80000
0!
1'
0f
#82500
1!
0'
1f
1x
0d!
0Z!
1y
0g
1z
#85000
0!
1'
0f
#87500
1!
0'
1f
1{
0x
0y
1|
1g
0z
0|
1z
1}
0}
#90000
0!
1'
0f
#92500
1!
0'
1f
1x
1y
0g
1|
0z
1}
#95000
0!
1'
0f
#97500
1!
0'
1f
1~
0{
0x
1d!
0y
0|
0e!
1!!
1g
1z
0}
0!!
0z
1}
1"!
0"!
#100000
0!
1'
0f
#102500
1!
0'
1f
1x
0d!
1y
0g
1z
#105000
0!
1'
0f
#107500
1!
0'
1f
1{
0x
0y
1|
1g
0z
0|
1!!
1z
0}
0!!
1}
1"!
0"!
#110000
0!
1'
0f
#112500
1!
0'
1f
1x
1y
0g
1|
0z
1!!
0}
1"!
#115000
0!
1'
0f
#117500
1!
0'
1f
1#!
0~
0{
0x
1d!
1Z!
0y
0|
0!!
0W!
1$!
1g
1z
1}
0"!
0$!
1'!
0z
0}
1"!
0%!
0'!
1%!
1(!
0(!
#120000
0!
1'
0f
#122500
1!
0'
1f
1x
0d!
0Z!
1y
0g
1z
#125000
0!
1'
0f
#127500
1!
0'
1f
1{
0x
0y
1|
1g
0z
0|
1z
1}
0}
#130000
0!
1'
0f
#132500
1!
0'
1f
1x
1y
0g
1|
0z
1}
#135000
0!
1'
0f
#137500
1!
0'
1f
1~
0{
0x
1d!
0y
0|
1!!
1g
1z
0}
0!!
1$!
0z
1}
0"!
0$!
1'!
1"!
0%!
0'!
1%!
1(!
0(!
#140000
0!
1'
0f
#142500
1!
0'
1f
1x
0d!
1y
0g
1z
#145000
0!
1'
0f
#147500
1!
0'
1f
1{
0x
0y
1|
1g
0z
0|
1!!
1z
0}
0!!
1$!
1}
0"!
0$!
1'!
1"!
0%!
0'!
1%!
1(!
0(!
#150000
0!
1'
0f
#152500
1!
0'
1f
1x
1y
0g
1|
0z
1!!
0}
1$!
0"!
1'!
0%!
1(!
#155000
0!
1'
0f
#157500
1!
0'
1f
1)!
0&!
0#!
0~
0{
0x
1d!
1Z!
0y
0|
1e!
0!!
0$!
0'!
0c!
1*!
1g
1z
1}
1"!
1%!
0(!
0*!
0z
0}
0"!
0%!
1(!
1+!
0+!
#160000
0!
1'
0f
#162500
1!
0'
1f
1x
0d!
0Z!
1y
0g
1z
#165000
0!
1'
0f
#167500
1!
0'
1f
1{
0x
0y
1|
1g
0z
0|
1z
1}
0}
#170000
0!
1'
0f
#172500
1!
0'
1f
1x
1y
0g
1|
0z
1}
#175000
0!
1'
0f
#177500
1!
0'
1f
1~
0{
0x
1d!
0y
0|
0e!
1!!
1g
1z
0}
0!!
0z
1}
1"!
0"!
#180000
0!
1'
0f
#182500
1!
0'
1f
1x
0d!
1y
0g
1z
#185000
0!
1'
0f
#187500
1!
0'
1f
1{
0x
0y
1|
1g
0z
0|
1!!
1z
0}
0!!
1}
1"!
0"!
#190000
0!
1'
0f
#192500
1!
0'
1f
1x
1y
0g
1|
0z
1!!
0}
1"!
#195000
0!
1'
0f
#197500
1!
0'
1f
1#!
0~
0{
0x
1d!
1Z!
0y
0|
0!!
1$!
1g
1z
1}
0"!
0$!
0z
0}
1"!
1%!
0%!
#200000
0!
1'
0f
#202500
1!
0'
1f
1x
0d!
0Z!
1y
0g
1z
#205000
0!
1'
0f
#207500
1!
0'
1f
1{
0x
0y
1|
1g
0z
0|
1z
1}
0}
#210000
0!
1'
0f
#212500
1!
0'
1f
1x
1y
0g
1|
0z
1}
#215000
0!
1'
0f
#217500
1!
0'
1f
1~
0{
0x
1d!
0y
0|
1!!
1g
1z
0}
0!!
1$!
0z
1}
0"!
0$!
1"!
1%!
0%!
#220000
0!
1'
0f
#222500
1!
0'
1f
1x
0d!
1y
0g
1z
#225000
0!
1'
0f
#227500
1!
0'
1f
1{
0x
0y
1|
1v
1g
0z
0|
1!!
1z
0}
0!!
1$!
1}
0"!
0$!
1"!
1%!
0%!
#230000
0!
1'
0f
#232500
1!
0'
1f
1x
1y
0g
1|
0z
1!!
0}
1$!
0"!
1%!
#235000
0!
1'
0f
#237500
1!
0'
1f
1&!
0#!
0~
0{
0x
1d!
1Z!
0y
0|
0v
1e!
0!!
0$!
1'!
1g
1z
1}
1"!
0%!
0'!
1*!
0z
0}
0"!
1%!
0(!
0*!
1(!
1+!
0+!
#240000
0!
1'
0f
#242500
1!
0'
1f
1x
0d!
0Z!
1y
0g
1z
#245000
0!
1'
0f
#247500
1!
0'
1f
1{
0x
0y
1|
1g
0z
0|
1z
1}
0}
#250000
0!
1'
0f
#252500
1!
0'
1f
1x
1y
0g
1|
0z
1}
#255000
0!
1'
0f
#257500
1!
0'
1f
1~
0{
0x
1d!
0y
0|
0e!
1!!
1g
1z
0}
0!!
0z
1}
1"!
0"!
#260000
0!
1'
0f
#262500
1!
0'
1f
1x
0d!
1y
0g
1z
#265000
0!
1'
0f
#267500
1!
0'
1f
1{
0x
0y
1|
1g
0z
0|
1!!
1z
0}
0!!
1}
1"!
0"!
#270000
0!
1'
0f
#272500
1!
0'
1f
1x
1y
0g
1|
0z
1!!
0}
1"!
#275000
0!
1'
0f
#277500
1!
0'
1f
1#!
0~
0{
0x
1d!
1Z!
0y
0|
0!!
1$!
1g
1z
1}
0"!
0$!
1'!
0z
0}
1"!
0%!
0'!
1*!
1%!
0(!
0*!
1(!
1+!
0+!
#280000
0!
1'
0f
#282500
1!
0'
1f
1x
0d!
0Z!
1y
0g
1z
#285000
0!
1'
0f
#287500
1!
0'
1f
1{
0x
0y
1|
1g
0z
0|
1z
1}
0}
#290000
0!
1'
0f
#292500
1!
0'
1f
1x
1y
0g
1|
0z
1}
#295000
0!
1'
0f
#297500
1!
0'
1f
1~
0{
0x
1d!
0y
0|
1!!
1g
1z
0}
0!!
1$!
0z
1}
0"!
0$!
1'!
1"!
0%!
0'!
1*!
1%!
0(!
0*!
1(!
1+!
0+!
#300000
0!
1'
0f
#302500
1!
0'
1f
1x
0d!
1y
0g
1z
#305000
0!
1'
0f
#307500
1!
0'
1f
1{
0x
0y
1|
1g
0z
0|
1!!
1z
0}
0!!
1$!
1}
0"!
0$!
1'!
1"!
0%!
0'!
1*!
1%!
0(!
0*!
1(!
1+!
0+!
#310000
0!
1'
0f
#312500
1!
0'
1f
1x
1y
0g
1|
0z
1!!
0}
1$!
0"!
1'!
0%!
1*!
0(!
1+!
#315000
0!
1'
0f
#317500
1!
0'
1f
1,!
0)!
0&!
0#!
0~
0{
0x
1d!
1Z!
0y
0|
1e!
0!!
0$!
0'!
0*!
1i
1g
1z
1}
1"!
1%!
1(!
0+!
0i
0z
0}
0"!
0%!
0(!
1+!
1j
0j
#320000
0!
1'
0f
#322500
1!
0'
1f
1x
0d!
0Z!
1y
0g
1z
#325000
0!
1'
0f
#327500
1!
0'
1f
1{
0x
0y
1|
1g
0z
0|
1z
1}
0}
#330000
0!
1'
0f
#332500
1!
0'
1f
1x
1y
0g
1|
0z
1}
#335000
0!
1'
0f
#337500
1!
0'
1f
1~
0{
0x
1d!
0y
0|
0e!
1!!
1g
1z
0}
0!!
0z
1}
1"!
0"!
#340000
0!
1'
0f
#342500
1!
0'
1f
1x
0d!
1y
0g
1z
#345000
0!
1'
0f
#347500
1!
0'
1f
1{
0x
0y
1|
1g
0z
0|
1!!
1z
0}
0!!
1}
1"!
0"!
#350000
0!
1'
0f
#352500
1!
0'
1f
1x
1y
0g
1|
0z
1!!
0}
1"!
#355000
0!
1'
0f
#357500
1!
0'
1f
1#!
0~
0{
0x
1d!
1Z!
0y
0|
0!!
1$!
1g
1z
1}
0"!
0$!
0z
0}
1"!
1%!
0%!
#360000
0!
1'
0f
#362500
1!
0'
1f
1x
0d!
0Z!
1y
0g
1z
#365000
0!
1'
0f
#367500
1!
0'
1f
1{
0x
0y
1|
1g
0z
0|
1z
1}
0}
#370000
0!
1'
0f
#372500
1!
0'
1f
1x
1y
0g
1|
0z
1}
#375000
0!
1'
0f
#377500
1!
0'
1f
1~
0{
0x
1d!
0y
0|
1!!
1g
1z
0}
0!!
1$!
0z
1}
0"!
0$!
1"!
1%!
0%!
#380000
0!
1'
0f
#382500
1!
0'
1f
1x
0d!
1y
0g
1z
#385000
0!
1'
0f
#387500
1!
0'
1f
1{
0x
0y
1|
1v
1g
0z
0|
1!!
1z
0}
0!!
1$!
1}
0"!
0$!
1"!
1%!
0%!
#390000
0!
1'
0f
#392500
1!
0'
1f
1x
1y
0g
1|
0z
1!!
0}
1$!
0"!
1%!
#395000
0!
1'
0f
#397500
1!
0'
1f
1&!
0#!
0~
0{
0x
1d!
1Z!
0y
0|
0v
1e!
0!!
1W!
0$!
1'!
1g
1z
1}
1"!
0%!
0'!
0z
0}
0"!
1%!
1(!
0(!
#400000
0!
1'
0f
#402500
1!
0'
1f
1x
0d!
0Z!
1y
0g
1z
#405000
0!
1'
0f
#407500
1!
0'
1f
1{
0x
0y
1|
1g
0z
0|
1z
1}
0}
#410000
0!
1'
0f
#412500
1!
0'
1f
1x
1y
0g
1|
0z
1}
#415000
0!
1'
0f
#417500
1!
0'
1f
1~
0{
0x
1d!
0y
0|
0e!
1!!
1g
1z
0}
0!!
0z
1}
1"!
0"!
#420000
0!
1'
0f
#422500
1!
0'
1f
1x
0d!
1y
0g
1z
#425000
0!
1'
0f
#427500
1!
0'
1f
1{
0x
0y
1|
1g
0z
0|
1!!
1z
0}
0!!
1}
1"!
0"!
#430000
0!
1'
0f
#432500
1!
0'
1f
1x
1y
0g
1|
0z
1!!
0}
1"!
#435000
0!
1'
0f
#437500
1!
0'
1f
1#!
0~
0{
0x
1d!
1Z!
0y
0|
0!!
0W!
1$!
1g
1z
1}
0"!
0$!
1'!
0z
0}
1"!
0%!
0'!
1%!
1(!
0(!
#440000
0!
1'
0f
#442500
1!
0'
1f
1x
0d!
0Z!
1y
0g
1z
#445000
0!
1'
0f
#447500
1!
0'
1f
1{
0x
0y
1|
1g
0z
0|
1z
1}
0}
#450000
0!
1'
0f
#452500
1!
0'
1f
1x
1y
0g
1|
0z
1}
#455000
0!
1'
0f
#457500
1!
0'
1f
1~
0{
0x
1d!
0y
0|
1!!
1g
1z
0}
0!!
1$!
0z
1}
0"!
0$!
1'!
1"!
0%!
0'!
1%!
1(!
0(!
#460000
0!
1'
0f
#462500
1!
0'
1f
1x
0d!
1y
0g
1z
#465000
0!
1'
0f
#467500
1!
0'
1f
1{
0x
0y
1|
1g
0z
0|
1!!
1z
0}
0!!
1$!
1}
0"!
0$!
1'!
1"!
0%!
0'!
1%!
1(!
0(!
#470000
0!
1'
0f
#472500
1!
0'
1f
1x
1y
0g
1|
0z
1!!
0}
1$!
0"!
1'!
0%!
1(!
#475000
0!
1'
0f
#477500
1!
0'
1f
1)!
0&!
0#!
0~
0{
0x
1d!
1Z!
0y
0|
1e!
0!!
0$!
0'!
1*!
1g
1z
1}
1"!
1%!
0(!
0*!
1i
0z
0}
0"!
0%!
1(!
0+!
0i
1+!
1j
0j
#480000
0!
1'
0f
#482500
1!
0'
1f
1x
0d!
0Z!
1y
0g
1z
#485000
0!
1'
0f
#487500
1!
0'
1f
1{
0x
0y
1|
1g
0z
0|
1z
1}
0}
#490000
0!
1'
0f
#492500
1!
0'
1f
1x
1y
0g
1|
0z
1}
#495000
0!
1'
0f
#497500
1!
0'
1f
1~
0{
0x
1d!
0y
0|
0e!
1!!
1g
1z
0}
0!!
0z
1}
1"!
0"!
#500000
0!
1'
0f
#502500
1!
0'
1f
1x
0d!
1y
0g
1z
#505000
0!
1'
0f
#507500
1!
0'
1f
1{
0x
0y
1|
1g
0z
0|
1!!
1z
0}
0!!
1}
1"!
0"!
#510000
0!
1'
0f
#512500
1!
0'
1f
1x
1y
0g
1|
0z
1!!
0}
1"!
#515000
0!
1'
0f
#517500
1!
0'
1f
1#!
0~
0{
0x
1d!
1Z!
0y
0|
0!!
1$!
1g
1z
1}
0"!
0$!
0z
0}
1"!
1%!
0%!
#520000
0!
1'
0f
#522500
1!
0'
1f
1x
0d!
0Z!
1y
0g
1z
#525000
0!
1'
0f
#527500
1!
0'
1f
1{
0x
0y
1|
1g
0z
0|
1z
1}
0}
#530000
0!
1'
0f
#532500
1!
0'
1f
1x
1y
0g
1|
0z
1}
#535000
0!
1'
0f
#537500
1!
0'
1f
1~
0{
0x
1d!
0y
0|
1!!
1g
1z
0}
0!!
1$!
0z
1}
0"!
0$!
1"!
1%!
0%!
#540000
0!
1'
0f
#542500
1!
0'
1f
1x
0d!
1y
0g
1z
#545000
0!
1'
0f
#547500
1!
0'
1f
1{
0x
0y
1|
1v
1g
0z
0|
1!!
1z
0}
0!!
1$!
1}
0"!
0$!
1"!
1%!
0%!
#550000
0!
1'
0f
#552500
1!
0'
1f
1x
1y
0g
1|
0z
1!!
0}
1$!
0"!
1%!
#555000
0!
1'
0f
#557500
1!
0'
1f
1&!
0#!
0~
0{
0x
1d!
1Z!
0y
0|
0v
1e!
0!!
0$!
1'!
1g
1z
1}
1"!
0%!
0'!
1*!
0z
0}
0"!
1%!
0(!
0*!
1i
1(!
0+!
0i
1+!
1j
0j
#560000
0!
1'
0f
#562500
1!
0'
1f
1x
0d!
0Z!
1y
0g
1z
#565000
0!
1'
0f
#567500
1!
0'
1f
1{
0x
0y
1|
1g
0z
0|
1z
1}
0}
#570000
0!
1'
0f
#572500
1!
0'
1f
1x
1y
0g
1|
0z
1}
#575000
0!
1'
0f
#577500
1!
0'
1f
1~
0{
0x
1d!
0y
0|
0e!
1!!
1g
1z
0}
0!!
0z
1}
1"!
0"!
#580000
0!
1'
0f
#582500
1!
0'
1f
1x
0d!
1y
0g
1z
#585000
0!
1'
0f
#587500
1!
0'
1f
1{
0x
0y
1|
1g
0z
0|
1!!
1z
0}
0!!
1}
1"!
0"!
#590000
0!
1'
0f
#592500
1!
0'
1f
1x
1y
0g
1|
0z
1!!
0}
1"!
#595000
0!
1'
0f
#597500
1!
0'
1f
1#!
0~
0{
0x
1d!
1Z!
0y
0|
0!!
1$!
1g
1z
1}
0"!
0$!
1'!
0z
0}
1"!
0%!
0'!
1*!
1%!
0(!
0*!
1i
1(!
0+!
0i
1+!
1j
0j
#600000
0!
1'
0f
#602500
1!
0'
1f
1x
0d!
0Z!
1y
0g
1z
#605000
0!
1'
0f
#607500
1!
0'
1f
1{
0x
0y
1|
1g
0z
0|
1z
1}
0}
#610000
0!
1'
0f
#612500
1!
0'
1f
1x
1y
0g
1|
0z
1}
#615000
0!
1'
0f
#617500
1!
0'
1f
1~
0{
0x
1d!
0y
0|
1!!
1g
1z
0}
0!!
1$!
0z
1}
0"!
0$!
1'!
1"!
0%!
0'!
1*!
1%!
0(!
0*!
1i
1(!
0+!
0i
1+!
1j
0j
#620000
0!
1'
0f
#622500
1!
0'
1f
1x
0d!
1y
0g
1z
#625000
0!
1'
0f
