ex2/ex2/simulation/qsim/ex2.msim.vcd
$comment
	File created using the following command:
		vcd file ex2.msim.vcd -direction
$end
$date
	Fri Sep 18 14:21:12 2015
$end
$version
	ModelSim Version 10.1d
$end
$timescale
	1ps
$end
$scope module ex2_vlg_vec_tst $end
$var reg 1 ! x $end
$var reg 1 " y $end
$var wire 1 # f $end
$var wire 1 $ sampler $end
$scope module i1 $end
$var wire 1 % gnd $end
$var wire 1 & vcc $end
$var wire 1 ' unknown $end
$var tri1 1 ( devclrn $end
$var tri1 1 ) devpor $end
$var tri1 1 * devoe $end
$var wire 1 + f~output_o $end
$var wire 1 , x~input_o $end
$var wire 1 - y~input_o $end
$var wire 1 . nand3|f~0_combout $end
$upscope $end
$upscope $end
$enddefinitions $end
#0
$dumpvars
0!
0"
0#
x$
0%
1&
x'
1(
1)
1*
0+
0,
0-
0.
$end
#10000
1"
1-
0$
1.
1+
1#
#20000
1!
0"
1,
0-
1$
#30000
1"
1-
0$
0.
0+
0#
#40000
0!
0"
0,
0-
1$
#50000
1"
1-
0$
1.
1+
1#
#60000
1!
0"
1,
0-
1$
#70000
1"
1-
0$
0.
0+
0#
#80000
0!
0"
0,
0-
1$
#90000
1"
1-
0$
1.
1+
1#
#100000
1!
0"
1,
0-
1$
#110000
1"
1-
0$
0.
0+
0#
#120000
0!
0"
0,
0-
1$
#130000
1"
1-
0$
1.
1+
1#
#140000
1!
0"
1,
0-
1$
#150000
1"
1-
0$
0.
0+
0#
#160000
0!
0"
0,
0-
1$
#170000
1"
1-
0$
1.
1+
1#
#180000
1!
0"
1,
0-
1$
#190000
1"
1-
0$
0.
0+
0#
