SPI/simulation/qsim/spi.msim.vcd
$comment
	File created using the following command:
		vcd file spi.msim.vcd -direction
$end
$date
	Thu Dec 10 13:29:10 2015
$end
$version
	ModelSim Version 10.3d
$end
$timescale
	1ps
$end

$scope module spi_vlg_vec_tst $end
$var reg 1 ! treg_adc_sdo $end
$var reg 1 " treg_adc_sdot $end
$var reg 1 # clk $end
$var reg 1 $ ena $end
$var reg 1 % reset_n $end
$var reg 1 & treg_sdio $end
$var wire 1 ' adc_sck $end
$var wire 1 ( adc_sdi $end
$var wire 1 ) adc_sdo $end
$var wire 1 * adc_sdot $end
$var wire 1 + convst $end
$var wire 1 , cs $end
$var wire 1 - sclk $end
$var wire 1 . sdio $end
$var wire 1 / sinitial $end
$var wire 1 0 ssend $end
$var wire 1 1 swait_between_sent $end
$var wire 1 2 swait_input $end
$var wire 1 3 swait_while_busy $end
$var wire 1 4 test $end
$var wire 1 5 sampler $end

$scope module i1 $end
$var wire 1 6 gnd $end
$var wire 1 7 vcc $end
$var wire 1 8 unknown $end
$var tri1 1 9 devclrn $end
$var tri1 1 : devpor $end
$var tri1 1 ; devoe $end
$var wire 1 < adc_sdo~input_o $end
$var wire 1 = adc_sdot~input_o $end
$var wire 1 > ~QUARTUS_CREATED_GND~I_combout $end
$var wire 1 ? clk~input_o $end
$var wire 1 @ clk~inputCLKENA0_outclk $end
$var wire 1 A st7735|Add1~1_combout $end
$var wire 1 B ena~input_o $end
$var wire 1 C Add0~89_sumout $end
$var wire 1 D reset_n~input_o $end
$var wire 1 E st7735|busy~1_combout $end
$var wire 1 F st7735|busy~q $end
$var wire 1 G Selector1~0_combout $end
$var wire 1 H state.wait_while_busy~q $end
$var wire 1 I Selector2~0_combout $end
$var wire 1 J state.wait_between_sent~q $end
$var wire 1 K counter[31]~0_combout $end
$var wire 1 L Add0~90 $end
$var wire 1 M Add0~85_sumout $end
$var wire 1 N Add0~86 $end
$var wire 1 O Add0~5_sumout $end
$var wire 1 P Add0~6 $end
$var wire 1 Q Add0~1_sumout $end
$var wire 1 R Add0~2 $end
$var wire 1 S Add0~29_sumout $end
$var wire 1 T Add0~30 $end
$var wire 1 U Add0~25_sumout $end
$var wire 1 V Add0~26 $end
$var wire 1 W Add0~21_sumout $end
$var wire 1 X Add0~22 $end
$var wire 1 Y Add0~17_sumout $end
$var wire 1 Z Add0~18 $end
$var wire 1 [ Add0~13_sumout $end
$var wire 1 \ Add0~14 $end
$var wire 1 ] Add0~9_sumout $end
$var wire 1 ^ Add0~10 $end
$var wire 1 _ Add0~53_sumout $end
$var wire 1 ` Add0~54 $end
$var wire 1 a Add0~49_sumout $end
$var wire 1 b Add0~50 $end
$var wire 1 c Add0~125_sumout $end
$var wire 1 d Add0~126 $end
$var wire 1 e Add0~45_sumout $end
$var wire 1 f Add0~46 $end
$var wire 1 g Add0~41_sumout $end
$var wire 1 h Add0~42 $end
$var wire 1 i Add0~37_sumout $end
$var wire 1 j Add0~38 $end
$var wire 1 k Add0~33_sumout $end
$var wire 1 l Equal0~2_combout $end
$var wire 1 m Equal0~1_combout $end
$var wire 1 n Equal0~0_combout $end
$var wire 1 o Add0~34 $end
$var wire 1 p Add0~77_sumout $end
$var wire 1 q Add0~78 $end
$var wire 1 r Add0~73_sumout $end
$var wire 1 s Add0~74 $end
$var wire 1 t Add0~69_sumout $end
$var wire 1 u Add0~70 $end
$var wire 1 v Add0~65_sumout $end
$var wire 1 w Add0~66 $end
$var wire 1 x Add0~61_sumout $end
$var wire 1 y Add0~62 $end
$var wire 1 z Add0~57_sumout $end
$var wire 1 { Equal0~3_combout $end
$var wire 1 | Add0~58 $end
$var wire 1 } Add0~81_sumout $end
$var wire 1 ~ Add0~82 $end
$var wire 1 !! Add0~121_sumout $end
$var wire 1 "! Add0~122 $end
$var wire 1 #! Add0~117_sumout $end
$var wire 1 $! Add0~118 $end
$var wire 1 %! Add0~113_sumout $end
$var wire 1 &! Add0~114 $end
$var wire 1 '! Add0~109_sumout $end
$var wire 1 (! Add0~110 $end
$var wire 1 )! Add0~105_sumout $end
$var wire 1 *! Add0~106 $end
$var wire 1 +! Add0~101_sumout $end
$var wire 1 ,! Add0~102 $end
$var wire 1 -! Add0~97_sumout $end
$var wire 1 .! Add0~98 $end
$var wire 1 /! Add0~93_sumout $end
$var wire 1 0! Equal0~4_combout $end
$var wire 1 1! Equal0~5_combout $end
$var wire 1 2! Equal0~6_combout $end
$var wire 1 3! state~11_combout $end
$var wire 1 4! state.initial~q $end
$var wire 1 5! Selector0~0_combout $end
$var wire 1 6! state.wait_input~q $end
$var wire 1 7! state~12_combout $end
$var wire 1 8! state.send_spi~q $end
$var wire 1 9! enable~0_combout $end
$var wire 1 :! enable~combout $end
$var wire 1 ;! st7735|Add4~17_sumout $end
$var wire 1 <! st7735|count~5_combout $end
$var wire 1 =! st7735|count[30]~1_combout $end
$var wire 1 >! st7735|Add4~18 $end
$var wire 1 ?! st7735|Add4~117_sumout $end
$var wire 1 @! st7735|count~31_combout $end
$var wire 1 A! st7735|Add4~118 $end
$var wire 1 B! st7735|Add4~13_sumout $end
$var wire 1 C! st7735|count~4_combout $end
$var wire 1 D! st7735|Add4~14 $end
$var wire 1 E! st7735|Add4~121_sumout $end
$var wire 1 F! st7735|count~32_combout $end
$var wire 1 G! st7735|Add4~122 $end
$var wire 1 H! st7735|Add4~9_sumout $end
$var wire 1 I! st7735|count~3_combout $end
$var wire 1 J! st7735|Add4~10 $end
$var wire 1 K! st7735|Add4~5_sumout $end
$var wire 1 L! st7735|count~2_combout $end
$var wire 1 M! st7735|Add4~6 $end
$var wire 1 N! st7735|Add4~1_sumout $end
$var wire 1 O! st7735|count~0_combout $end
$var wire 1 P! st7735|Add4~2 $end
$var wire 1 Q! st7735|Add4~41_sumout $end
$var wire 1 R! st7735|count~11_combout $end
$var wire 1 S! st7735|Add4~42 $end
$var wire 1 T! st7735|Add4~37_sumout $end
$var wire 1 U! st7735|count~10_combout $end
$var wire 1 V! st7735|Add4~38 $end
$var wire 1 W! st7735|Add4~33_sumout $end
$var wire 1 X! st7735|count~9_combout $end
$var wire 1 Y! st7735|Add4~34 $end
$var wire 1 Z! st7735|Add4~29_sumout $end
$var wire 1 [! st7735|count~8_combout $end
$var wire 1 \! st7735|Add4~30 $end
$var wire 1 ]! st7735|Add4~25_sumout $end
$var wire 1 ^! st7735|count~7_combout $end
$var wire 1 _! st7735|Add4~26 $end
$var wire 1 `! st7735|Add4~21_sumout $end
$var wire 1 a! st7735|count~6_combout $end
$var wire 1 b! st7735|Equal1~1_combout $end
$var wire 1 c! st7735|Add4~22 $end
$var wire 1 d! st7735|Add4~65_sumout $end
$var wire 1 e! st7735|count~17_combout $end
$var wire 1 f! st7735|Add4~66 $end
$var wire 1 g! st7735|Add4~61_sumout $end
$var wire 1 h! st7735|count~16_combout $end
$var wire 1 i! st7735|Add4~62 $end
$var wire 1 j! st7735|Add4~57_sumout $end
$var wire 1 k! st7735|count~15_combout $end
$var wire 1 l! st7735|Add4~58 $end
$var wire 1 m! st7735|Add4~53_sumout $end
$var wire 1 n! st7735|count~14_combout $end
$var wire 1 o! st7735|Add4~54 $end
$var wire 1 p! st7735|Add4~49_sumout $end
$var wire 1 q! st7735|count~13_combout $end
$var wire 1 r! st7735|Add4~50 $end
$var wire 1 s! st7735|Add4~45_sumout $end
$var wire 1 t! st7735|count~12_combout $end
$var wire 1 u! st7735|Equal1~2_combout $end
$var wire 1 v! st7735|clk_ratio[1]~0_combout $end
$var wire 1 w! st7735|count[31]~18_combout $end
$var wire 1 x! st7735|Add4~46 $end
$var wire 1 y! st7735|Add4~89_sumout $end
$var wire 1 z! st7735|count~24_combout $end
$var wire 1 {! st7735|Add4~90 $end
$var wire 1 |! st7735|Add4~85_sumout $end
$var wire 1 }! st7735|count~23_combout $end
$var wire 1 ~! st7735|Add4~86 $end
$var wire 1 !" st7735|Add4~81_sumout $end
$var wire 1 "" st7735|count~22_combout $end
$var wire 1 #" st7735|Add4~82 $end
$var wire 1 $" st7735|Add4~77_sumout $end
$var wire 1 %" st7735|count~21_combout $end
$var wire 1 &" st7735|Add4~78 $end
$var wire 1 '" st7735|Add4~73_sumout $end
$var wire 1 (" st7735|count~20_combout $end
$var wire 1 )" st7735|Add4~74 $end
$var wire 1 *" st7735|Add4~69_sumout $end
$var wire 1 +" st7735|count~19_combout $end
$var wire 1 ," st7735|Add4~70 $end
$var wire 1 -" st7735|Add4~113_sumout $end
$var wire 1 ." st7735|count~30_combout $end
$var wire 1 /" st7735|Add4~114 $end
$var wire 1 0" st7735|Add4~109_sumout $end
$var wire 1 1" st7735|count~29_combout $end
$var wire 1 2" st7735|Add4~110 $end
$var wire 1 3" st7735|Add4~105_sumout $end
$var wire 1 4" st7735|count~28_combout $end
$var wire 1 5" st7735|Add4~106 $end
$var wire 1 6" st7735|Add4~101_sumout $end
$var wire 1 7" st7735|count~27_combout $end
$var wire 1 8" st7735|Add4~102 $end
$var wire 1 9" st7735|Add4~97_sumout $end
$var wire 1 :" st7735|count~26_combout $end
$var wire 1 ;" st7735|Add4~98 $end
$var wire 1 <" st7735|Add4~93_sumout $end
$var wire 1 =" st7735|count~25_combout $end
$var wire 1 >" st7735|Add4~94 $end
$var wire 1 ?" st7735|Add4~125_sumout $end
$var wire 1 @" st7735|count[31]~33_combout $end
$var wire 1 A" st7735|Equal1~5_combout $end
$var wire 1 B" st7735|Equal1~3_combout $end
$var wire 1 C" st7735|Equal1~0_combout $end
$var wire 1 D" st7735|Equal1~4_combout $end
$var wire 1 E" st7735|Equal1~6_combout $end
$var wire 1 F" st7735|sclk~1_combout $end
$var wire 1 G" st7735|Add1~4_combout $end
$var wire 1 H" st7735|Add1~0_combout $end
$var wire 1 I" st7735|Equal2~1_combout $end
$var wire 1 J" st7735|busy~0_combout $end
$var wire 1 K" st7735|state~q $end
$var wire 1 L" st7735|clk_toggles~0_combout $end
$var wire 1 M" st7735|Add1~2_combout $end
$var wire 1 N" st7735|Add1~3_combout $end
$var wire 1 O" st7735|assert_data~0_combout $end
$var wire 1 P" st7735|assert_data~q $end
$var wire 1 Q" st7735|cmd_buffer[5]~1_combout $end
$var wire 1 R" WideOr6~combout $end
$var wire 1 S" st7735|cmd_buffer[1]~6_combout $end
$var wire 1 T" st7735|cmd_buffer~5_combout $end
$var wire 1 U" st7735|cmd_buffer[5]~2_combout $end
$var wire 1 V" st7735|cmd_buffer~4_combout $end
$var wire 1 W" st7735|cmd_buffer~3_combout $end
$var wire 1 X" st7735|cmd_buffer~0_combout $end
$var wire 1 Y" st7735|process_0~1_combout $end
$var wire 1 Z" st7735|sdio~1_combout $end
$var wire 1 [" st7735|sdio~2_combout $end
$var wire 1 \" st7735|sdio~3_combout $end
$var wire 1 ]" st7735|sdio~reg0_q $end
$var wire 1 ^" st7735|Equal2~0_combout $end
$var wire 1 _" st7735|sdio~4_combout $end
$var wire 1 `" st7735|sdio~en_q $end
$var wire 1 a" sdio~input_o $end
$var wire 1 b" st7735|ss_n~0_combout $end
$var wire 1 c" st7735|process_0~0_combout $end
$var wire 1 d" st7735|sclk~0_combout $end
$var wire 1 e" st7735|sclk~q $end
$var wire 1 f" WideOr4~0_combout $end
$var wire 1 g" cs$latch~combout $end
$var wire 1 h" WideOr3~combout $end
$var wire 1 i" test$latch~combout $end
$var wire 1 j" st7735|clk_toggles [5] $end
$var wire 1 k" st7735|clk_toggles [4] $end
$var wire 1 l" st7735|clk_toggles [3] $end
$var wire 1 m" st7735|clk_toggles [2] $end
$var wire 1 n" st7735|clk_toggles [1] $end
$var wire 1 o" st7735|clk_toggles [0] $end
$var wire 1 p" counter [31] $end
$var wire 1 q" counter [30] $end
$var wire 1 r" counter [29] $end
$var wire 1 s" counter [28] $end
$var wire 1 t" counter [27] $end
$var wire 1 u" counter [26] $end
$var wire 1 v" counter [25] $end
$var wire 1 w" counter [24] $end
$var wire 1 x" counter [23] $end
$var wire 1 y" counter [22] $end
$var wire 1 z" counter [21] $end
$var wire 1 {" counter [20] $end
$var wire 1 |" counter [19] $end
$var wire 1 }" counter [18] $end
$var wire 1 ~" counter [17] $end
$var wire 1 !# counter [16] $end
$var wire 1 "# counter [15] $end
$var wire 1 ## counter [14] $end
$var wire 1 $# counter [13] $end
$var wire 1 %# counter [12] $end
$var wire 1 &# counter [11] $end
$var wire 1 '# counter [10] $end
$var wire 1 (# counter [9] $end
$var wire 1 )# counter [8] $end
$var wire 1 *# counter [7] $end
$var wire 1 +# counter [6] $end
$var wire 1 ,# counter [5] $end
$var wire 1 -# counter [4] $end
$var wire 1 .# counter [3] $end
$var wire 1 /# counter [2] $end
$var wire 1 0# counter [1] $end
$var wire 1 1# counter [0] $end
$var wire 1 2# st7735|ss_n [0] $end
$var wire 1 3# st7735|count [31] $end
$var wire 1 4# st7735|count [30] $end
$var wire 1 5# st7735|count [29] $end
$var wire 1 6# st7735|count [28] $end
$var wire 1 7# st7735|count [27] $end
$var wire 1 8# st7735|count [26] $end
$var wire 1 9# st7735|count [25] $end
$var wire 1 :# st7735|count [24] $end
$var wire 1 ;# st7735|count [23] $end
$var wire 1 <# st7735|count [22] $end
$var wire 1 =# st7735|count [21] $end
$var wire 1 ># st7735|count [20] $end
$var wire 1 ?# st7735|count [19] $end
$var wire 1 @# st7735|count [18] $end
$var wire 1 A# st7735|count [17] $end
$var wire 1 B# st7735|count [16] $end
$var wire 1 C# st7735|count [15] $end
$var wire 1 D# st7735|count [14] $end
$var wire 1 E# st7735|count [13] $end
$var wire 1 F# st7735|count [12] $end
$var wire 1 G# st7735|count [11] $end
$var wire 1 H# st7735|count [10] $end
$var wire 1 I# st7735|count [9] $end
$var wire 1 J# st7735|count [8] $end
$var wire 1 K# st7735|count [7] $end
$var wire 1 L# st7735|count [6] $end
$var wire 1 M# st7735|count [5] $end
$var wire 1 N# st7735|count [4] $end
$var wire 1 O# st7735|count [3] $end
$var wire 1 P# st7735|count [2] $end
$var wire 1 Q# st7735|count [1] $end
$var wire 1 R# st7735|count [0] $end
$var wire 1 S# st7735|clk_ratio [31] $end
$var wire 1 T# st7735|clk_ratio [30] $end
$var wire 1 U# st7735|clk_ratio [29] $end
$var wire 1 V# st7735|clk_ratio [28] $end
$var wire 1 W# st7735|clk_ratio [27] $end
$var wire 1 X# st7735|clk_ratio [26] $end
$var wire 1 Y# st7735|clk_ratio [25] $end
$var wire 1 Z# st7735|clk_ratio [24] $end
$var wire 1 [# st7735|clk_ratio [23] $end
$var wire 1 \# st7735|clk_ratio [22] $end
$var wire 1 ]# st7735|clk_ratio [21] $end
$var wire 1 ^# st7735|clk_ratio [20] $end
$var wire 1 _# st7735|clk_ratio [19] $end
$var wire 1 `# st7735|clk_ratio [18] $end
$var wire 1 a# st7735|clk_ratio [17] $end
$var wire 1 b# st7735|clk_ratio [16] $end
$var wire 1 c# st7735|clk_ratio [15] $end
$var wire 1 d# st7735|clk_ratio [14] $end
$var wire 1 e# st7735|clk_ratio [13] $end
$var wire 1 f# st7735|clk_ratio [12] $end
$var wire 1 g# st7735|clk_ratio [11] $end
$var wire 1 h# st7735|clk_ratio [10] $end
$var wire 1 i# st7735|clk_ratio [9] $end
$var wire 1 j# st7735|clk_ratio [8] $end
$var wire 1 k# st7735|clk_ratio [7] $end
$var wire 1 l# st7735|clk_ratio [6] $end
$var wire 1 m# st7735|clk_ratio [5] $end
$var wire 1 n# st7735|clk_ratio [4] $end
$var wire 1 o# st7735|clk_ratio [3] $end
$var wire 1 p# st7735|clk_ratio [2] $end
$var wire 1 q# st7735|clk_ratio [1] $end
$var wire 1 r# st7735|clk_ratio [0] $end
$var wire 1 s# st7735|cmd_buffer [5] $end
$var wire 1 t# st7735|cmd_buffer [4] $end
$var wire 1 u# st7735|cmd_buffer [3] $end
$var wire 1 v# st7735|cmd_buffer [2] $end
$var wire 1 w# st7735|cmd_buffer [1] $end
$var wire 1 x# st7735|cmd_buffer [0] $end
$var wire 1 y# spi_cmd [5] $end
$var wire 1 z# spi_cmd [4] $end
$var wire 1 {# spi_cmd [3] $end
$var wire 1 |# spi_cmd [2] $end
$var wire 1 }# spi_cmd [1] $end
$var wire 1 ~# spi_cmd [0] $end
$upscope $end
$upscope $end
$enddefinitions $end
#0
$dumpvars
z!
z"
0#
0$
1%
z&
0'
z(
z)
z*
0+
0,
0-
z.
1/
00
01
02
03
04
x5
06
17
x8
19
1:
1;
z<
z=
0>
0?
0@
0A
0B
1C
1D
1E
0F
0G
0H
0I
0J
0K
0L
0M
0N
0O
0P
0Q
0R
0S
0T
0U
0V
0W
0X
0Y
0Z
0[
0\
0]
0^
0_
0`
0a
0b
0c
0d
0e
0f
0g
0h
0i
0j
0k
1l
0m
0n
0o
0p
0q
0r
0s
0t
0u
0v
0w
0x
0y
0z
1{
0|
0}
0~
0!!
0"!
0#!
0$!
0%!
0&!
0'!
0(!
0)!
0*!
0+!
0,!
0-!
0.!
0/!
10!
11!
02!
13!
04!
15!
06!
07!
08!
09!
0:!
1;!
0<!
0=!
0>!
0?!
1@!
0A!
0B!
0C!
0D!
0E!
1F!
0G!
0H!
0I!
0J!
0K!
0L!
0M!
0N!
0O!
0P!
0Q!
0R!
0S!
0T!
0U!
0V!
0W!
0X!
0Y!
0Z!
0[!
0\!
0]!
0^!
0_!
0`!
0a!
1b!
0c!
0d!
0e!
0f!
0g!
0h!
0i!
0j!
0k!
0l!
0m!
0n!
0o!
0p!
0q!
0r!
0s!
0t!
1u!
0v!
0w!
0x!
0y!
0z!
0{!
0|!
0}!
0~!
0!"
0""
0#"
0$"
0%"
0&"
0'"
0("
0)"
0*"
0+"
0,"
0-"
0."
0/"
00"
01"
02"
03"
04"
05"
06"
07"
08"
09"
0:"
0;"
0<"
0="
0>"
1?"
0@"
1A"
1B"
1C"
1D"
1E"
0F"
0G"
0H"
0I"
0J"
0K"
0L"
0M"
0N"
0O"
0P"
0Q"
0R"
0S"
0T"
0U"
0V"
0W"
0X"
0Y"
0Z"
0["
1\"
0]"
1^"
0_"
0`"
za"
0b"
0c"
0d"
0e"
1f"
0g"
0h"
0i"
0o"
0n"
0m"
0l"
0k"
0j"
01#
00#
0/#
0.#
0-#
0,#
0+#
0*#
0)#
0(#
0'#
0&#
0%#
0$#
0##
0"#
0!#
0~"
0}"
0|"
0{"
0z"
0y"
0x"
0w"
0v"
0u"
0t"
0s"
0r"
0q"
0p"
02#
0R#
0Q#
0P#
0O#
0N#
0M#
0L#
0K#
0J#
0I#
0H#
0G#
0F#
0E#
0D#
0C#
0B#
0A#
0@#
0?#
0>#
0=#
0<#
0;#
0:#
09#
08#
07#
06#
05#
04#
03#
zr#
0q#
zp#
zo#
zn#
zm#
zl#
zk#
zj#
zi#
zh#
zg#
zf#
ze#
zd#
zc#
zb#
za#
z`#
z_#
z^#
z]#
z\#
z[#
zZ#
zY#
zX#
zW#
zV#
zU#
zT#
zS#
zx#
0w#
0v#
0u#
0t#
0s#
z~#
0}#
z|#
z{#
zz#
zy#
$end
#10000
1#
1?
05
1@
14!
1F
16!
0f"
1h"
1R"
19!
12
0/
#20000
0#
0?
15
0@
#30000
1#
1?
05
1@
#40000
0#
0?
15
0@
#50000
1#
1?
05
1@
#60000
0#
0?
15
0@
#70000
1#
1?
05
1@
#80000
0#
0?
15
0@
#90000
1#
1?
05
1@
#100000
0#
0?
15
0@
#110000
1#
1?
05
1@
#120000
0#
0?
15
0@
#130000
1#
1?
05
1@
#140000
0#
0?
15
0@
#150000
1#
1?
05
1@
#160000
0#
0?
15
0@
#170000
1#
1?
05
1@
#180000
0#
0?
15
0@
#190000
1#
1?
05
1@
#200000
0#
0?
15
0@
#210000
1#
1?
05
1@
#220000
0#
0?
15
0@
#230000
1#
1?
05
1@
#240000
0#
0?
15
0@
#250000
1#
1?
05
1@
#260000
0#
0?
15
0@
#270000
1#
1?
05
1@
#280000
0#
0?
15
0@
#290000
1#
1?
05
1@
#300000
0#
0?
15
0@
#310000
1#
1?
05
1@
#320000
0#
0?
15
0@
#330000
1#
1?
05
1@
#340000
0#
0?
15
0@
#350000
1#
1?
05
1@
#360000
0#
0?
15
0@
#370000
1#
1?
05
1@
#380000
0#
0?
15
0@
#390000
1#
1?
05
1@
#400000
0#
0?
15
0@
#410000
1#
1?
05
1@
#420000
0#
0?
15
0@
#430000
1#
1?
05
1@
#440000
0#
0?
15
0@
#450000
1#
1?
05
1@
#460000
0#
0?
15
0@
#470000
1#
1?
05
1@
#480000
0#
0?
15
0@
#490000
1#
1?
05
1@
#500000
0#
0?
15
0@
#510000
1#
1?
05
1@
#520000
0#
0?
15
0@
#530000
1#
1?
05
1@
#540000
0#
0?
15
0@
#550000
1#
1?
05
1@
#560000
0#
0?
15
0@
#570000
1#
1?
05
1@
#580000
0#
0?
15
0@
#590000
1#
1?
05
1@
#600000
0#
0?
15
0@
#610000
1#
1?
05
1@
#620000
0#
0?
15
0@
#630000
1#
1?
05
1@
#640000
0#
0?
15
0@
#650000
1#
1?
05
1@
#660000
0#
0?
15
0@
#670000
1#
1?
05
1@
#680000
0#
0?
15
0@
#690000
1#
1?
05
1@
#700000
0#
0?
15
0@
#710000
1#
1?
05
1@
#720000
0#
0?
15
0@
#730000
1#
1?
05
1@
#740000
0#
0?
15
0@
#750000
1#
1?
05
1@
#760000
0#
0?
15
0@
#770000
1#
1?
05
1@
#780000
0#
0?
15
0@
#790000
1#
1?
05
1@
#800000
0#
0?
15
0@
#810000
1#
1?
05
1@
#820000
0#
0?
15
0@
#830000
1#
1?
05
1@
#840000
0#
0?
15
0@
#850000
1#
1?
05
1@
#860000
0#
0?
15
0@
#870000
1#
1?
05
1@
#880000
0#
0?
15
0@
#890000
1#
1?
05
1@
#900000
0#
0?
15
0@
#910000
1#
1?
05
1@
#920000
0#
0?
15
0@
#930000
1#
1?
05
1@
#940000
0#
0?
15
0@
#950000
1#
1?
05
1@
#960000
0#
0?
15
0@
#970000
1#
1?
05
1@
#980000
0#
0?
15
0@
#990000
1#
1?
05
1@
#1000000
0#
0?
15
0@
#1010000
1#
1?
05
1@
#1020000
0#
0?
15
0@
#1030000
1#
1?
05
1@
#1040000
0#
0?
15
0@
#1050000
1#
1?
05
1@
#1060000
0#
0?
15
0@
#1070000
1#
1?
05
1@
#1080000
0#
0?
15
0@
#1090000
1#
1?
05
1@
#1100000
0#
0?
15
0@
#1110000
1#
1?
05
1@
#1120000
0#
0?
15
0@
#1130000
1#
1?
05
1@
#1140000
0#
0?
15
0@
#1150000
1#
1?
05
1@
#1160000
0#
0?
15
0@
#1170000
1#
1?
05
1@
#1180000
0#
0?
15
0@
#1190000
1#
1?
05
1@
#1200000
0#
0?
15
0@
#1210000
1#
1?
05
1@
#1220000
0#
0?
15
0@
#1230000
1#
1?
05
1@
#1240000
0#
0?
15
0@
#1250000
1#
1?
05
1@
#1260000
0#
0?
15
0@
#1270000
1#
1?
05
1@
#1280000
0#
0?
15
0@
#1290000
1#
1?
05
1@
#1300000
0#
0?
15
0@
#1310000
1#
1?
05
1@
#1320000
0#
0?
15
0@
#1330000
1#
1?
05
1@
#1340000
0#
0?
15
0@
#1350000
1#
1?
05
1@
#1360000
0#
0?
15
0@
#1370000
1#
1?
05
1@
#1380000
0#
0?
15
0@
#1390000
1#
1?
05
1@
#1400000
0#
0?
15
0@
#1410000
1#
1?
05
1@
#1420000
0#
0?
15
0@
#1430000
1#
1?
05
1@
#1440000
0#
0?
15
0@
#1450000
1#
1?
05
1@
#1460000
0#
0?
15
0@
#1470000
1#
1?
05
1@
#1480000
0#
0?
15
0@
#1490000
1#
1?
05
1@
#1500000
0#
0?
15
0@
#1510000
1#
1?
05
1@
#1520000
0#
0?
15
0@
#1530000
1#
1?
05
1@
#1540000
0#
0?
15
0@
#1550000
1#
1?
05
1@
#1560000
0#
0?
15
0@
#1570000
1#
1?
05
1@
#1580000
0#
0?
15
0@
#1590000
1#
1?
05
1@
#1600000
0#
0?
15
0@
#1610000
1#
1?
05
1@
#1620000
0#
0?
15
0@
#1630000
1#
1?
05
1@
#1640000
0#
0?
15
0@
#1650000
1#
1?
05
1@
#1660000
0#
0?
15
0@
#1670000
1#
1?
05
1@
#1680000
0#
0?
15
0@
#1690000
1#
1?
05
1@
#1700000
0#
0?
15
0@
#1710000
1#
1?
05
1@
#1720000
0#
0?
15
0@
#1730000
1#
1?
05
1@
#1740000
0#
0?
15
0@
#1750000
1#
1?
05
1@
#1760000
0#
0?
15
0@
#1770000
1#
1?
05
1@
#1780000
0#
0?
15
0@
#1790000
1#
1?
05
1@
#1800000
0#
0?
15
0@
#1810000
1#
1?
05
1@
#1820000
0#
0?
15
0@
#1830000
1#
1?
05
1@
#1840000
0#
0?
15
0@
#1850000
1#
1?
05
1@
#1860000
0#
0?
15
0@
#1870000
1#
1?
05
1@
#1880000
0#
0?
15
0@
#1890000
1#
1?
05
1@
#1900000
0#
0?
15
0@
#1910000
1#
1?
05
1@
#1920000
0#
0?
15
0@
#1930000
1#
1?
05
1@
#1940000
0#
0?
15
0@
#1950000
1#
1?
05
1@
#1960000
0#
0?
15
0@
#1970000
1#
1?
05
1@
#1980000
0#
0?
15
0@
#1990000
1#
1?
05
1@
#2000000
0#
0?
15
0@
#2010000
1#
1?
05
1@
#2020000
0#
0?
15
0@
#2030000
1#
1?
05
1@
#2040000
0#
0?
15
0@
#2050000
1#
1?
05
1@
#2060000
0#
0?
15
0@
#2070000
1#
1?
05
1@
#2080000
0#
0?
15
0@
#2090000
1#
1?
05
1@
#2100000
0#
0?
15
0@
#2110000
1#
1?
05
1@
#2120000
0#
0?
15
0@
#2130000
1#
1?
05
1@
#2140000
0#
0?
15
0@
#2150000
1#
1?
05
1@
#2160000
0#
0?
15
0@
#2170000
1#
1?
05
1@
#2180000
0#
0?
15
0@
#2190000
1#
1?
05
1@
#2200000
0#
0?
15
0@
#2210000
1#
1?
05
1@
#2220000
0#
0?
15
0@
#2230000
1#
1?
05
1@
#2240000
0#
0?
15
0@
#2250000
1#
1?
05
1@
#2260000
0#
0?
15
0@
#2270000
1#
1?
05
1@
#2280000
0#
0?
15
0@
#2290000
1#
1?
05
1@
#2300000
0#
0?
15
0@
#2310000
1#
1?
05
1@
#2320000
0#
0?
15
0@
#2330000
1#
1?
05
1@
#2340000
0#
0?
15
0@
#2350000
1#
1?
05
1@
#2360000
0#
0?
15
0@
#2370000
1#
1?
05
1@
#2380000
0#
0?
15
0@
#2390000
1#
1?
05
1@
#2400000
0#
0?
15
0@
#2410000
1#
1?
05
1@
#2420000
0#
0?
15
0@
#2430000
1#
1?
05
1@
#2440000
0#
0?
15
0@
#2450000
1#
1?
05
1@
#2460000
0#
0?
15
0@
#2470000
1#
1?
05
1@
#2480000
0#
0?
15
0@
#2490000
1#
1?
05
1@
#2500000
0#
0?
15
0@
#2510000
1#
1?
05
1@
#2520000
0#
0?
15
0@
#2530000
1#
1?
05
1@
#2540000
0#
0?
15
0@
#2550000
1#
1?
05
1@
#2560000
0#
0?
15
0@
#2570000
1#
1?
05
1@
#2580000
0#
0?
15
0@
#2590000
1#
1?
05
1@
#2600000
0#
0?
15
0@
#2610000
1#
1?
05
1@
#2620000
0#
0?
15
0@
#2630000
1#
1?
05
1@
#2640000
0#
0?
15
0@
#2650000
1#
1?
05
1@
#2660000
0#
0?
15
0@
#2670000
1#
1?
05
1@
#2680000
0#
0?
15
0@
#2690000
1#
1?
05
1@
#2700000
0#
0?
15
0@
#2710000
1#
1?
05
1@
#2720000
0#
0?
15
0@
#2730000
1#
1?
05
1@
#2740000
0#
0?
15
0@
#2750000
1#
1?
05
1@
#2760000
0#
0?
15
0@
#2770000
1#
1?
05
1@
#2780000
0#
0?
15
0@
#2790000
1#
1?
05
1@
#2800000
0#
0?
15
0@
#2810000
1#
1?
05
1@
#2820000
0#
0?
15
0@
#2830000
1#
1?
05
1@
#2840000
0#
0?
15
0@
#2850000
1#
1?
05
1@
#2860000
0#
0?
15
0@
#2870000
1#
1?
05
1@
#2880000
0#
0?
15
0@
#2890000
1#
1?
05
1@
#2900000
0#
0?
15
0@
#2910000
1#
1?
05
1@
#2920000
0#
0?
15
0@
#2930000
1#
1?
05
1@
#2940000
0#
0?
15
0@
#2950000
1#
1?
05
1@
#2960000
0#
0?
15
0@
#2970000
1#
1?
05
1@
#2980000
0#
0?
15
0@
#2990000
1#
1?
05
1@
#3000000
0#
0?
15
0@
#3010000
1#
1?
05
1@
#3020000
0#
0?
15
0@
#3030000
1#
1?
05
1@
#3040000
0#
0?
15
0@
#3050000
1#
1?
05
1@
#3060000
0#
0?
15
0@
#3070000
1#
1?
05
1@
#3080000
0#
0?
15
0@
#3090000
1#
1?
05
1@
#3100000
0#
0?
15
0@
#3110000
1#
1?
05
1@
#3120000
0#
0?
15
0@
#3130000
1#
1?
05
1@
#3140000
0#
0?
15
0@
#3150000
1#
1?
05
1@
#3160000
0#
0?
15
0@
#3170000
1#
1?
05
1@
#3180000
0#
0?
15
0@
#3190000
1#
1?
05
1@
#3200000
0#
0?
15
0@
#3210000
1#
1?
05
1@
#3220000
0#
0?
15
0@
#3230000
1#
1?
05
1@
#3240000
0#
0?
15
0@
#3250000
1#
1?
05
1@
#3260000
0#
0?
15
0@
#3270000
1#
1?
05
1@
#3280000
0#
0?
15
0@
#3290000
1#
1?
05
1@
#3300000
0#
0?
15
0@
#3310000
1#
1?
05
1@
#3320000
0#
0?
15
0@
#3330000
1#
1?
05
1@
#3340000
0#
0?
15
0@
#3350000
1#
1?
05
1@
#3360000
0#
0?
15
0@
#3370000
1#
1?
05
1@
#3380000
0#
0?
15
0@
#3390000
1#
1?
05
1@
#3400000
0#
0?
15
0@
#3410000
1#
1?
05
1@
#3420000
0#
0?
15
0@
#3430000
1#
1?
05
1@
