single_pwm/simulation/qsim/single_pwm.msim.vcd
$comment
	File created using the following command:
		vcd file single_pwm.msim.vcd -direction
$end
$date
	Sat Dec 12 15:51:37 2015
$end
$version
	ModelSim Version 10.3d
$end
$timescale
	1ps
$end

$scope module single_pwm_vlg_vec_tst $end
$var reg 1 ! clk $end
$var reg 8 " duty [7:0] $end
$var reg 1 # ena $end
$var reg 1 $ reset_n $end
$var wire 1 % pwm_out $end
$var wire 1 & sampler $end

$scope module i1 $end
$var wire 1 ' gnd $end
$var wire 1 ( vcc $end
$var wire 1 ) unknown $end
$var tri1 1 * devclrn $end
$var tri1 1 + devpor $end
$var tri1 1 , devoe $end
$var wire 1 - pwm_out~output_o $end
$var wire 1 . clk~input_o $end
$var wire 1 / ena~input_o $end
$var wire 1 0 duty[7]~input_o $end
$var wire 1 1 duty[5]~input_o $end
$var wire 1 2 duty[6]~input_o $end
$var wire 1 3 duty[4]~input_o $end
$var wire 1 4 duty[3]~input_o $end
$var wire 1 5 duty[2]~input_o $end
$var wire 1 6 duty[1]~input_o $end
$var wire 1 7 duty[0]~input_o $end
$var wire 1 8 Add0~34_cout $end
$var wire 1 9 Add0~30_cout $end
$var wire 1 : Add0~26_cout $end
$var wire 1 ; Add0~22_cout $end
$var wire 1 < Add0~18_cout $end
$var wire 1 = Add0~1_sumout $end
$var wire 1 > half_duty_new~0_combout $end
$var wire 1 ? reset_n~input_o $end
$var wire 1 @ count[0]~4_combout $end
$var wire 1 A count[1]~0_combout $end
$var wire 1 B count[3]~3_combout $end
$var wire 1 C count~1_combout $end
$var wire 1 D count~2_combout $end
$var wire 1 E half_duty[0]~0_combout $end
$var wire 1 F Add0~2 $end
$var wire 1 G Add0~5_sumout $end
$var wire 1 H half_duty_new~1_combout $end
$var wire 1 I Equal1~0_combout $end
$var wire 1 J Add0~6 $end
$var wire 1 K Add0~9_sumout $end
$var wire 1 L half_duty_new~2_combout $end
$var wire 1 M Add0~10 $end
$var wire 1 N Add0~13_sumout $end
$var wire 1 O half_duty_new~3_combout $end
$var wire 1 P Equal1~1_combout $end
$var wire 1 Q pwm_out~0_combout $end
$var wire 1 R pwm_out~1_combout $end
$var wire 1 S pwm_out~2_combout $end
$var wire 1 T pwm_out~reg0_q $end
$var wire 1 U half_duty [3] $end
$var wire 1 V half_duty [2] $end
$var wire 1 W half_duty [1] $end
$var wire 1 X half_duty [0] $end
$var wire 1 Y count [4] $end
$var wire 1 Z count [3] $end
$var wire 1 [ count [2] $end
$var wire 1 \ count [1] $end
$var wire 1 ] count [0] $end
$var wire 1 ^ half_duty_new [3] $end
$var wire 1 _ half_duty_new [2] $end
$var wire 1 ` half_duty_new [1] $end
$var wire 1 a half_duty_new [0] $end
$upscope $end
$upscope $end
$enddefinitions $end
#0
$dumpvars
0!
b10010000 "
1#
1$
0%
x&
0'
1(
x)
1*
1+
1,
0-
0.
1/
10
01
02
13
04
05
06
07
08
09
0:
0;
0<
1=
1>
1?
1@
0A
0B
0C
0D
0E
0F
0G
0H
1I
0J
1K
1L
0M
0N
0O
1P
0Q
0R
0S
0T
0X
0W
0V
0U
0]
0\
0[
0Z
0Y
0a
0`
0_
0^
$end
#2500
1!
0&
1.
1]
1_
1a
0I
1A
0@
#5000
0!
1&
0.
#7500
1!
0&
1.
1\
0]
1@
#10000
0!
1&
0.
#12500
1!
0&
1.
1]
1D
0A
0@
#15000
0!
1&
0.
#17500
1!
0&
1.
1[
0\
0]
1Q
1I
0P
1@
#20000
0!
1&
0.
#22500
1!
0&
1.
1]
0Q
0I
1A
0@
#25000
0!
1&
0.
#27500
1!
0&
1.
1\
0]
1@
#30000
0!
1&
0.
#32500
1!
0&
1.
1]
0D
1B
0A
0@
#35000
0!
1&
0.
#37500
1!
0&
1.
0[
1Z
0\
0]
1I
1@
#40000
0!
1&
0.
#42500
1!
0&
1.
1]
0I
1A
0@
#45000
0!
1&
0.
#47500
1!
0&
1.
1\
0]
1@
#50000
0!
1&
0.
#52500
1!
0&
1.
1]
1D
0A
0@
#55000
0!
1&
0.
#57500
1!
0&
1.
1[
0\
0]
1Q
1I
1@
#60000
0!
1&
0.
#62500
1!
0&
1.
1]
0Q
0I
1A
0@
#65000
0!
1&
0.
#67500
1!
0&
1.
1\
0]
1@
#70000
0!
1&
0.
#72500
1!
0&
1.
1]
0D
1C
0B
0A
0@
#75000
0!
1&
0.
#77500
1!
0&
1.
0[
1Y
0Z
0\
0]
1R
1P
1@
#80000
0!
1&
0.
#82500
1!
0&
1.
1]
1A
0@
#85000
0!
1&
0.
#87500
1!
0&
1.
1\
0]
1@
#90000
0!
1&
0.
#92500
1!
0&
1.
1]
1E
0C
0A
0@
#95000
0!
1&
0.
#97500
1!
0&
1.
1V
1X
0Y
0\
0]
0E
0R
0P
1@
#100000
0!
1&
0.
#102500
1!
0&
1.
1]
1I
1A
0@
#105000
0!
1&
0.
#107500
1!
0&
1.
1\
0]
0I
1@
#110000
0!
1&
0.
#112500
1!
0&
1.
1]
1D
0A
0@
#115000
0!
1&
0.
#117500
1!
0&
1.
1[
0\
0]
1P
1@
#120000
0!
1&
0.
#122500
1!
0&
1.
1]
1I
1A
0@
#125000
0!
1&
0.
#127500
1!
0&
1.
1\
0]
0I
1@
#130000
0!
1&
0.
#132500
1!
0&
1.
1]
1Q
0D
1B
0A
0@
#135000
0!
1&
0.
#137500
1!
0&
1.
0[
1Z
0\
0]
0Q
1R
0P
1@
#140000
0!
1&
0.
#142500
1!
0&
1.
1]
1I
1A
0@
#145000
0!
1&
0.
#147500
1!
0&
1.
1\
0]
0I
1@
#150000
0!
1&
0.
#152500
1!
0&
1.
1]
1D
0A
0@
#155000
0!
1&
0.
#157500
1!
0&
1.
1[
0\
0]
1@
#160000
0!
1&
0.
#162500
1!
0&
1.
1]
1I
1A
0@
#165000
0!
1&
0.
#167500
1!
0&
1.
1\
0]
0I
1@
#170000
0!
1&
0.
#172500
1!
0&
1.
1]
1Q
0D
1C
0B
0A
0@
1S
#175000
0!
1&
0.
#177500
1!
0&
1.
0[
1Y
0Z
0\
0]
1T
1-
0Q
0R
1%
1@
#180000
0!
1&
0.
#182500
1!
0&
1.
1]
1A
0@
#185000
0!
1&
0.
#187500
1!
0&
1.
1\
0]
1@
#190000
0!
1&
0.
#192500
1!
0&
1.
1]
1E
0C
0A
0@
#195000
0!
1&
0.
#197500
1!
0&
1.
0Y
0\
0]
0E
1@
#200000
0!
1&
0.
#202500
1!
0&
1.
1]
1I
1A
0@
#205000
0!
1&
0.
#207500
1!
0&
1.
1\
0]
0I
1@
#210000
0!
1&
0.
#212500
1!
0&
1.
1]
1D
0A
0@
#215000
0!
1&
0.
#217500
1!
0&
1.
1[
0\
0]
1P
1@
#220000
0!
1&
0.
#222500
1!
0&
1.
1]
1I
1A
0@
0S
#225000
0!
1&
0.
#227500
1!
0&
1.
1\
0]
0T
0-
0I
0%
1@
#230000
0!
1&
0.
#232500
1!
0&
1.
1]
1Q
0D
1B
0A
0@
#235000
0!
1&
0.
#237500
1!
0&
1.
0[
1Z
0\
0]
0Q
1R
0P
1@
#240000
0!
1&
0.
#242500
1!
0&
1.
1]
1I
1A
0@
#245000
0!
1&
0.
#247500
1!
0&
1.
1\
0]
0I
1@
#250000
0!
1&
0.
#252500
1!
0&
1.
1]
1D
0A
0@
#255000
0!
1&
0.
#257500
1!
0&
1.
1[
0\
0]
1@
#260000
0!
1&
0.
#262500
1!
0&
1.
1]
1I
1A
0@
#265000
0!
1&
0.
#267500
1!
0&
1.
1\
0]
0I
1@
#270000
0!
1&
0.
#272500
1!
0&
1.
1]
1Q
0D
1C
0B
0A
0@
1S
#275000
0!
1&
0.
#277500
1!
0&
1.
0[
1Y
0Z
0\
0]
1T
1-
0Q
0R
1%
1@
#280000
0!
1&
0.
#282500
1!
0&
1.
1]
1A
0@
#285000
0!
1&
0.
#287500
1!
0&
1.
1\
0]
1@
#290000
0!
1&
0.
#292500
1!
0&
1.
1]
1E
0C
0A
0@
#295000
0!
1&
0.
#297500
1!
0&
1.
0Y
0\
0]
0E
1@
#300000
0!
1&
0.
#302500
1!
0&
1.
1]
1I
1A
0@
#305000
0!
1&
0.
#307500
1!
0&
1.
1\
0]
0I
1@
#310000
0!
1&
0.
#312500
1!
0&
1.
1]
1D
0A
0@
#315000
0!
1&
0.
#317500
1!
0&
1.
1[
0\
0]
1P
1@
#320000
0!
1&
0.
#322500
1!
0&
1.
1]
1I
1A
0@
0S
#325000
0!
1&
0.
#327500
1!
0&
1.
1\
0]
0T
0-
0I
0%
1@
#330000
0!
1&
0.
#332500
1!
0&
1.
1]
1Q
0D
1B
0A
0@
#335000
0!
1&
0.
#337500
1!
0&
1.
0[
1Z
0\
0]
0Q
1R
0P
1@
#340000
0!
1&
0.
#342500
1!
0&
1.
1]
1I
1A
0@
#345000
0!
1&
0.
#347500
1!
0&
1.
1\
0]
0I
1@
#350000
0!
1&
0.
#352500
1!
0&
1.
1]
1D
0A
0@
#355000
0!
1&
0.
#357500
1!
0&
1.
1[
0\
0]
1@
#360000
0!
1&
0.
#362500
1!
0&
1.
1]
1I
1A
0@
#365000
0!
1&
0.
#367500
1!
0&
1.
1\
0]
0I
1@
#370000
0!
1&
0.
#372500
1!
0&
1.
1]
1Q
0D
1C
0B
0A
0@
1S
#375000
0!
1&
0.
#377500
1!
0&
1.
0[
1Y
0Z
0\
0]
1T
1-
0Q
0R
1%
1@
#380000
0!
1&
0.
#382500
1!
0&
1.
1]
1A
0@
#385000
0!
1&
0.
#387500
1!
0&
1.
1\
0]
1@
#390000
0!
1&
0.
#392500
1!
0&
1.
1]
1E
0C
0A
0@
#395000
0!
1&
0.
#397500
1!
0&
1.
0Y
0\
0]
0E
1@
#400000
0!
1&
0.
#402500
1!
0&
1.
1]
1I
1A
0@
#405000
0!
1&
0.
#407500
1!
0&
1.
1\
0]
0I
1@
#410000
0!
1&
0.
#412500
1!
0&
1.
1]
1D
0A
0@
#415000
0!
1&
0.
#417500
1!
0&
1.
1[
0\
0]
1P
1@
#420000
0!
1&
0.
#422500
1!
0&
1.
1]
1I
1A
0@
0S
#425000
0!
1&
0.
#427500
1!
0&
1.
1\
0]
0T
0-
0I
0%
1@
#430000
0!
1&
0.
#432500
1!
0&
1.
1]
1Q
0D
1B
0A
0@
#435000
0!
1&
0.
#437500
1!
0&
1.
0[
1Z
0\
0]
0Q
1R
0P
1@
#440000
0!
1&
0.
#442500
1!
0&
1.
1]
1I
1A
0@
#445000
0!
1&
0.
#447500
1!
0&
1.
1\
0]
0I
1@
#450000
0!
1&
0.
#452500
1!
0&
1.
1]
1D
0A
0@
#455000
0!
1&
0.
#457500
1!
0&
1.
1[
0\
0]
1@
#460000
0!
1&
0.
#462500
1!
0&
1.
1]
1I
1A
0@
#465000
0!
1&
0.
#467500
1!
0&
1.
1\
0]
0I
1@
#470000
0!
1&
0.
#472500
1!
0&
1.
1]
1Q
0D
1C
0B
0A
0@
1S
#475000
0!
1&
0.
#477500
1!
0&
1.
0[
1Y
0Z
0\
0]
1T
1-
0Q
0R
1%
1@
#480000
0!
1&
0.
#482500
1!
0&
1.
1]
1A
0@
#485000
0!
1&
0.
#487500
1!
0&
1.
1\
0]
1@
#490000
0!
1&
0.
#492500
1!
0&
1.
1]
1E
0C
0A
0@
#495000
0!
1&
0.
#497500
1!
0&
1.
0Y
0\
0]
0E
1@
#500000
0!
1&
0.
#502500
1!
0&
1.
1]
1I
1A
0@
#505000
0!
1&
0.
#507500
1!
0&
1.
1\
0]
0I
1@
#510000
0!
1&
0.
#512500
1!
0&
1.
1]
1D
0A
0@
#515000
0!
1&
0.
#517500
1!
0&
1.
1[
0\
0]
1P
1@
#520000
0!
1&
0.
#522500
1!
0&
1.
1]
1I
1A
0@
0S
#525000
0!
1&
0.
#527500
1!
0&
1.
1\
0]
0T
0-
0I
0%
1@
#530000
0!
1&
0.
#532500
1!
0&
1.
1]
1Q
0D
1B
0A
0@
#535000
0!
1&
0.
#537500
1!
0&
1.
0[
1Z
0\
0]
0Q
1R
0P
1@
#540000
0!
1&
0.
#542500
1!
0&
1.
1]
1I
1A
0@
#545000
0!
1&
0.
#547500
1!
0&
1.
1\
0]
0I
1@
#550000
0!
1&
0.
#552500
1!
0&
1.
1]
1D
0A
0@
#555000
0!
1&
0.
#557500
1!
0&
1.
1[
0\
0]
1@
#560000
0!
1&
0.
#562500
1!
0&
1.
1]
1I
1A
0@
#565000
0!
1&
0.
#567500
1!
0&
1.
1\
0]
0I
1@
#570000
0!
1&
0.
#572500
1!
0&
1.
1]
1Q
0D
1C
0B
0A
0@
1S
#575000
0!
1&
0.
#577500
1!
0&
1.
0[
1Y
0Z
0\
0]
1T
1-
0Q
0R
1%
1@
#580000
0!
1&
0.
#582500
1!
0&
1.
1]
1A
0@
#585000
0!
1&
0.
#587500
1!
0&
1.
1\
0]
1@
#590000
0!
1&
0.
#592500
1!
0&
1.
1]
1E
0C
0A
0@
#595000
0!
1&
0.
#597500
1!
0&
1.
0Y
0\
0]
0E
1@
#600000
0!
1&
0.
#602500
1!
0&
1.
1]
1I
1A
0@
#605000
0!
1&
0.
#607500
1!
0&
1.
1\
0]
0I
1@
#610000
0!
1&
0.
#612500
1!
0&
1.
1]
1D
0A
0@
#615000
0!
1&
0.
#617500
1!
0&
1.
1[
0\
0]
1P
1@
#620000
0!
1&
0.
#622500
1!
0&
1.
1]
1I
1A
0@
0S
#625000
0!
1&
0.
#627500
1!
0&
1.
1\
0]
0T
0-
0I
0%
1@
#630000
0!
1&
0.
#632500
1!
0&
1.
1]
1Q
0D
1B
0A
0@
#635000
0!
1&
0.
#637500
1!
0&
1.
0[
1Z
0\
0]
0Q
1R
0P
1@
#640000
0!
1&
0.
#642500
1!
0&
1.
1]
1I
1A
0@
#645000
0!
1&
0.
#647500
1!
0&
1.
1\
0]
0I
1@
#650000
0!
1&
0.
#652500
1!
0&
1.
1]
1D
0A
0@
#655000
0!
1&
0.
#657500
1!
0&
1.
1[
0\
0]
1@
#660000
0!
1&
0.
#662500
1!
0&
1.
1]
1I
1A
0@
#665000
0!
1&
0.
#667500
1!
0&
1.
1\
0]
0I
1@
#670000
0!
1&
0.
#672500
1!
0&
1.
1]
1Q
0D
1C
0B
0A
0@
1S
#675000
0!
1&
0.
#677500
1!
0&
1.
0[
1Y
0Z
0\
0]
1T
1-
0Q
0R
1%
1@
#680000
0!
1&
0.
#682500
1!
0&
1.
1]
1A
0@
#685000
0!
1&
0.
#687500
1!
0&
1.
1\
0]
1@
#690000
0!
1&
0.
#692500
1!
0&
1.
1]
1E
0C
0A
0@
#695000
0!
1&
0.
#697500
1!
0&
1.
0Y
0\
0]
0E
1@
#700000
0!
1&
0.
#702500
1!
0&
1.
1]
1I
1A
0@
#705000
0!
1&
0.
#707500
1!
0&
1.
1\
0]
0I
1@
#710000
0!
1&
0.
#712500
1!
0&
1.
1]
1D
0A
0@
#715000
0!
1&
0.
#717500
1!
0&
1.
1[
0\
0]
1P
1@
#720000
0!
1&
0.
#722500
1!
0&
1.
1]
1I
1A
0@
0S
#725000
0!
1&
0.
#727500
1!
0&
1.
1\
0]
0T
0-
0I
0%
1@
#730000
0!
1&
0.
#732500
1!
0&
1.
1]
1Q
0D
1B
0A
0@
#735000
0!
1&
0.
#737500
1!
0&
1.
0[
1Z
0\
0]
0Q
1R
0P
1@
#740000
0!
1&
0.
#742500
1!
0&
1.
1]
1I
1A
0@
#745000
0!
1&
0.
#747500
1!
0&
1.
1\
0]
0I
1@
#750000
0!
1&
0.
#752500
1!
0&
1.
1]
1D
0A
0@
#755000
0!
1&
0.
#757500
1!
0&
1.
1[
0\
0]
1@
#760000
0!
1&
0.
#762500
1!
0&
1.
1]
1I
1A
0@
#765000
0!
1&
0.
#767500
1!
0&
1.
1\
0]
0I
1@
#770000
0!
1&
0.
#772500
1!
0&
1.
1]
1Q
0D
1C
0B
0A
0@
1S
#775000
0!
1&
0.
#777500
1!
0&
1.
0[
1Y
0Z
0\
0]
1T
1-
0Q
0R
1%
1@
#780000
0!
1&
0.
#782500
1!
0&
1.
1]
1A
0@
#785000
0!
1&
0.
#787500
1!
0&
1.
1\
0]
1@
#790000
0!
1&
0.
#792500
1!
0&
1.
1]
1E
0C
0A
0@
#795000
0!
1&
0.
#797500
1!
0&
1.
0Y
0\
0]
0E
1@
#800000
0$
0!
0?
1&
0.
0T
0-
0%
0S
#802500
1!
0&
1.
#805000
0!
1&
0.
#807500
1!
0&
1.
#810000
0!
1&
0.
#812500
1!
0&
1.
#815000
0!
1&
0.
#817500
1!
0&
1.
#820000
0!
1&
0.
#822500
1!
0&
1.
#825000
0!
1&
0.
#827500
1!
0&
1.
#830000
0!
1&
0.
#832500
1!
0&
1.
#835000
0!
1&
0.
#837500
1!
0&
1.
#840000
0!
1&
0.
#842500
1!
0&
1.
#845000
0!
1&
0.
#847500
1!
0&
1.
#850000
0!
1&
0.
#852500
1!
0&
1.
#855000
0!
1&
0.
#857500
1!
0&
1.
#860000
0!
1&
0.
#862500
1!
0&
1.
#865000
0!
1&
0.
#867500
1!
0&
1.
#870000
0!
1&
0.
#872500
1!
0&
1.
#875000
0!
1&
0.
#877500
1!
0&
1.
#880000
0!
1&
0.
#882500
1!
0&
1.
#885000
0!
1&
0.
#887500
1!
0&
1.
#890000
0!
1&
0.
#892500
1!
0&
1.
#895000
0!
1&
0.
#897500
1!
0&
1.
#900000
0!
1&
0.
#902500
1!
0&
1.
#905000
0!
1&
0.
#907500
1!
0&
1.
#910000
0!
1&
0.
#912500
1!
0&
1.
#915000
0!
1&
0.
#917500
1!
0&
1.
#920000
0!
1&
0.
#922500
1!
0&
1.
#925000
0!
1&
0.
#927500
1!
0&
1.
#930000
0!
1&
0.
#932500
1!
0&
1.
#935000
0!
1&
0.
#937500
1!
0&
1.
#940000
0!
1&
0.
#942500
1!
0&
1.
#945000
0!
1&
0.
#947500
1!
0&
1.
#950000
0!
1&
0.
#952500
1!
0&
1.
#955000
0!
1&
0.
#957500
1!
0&
1.
#960000
1$
0!
1?
1&
0.
#962500
1!
0&
1.
1]
1I
1A
0@
#965000
0!
1&
0.
#967500
1!
0&
1.
1\
0]
0I
1@
#970000
0!
1&
0.
#972500
1!
0&
1.
1]
1D
0A
0@
#975000
0!
1&
0.
#977500
1!
0&
1.
1[
0\
0]
1P
1@
#980000
0!
1&
0.
#982500
1!
0&
1.
1]
1I
1A
0@
#985000
0!
1&
0.
#987500
1!
0&
1.
1\
0]
0I
1@
#990000
0!
1&
0.
#992500
1!
0&
1.
1]
1Q
0D
1B
0A
0@
#995000
0!
1&
0.
#997500
1!
0&
1.
0[
1Z
0\
0]
0Q
1R
0P
1@
#1000000
0!
1&
0.
#1002500
1!
0&
1.
1]
1I
1A
0@
#1005000
0!
1&
0.
#1007500
1!
0&
1.
1\
0]
0I
1@
#1010000
0!
1&
0.
#1012500
1!
0&
1.
1]
1D
0A
0@
#1015000
0!
1&
0.
#1017500
1!
0&
1.
1[
0\
0]
1@
#1020000
0!
1&
0.
#1022500
1!
0&
1.
1]
1I
1A
0@
#1025000
0!
1&
0.
#1027500
1!
0&
1.
1\
0]
0I
1@
#1030000
0!
1&
0.
#1032500
1!
0&
1.
1]
1Q
0D
1C
0B
0A
0@
1S
#1035000
0!
1&
0.
#1037500
1!
0&
1.
0[
1Y
0Z
0\
0]
1T
1-
0Q
0R
1%
1@
#1040000
0#
0!
0/
1&
0.
0L
0>
#1042500
1!
0&
1.
1]
0_
0a
1A
0@
#1045000
0!
1&
0.
#1047500
1!
0&
1.
1\
0]
1@
#1050000
0!
1&
0.
#1052500
1!
0&
1.
1]
1E
0C
0A
0@
#1055000
0!
1&
0.
#1057500
1!
0&
1.
0V
0X
0Y
0\
0]
1I
0E
1P
1@
0S
#1060000
0!
1&
0.
#1062500
1!
0&
1.
1]
0T
0-
0I
0%
1A
0@
#1065000
0!
1&
0.
#1067500
1!
0&
1.
1\
0]
1@
#1070000
0!
1&
0.
#1072500
1!
0&
1.
1]
1D
0A
0@
#1075000
0!
1&
0.
#1077500
1!
0&
1.
1[
0\
0]
1Q
1I
0P
1@
#1080000
0!
1&
0.
#1082500
1!
0&
1.
1]
0Q
0I
1A
0@
#1085000
0!
1&
0.
#1087500
1!
0&
1.
1\
0]
1@
#1090000
0!
1&
0.
#1092500
1!
0&
1.
1]
0D
1B
0A
0@
#1095000
0!
1&
0.
#1097500
1!
0&
1.
0[
1Z
0\
0]
1I
1@
#1100000
0!
1&
0.
#1102500
1!
0&
1.
1]
0I
1A
0@
#1105000
0!
1&
0.
#1107500
1!
0&
1.
1\
0]
1@
#1110000
0!
1&
0.
#1112500
1!
0&
1.
1]
1D
0A
0@
#1115000
0!
1&
0.
#1117500
1!
0&
1.
1[
0\
0]
1Q
1I
1@
#1120000
0!
1&
0.
#1122500
1!
0&
1.
1]
0Q
0I
1A
0@
#1125000
0!
1&
0.
#1127500
1!
0&
1.
1\
0]
1@
#1130000
0!
1&
0.
#1132500
1!
0&
1.
1]
0D
1C
0B
0A
0@
#1135000
0!
1&
0.
#1137500
1!
0&
1.
0[
1Y
0Z
0\
0]
1R
1P
1@
#1140000
0!
1&
0.
#1142500
1!
0&
1.
1]
1A
0@
#1145000
0!
1&
0.
#1147500
1!
0&
1.
1\
0]
1@
#1150000
0!
1&
0.
#1152500
1!
0&
1.
1]
1E
0C
0A
0@
#1155000
0!
1&
0.
#1157500
1!
0&
1.
0Y
0\
0]
1I
0E
0R
1@
#1160000
0!
1&
0.
#1162500
1!
0&
1.
1]
0I
1A
0@
#1165000
0!
1&
0.
#1167500
1!
0&
1.
1\
0]
1@
#1170000
0!
1&
0.
#1172500
1!
0&
1.
1]
1D
0A
0@
#1175000
0!
1&
0.
#1177500
1!
0&
1.
1[
0\
0]
1Q
1I
0P
1@
#1180000
0!
1&
0.
#1182500
1!
0&
1.
1]
0Q
0I
1A
0@
#1185000
0!
1&
0.
#1187500
1!
0&
1.
1\
0]
1@
#1190000
0!
1&
0.
#1192500
1!
0&
1.
1]
0D
1B
0A
0@
#1195000
0!
1&
0.
#1197500
1!
0&
1.
0[
1Z
0\
0]
1I
1@
#1200000
1#
0!
1/
1&
0.
1L
1>
#1202500
1!
0&
1.
1]
1_
1a
0I
1A
0@
#1205000
0!
1&
0.
#1207500
1!
0&
1.
1\
0]
1@
#1210000
0!
1&
0.
#1212500
1!
0&
1.
1]
1D
0A
0@
#1215000
0!
1&
0.
#1217500
1!
0&
1.
1[
0\
0]
1Q
1I
1@
#1220000
0!
1&
0.
#1222500
1!
0&
1.
1]
0Q
0I
1A
0@
#1225000
0!
1&
0.
#1227500
1!
0&
1.
1\
0]
1@
#1230000
0!
1&
0.
#1232500
1!
0&
1.
1]
0D
1C
0B
0A
0@
#1235000
0!
1&
0.
#1237500
1!
0&
1.
0[
1Y
0Z
0\
0]
1R
1P
1@
#1240000
0!
1&
0.
#1242500
1!
0&
1.
1]
1A
0@
#1245000
0!
1&
0.
#1247500
1!
0&
1.
1\
0]
1@
#1250000
0!
1&
0.
#1252500
1!
0&
1.
1]
1E
0C
0A
0@
#1255000
0!
1&
0.
#1257500
1!
0&
1.
1V
1X
0Y
0\
0]
0E
0R
0P
1@
#1260000
0!
1&
0.
#1262500
1!
0&
1.
1]
1I
1A
0@
#1265000
0!
1&
0.
#1267500
1!
0&
1.
1\
0]
0I
1@
#1270000
0!
1&
0.
#1272500
1!
0&
1.
1]
1D
0A
0@
#1275000
0!
1&
0.
#1277500
1!
0&
1.
1[
0\
0]
1P
1@
#1280000
0!
1&
0.
#1282500
1!
0&
1.
1]
1I
1A
0@
#1285000
0!
1&
0.
#1287500
1!
0&
1.
1\
0]
0I
1@
#1290000
0!
1&
0.
#1292500
1!
0&
1.
1]
1Q
0D
1B
0A
0@
#1295000
0!
1&
0.
#1297500
1!
0&
1.
0[
1Z
0\
0]
0Q
1R
0P
1@
#1300000
0!
1&
0.
#1302500
1!
0&
1.
1]
1I
1A
0@
#1305000
0!
1&
0.
#1307500
1!
0&
1.
1\
0]
0I
1@
#1310000
0!
1&
0.
#1312500
1!
0&
1.
1]
1D
0A
0@
#1315000
0!
1&
0.
#1317500
1!
0&
1.
1[
0\
0]
1@
#1320000
0!
1&
0.
#1322500
1!
0&
1.
1]
1I
1A
0@
#1325000
0!
1&
0.
#1327500
1!
0&
1.
1\
0]
0I
1@
#1330000
0!
1&
0.
#1332500
1!
0&
1.
1]
1Q
0D
1C
0B
0A
0@
1S
#1335000
0!
1&
0.
#1337500
1!
0&
1.
0[
1Y
0Z
0\
0]
1T
1-
0Q
0R
1%
1@
#1340000
0!
1&
0.
#1342500
1!
0&
1.
1]
1A
0@
#1345000
0!
1&
0.
#1347500
1!
0&
1.
1\
0]
1@
#1350000
0!
1&
0.
#1352500
1!
0&
1.
1]
1E
0C
0A
0@
#1355000
0!
1&
0.
#1357500
1!
0&
1.
0Y
0\
0]
0E
1@
#1360000
0!
1&
0.
#1362500
1!
0&
1.
1]
1I
1A
0@
#1365000
0!
1&
0.
#1367500
1!
0&
1.
1\
0]
0I
1@
#1370000
0!
1&
0.
#1372500
1!
0&
1.
1]
1D
0A
0@
#1375000
0!
1&
0.
#1377500
1!
0&
1.
1[
0\
0]
1P
1@
#1380000
0!
1&
0.
#1382500
1!
0&
1.
1]
1I
1A
0@
0S
#1385000
0!
1&
0.
#1387500
1!
0&
1.
1\
0]
0T
0-
0I
0%
1@
#1390000
0!
1&
0.
#1392500
1!
0&
1.
1]
1Q
0D
1B
0A
0@
#1395000
0!
1&
0.
#1397500
1!
0&
1.
0[
1Z
0\
0]
0Q
1R
0P
1@
#1400000
0!
1&
0.
#1402500
1!
0&
1.
1]
1I
1A
0@
#1405000
0!
1&
0.
#1407500
1!
0&
1.
1\
0]
0I
1@
#1410000
0!
1&
0.
#1412500
1!
0&
1.
1]
1D
0A
0@
#1415000
0!
1&
0.
#1417500
1!
0&
1.
1[
0\
0]
1@
#1420000
0!
1&
0.
#1422500
1!
0&
1.
1]
1I
1A
0@
#1425000
0!
1&
0.
#1427500
1!
0&
1.
1\
0]
0I
1@
#1430000
0!
1&
0.
#1432500
1!
0&
1.
1]
1Q
0D
1C
0B
0A
0@
1S
#1435000
0!
1&
0.
#1437500
1!
0&
1.
0[
1Y
0Z
0\
0]
1T
1-
0Q
0R
1%
1@
#1440000
0!
1&
0.
#1442500
1!
0&
1.
1]
1A
0@
#1445000
0!
1&
0.
#1447500
1!
0&
1.
1\
0]
1@
#1450000
0!
1&
0.
#1452500
1!
0&
1.
1]
1E
0C
0A
0@
#1455000
0!
1&
0.
#1457500
1!
0&
1.
0Y
0\
0]
0E
1@
#1460000
0!
1&
0.
#1462500
1!
0&
1.
1]
1I
1A
0@
#1465000
0!
1&
0.
#1467500
1!
0&
1.
1\
0]
0I
1@
#1470000
0!
1&
0.
#1472500
1!
0&
1.
1]
1D
0A
0@
#1475000
0!
1&
0.
#1477500
1!
0&
1.
1[
0\
0]
1P
1@
#1480000
0!
1&
0.
#1482500
1!
0&
1.
1]
1I
1A
0@
0S
#1485000
0!
1&
0.
#1487500
1!
0&
1.
1\
0]
0T
0-
0I
0%
1@
#1490000
0!
1&
0.
#1492500
1!
0&
1.
1]
1Q
0D
1B
0A
0@
#1495000
0!
1&
0.
#1497500
1!
0&
1.
0[
1Z
0\
0]
0Q
1R
0P
1@
#1500000
0!
1&
0.
#1502500
1!
0&
1.
1]
1I
1A
0@
#1505000
0!
1&
0.
#1507500
1!
0&
1.
1\
0]
0I
1@
#1510000
0!
1&
0.
#1512500
1!
0&
1.
1]
1D
0A
0@
#1515000
0!
1&
0.
#1517500
1!
0&
1.
1[
0\
0]
1@
#1520000
0!
1&
0.
#1522500
1!
0&
1.
1]
1I
1A
0@
#1525000
0!
1&
0.
#1527500
1!
0&
1.
1\
0]
0I
1@
#1530000
0!
1&
0.
#1532500
1!
0&
1.
1]
1Q
0D
1C
0B
0A
0@
1S
#1535000
0!
1&
0.
#1537500
1!
0&
1.
0[
1Y
0Z
0\
0]
1T
1-
0Q
0R
1%
1@
#1540000
0!
1&
0.
#1542500
1!
0&
1.
1]
1A
0@
#1545000
0!
1&
0.
#1547500
1!
0&
1.
1\
0]
1@
#1550000
0!
1&
0.
#1552500
1!
0&
1.
1]
1E
0C
0A
0@
#1555000
0!
1&
0.
#1557500
1!
0&
1.
0Y
0\
0]
0E
1@
#1560000
0!
1&
0.
#1562500
1!
0&
1.
1]
1I
1A
0@
#1565000
0!
1&
0.
#1567500
1!
0&
1.
1\
0]
0I
1@
#1570000
0!
1&
0.
#1572500
1!
0&
1.
1]
1D
0A
0@
#1575000
0!
1&
0.
#1577500
1!
0&
1.
1[
0\
0]
1P
1@
#1580000
0!
1&
0.
#1582500
1!
0&
1.
1]
1I
1A
0@
0S
#1585000
0!
1&
0.
#1587500
1!
0&
1.
1\
0]
0T
0-
0I
0%
1@
#1590000
0!
1&
0.
#1592500
1!
0&
1.
1]
1Q
0D
1B
0A
0@
#1595000
0!
1&
0.
#1597500
1!
0&
1.
0[
1Z
0\
0]
0Q
1R
0P
1@
#1600000
0!
1&
0.
#1602500
1!
0&
1.
1]
1I
1A
0@
#1605000
0!
1&
0.
#1607500
1!
0&
1.
1\
0]
0I
1@
#1610000
0!
1&
0.
#1612500
1!
0&
1.
1]
1D
0A
0@
#1615000
0!
1&
0.
#1617500
1!
0&
1.
1[
0\
0]
1@
#1620000
0!
1&
0.
#1622500
1!
0&
1.
1]
1I
1A
0@
#1625000
0!
1&
0.
#1627500
1!
0&
1.
1\
0]
0I
1@
#1630000
0!
1&
0.
#1632500
1!
0&
1.
1]
1Q
0D
1C
0B
0A
0@
1S
#1635000
0!
1&
0.
