mux16/simulation/qsim/mux16.msim.vcd
$comment
	File created using the following command:
		vcd file mux16.msim.vcd -direction
$end
$date
	Thu Dec 10 11:35:34 2015
$end
$version
	ModelSim Version 10.3d
$end
$timescale
	1ps
$end

$scope module mux16_vlg_vec_tst $end
$var reg 16 ! input_lines [15:0] $end
$var reg 4 " selection_lines [3:0] $end
$var wire 1 # output_line $end
$var wire 1 $ sampler $end

$scope module i1 $end
$var wire 1 % gnd $end
$var wire 1 & vcc $end
$var wire 1 ' unknown $end
$var tri1 1 ( devclrn $end
$var tri1 1 ) devpor $end
$var tri1 1 * devoe $end
$var wire 1 + ~QUARTUS_CREATED_GND~I_combout $end
$var wire 1 , selection_lines[2]~input_o $end
$var wire 1 - input_lines[5]~input_o $end
$var wire 1 . input_lines[7]~input_o $end
$var wire 1 / selection_lines[0]~input_o $end
$var wire 1 0 input_lines[6]~input_o $end
$var wire 1 1 selection_lines[1]~input_o $end
$var wire 1 2 input_lines[4]~input_o $end
$var wire 1 3 Mux0~1_combout $end
$var wire 1 4 input_lines[12]~input_o $end
$var wire 1 5 input_lines[15]~input_o $end
$var wire 1 6 input_lines[13]~input_o $end
$var wire 1 7 input_lines[14]~input_o $end
$var wire 1 8 Mux0~3_combout $end
$var wire 1 9 input_lines[8]~input_o $end
$var wire 1 : input_lines[9]~input_o $end
$var wire 1 ; input_lines[10]~input_o $end
$var wire 1 < input_lines[11]~input_o $end
$var wire 1 = Mux0~2_combout $end
$var wire 1 > selection_lines[3]~input_o $end
$var wire 1 ? input_lines[0]~input_o $end
$var wire 1 @ input_lines[3]~input_o $end
$var wire 1 A input_lines[1]~input_o $end
$var wire 1 B input_lines[2]~input_o $end
$var wire 1 C Mux0~0_combout $end
$var wire 1 D Mux0~4_combout $end
$upscope $end
$upscope $end
$enddefinitions $end
#0
$dumpvars
b1000001000000 !
b101 "
0#
x$
0%
1&
x'
1(
1)
1*
0+
1,
0-
0.
1/
10
01
02
03
14
05
06
07
08
09
0:
0;
0<
0=
0>
0?
0@
0A
0B
0C
0D
$end
#10000
b111 "
b110 "
0/
11
0$
13
1D
1#
#20000
b111 "
1/
1$
03
0D
0#
#30000
b1111 "
b1011 "
b1001 "
b1000 "
0/
01
0,
1>
0$
18
#40000
b1001 "
1/
1$
08
#50000
b1011 "
b1010 "
0/
11
0$
13
#60000
b1011 "
1/
1$
03
#70000
b1111 "
b1101 "
b1100 "
0/
01
1,
0$
18
1D
1#
#80000
b1101 "
1/
1$
08
0D
0#
#90000
b1111 "
b1110 "
0/
11
0$
13
#100000
b1111 "
1/
1$
03
#110000
b111 "
b11 "
b1 "
b0 "
0/
01
0,
0>
0$
18
#120000
b1 "
1/
1$
08
#130000
b11 "
b10 "
0/
11
0$
13
#140000
b11 "
1/
1$
03
#150000
b111 "
b101 "
b100 "
0/
01
1,
0$
18
#160000
b101 "
1/
1$
08
#170000
b111 "
b110 "
0/
11
0$
13
1D
1#
#180000
b111 "
1/
1$
03
0D
0#
#190000
b1111 "
b1011 "
b1001 "
b1000 "
0/
01
0,
1>
0$
18
#200000
b1001 "
1/
1$
08
#210000
b1011 "
b1010 "
0/
11
0$
13
#220000
b1011 "
1/
1$
03
#230000
b1111 "
b1101 "
b1100 "
0/
01
1,
0$
18
1D
1#
#240000
b1101 "
1/
1$
08
0D
0#
#250000
b1111 "
b1110 "
0/
11
0$
13
#260000
b1111 "
1/
1$
03
#270000
b111 "
b11 "
b1 "
b0 "
0/
01
0,
0>
0$
18
#280000
b1 "
1/
1$
08
#290000
b11 "
b10 "
0/
11
0$
13
#300000
b11 "
1/
1$
03
#310000
b111 "
b101 "
b100 "
0/
01
1,
0$
18
#320000
b101 "
1/
1$
08
#330000
b111 "
b110 "
0/
11
0$
13
1D
1#
#340000
b111 "
1/
1$
03
0D
0#
#350000
b1111 "
b1011 "
b1001 "
b1000 "
0/
01
0,
1>
0$
18
#360000
b1001 "
1/
1$
08
#370000
b1011 "
b1010 "
0/
11
0$
13
#380000
b1011 "
1/
1$
03
#390000
b1111 "
b1101 "
b1100 "
0/
01
1,
0$
18
1D
1#
#400000
b1101 "
1/
1$
08
0D
0#
#410000
b1111 "
b1110 "
0/
11
0$
13
#420000
b1111 "
1/
1$
03
#430000
b111 "
b11 "
b1 "
b0 "
0/
01
0,
0>
0$
18
#440000
b1 "
1/
1$
08
#450000
b11 "
b10 "
0/
11
0$
13
#460000
b11 "
1/
1$
03
#470000
b111 "
b101 "
b100 "
0/
01
1,
0$
18
#480000
b101 "
1/
1$
08
#490000
b111 "
b110 "
0/
11
0$
13
1D
1#
#500000
b111 "
1/
1$
03
0D
0#
#510000
b1111 "
b1011 "
b1001 "
b1000 "
0/
01
0,
1>
0$
18
#520000
b1001 "
1/
1$
08
#530000
b1011 "
b1010 "
0/
11
0$
13
#540000
b1011 "
1/
1$
03
#550000
b1111 "
b1101 "
b1100 "
0/
01
1,
0$
18
1D
1#
#560000
b1101 "
1/
1$
08
0D
0#
#570000
b1111 "
b1110 "
0/
11
0$
13
#580000
b1111 "
1/
1$
03
#590000
b111 "
b11 "
b1 "
b0 "
0/
01
0,
0>
0$
18
#600000
b1 "
1/
1$
08
#610000
b11 "
b10 "
0/
11
0$
13
#620000
b11 "
1/
1$
03
#630000
b111 "
b101 "
b100 "
0/
01
1,
0$
18
#640000
b101 "
1/
1$
08
#650000
b111 "
b110 "
0/
11
0$
13
1D
1#
#660000
b111 "
1/
1$
03
0D
0#
#670000
b1111 "
b1011 "
b1001 "
b1000 "
0/
01
0,
1>
0$
18
#680000
b1001 "
1/
1$
08
#690000
b1011 "
b1010 "
0/
11
0$
13
#700000
b1011 "
1/
1$
03
#710000
b1111 "
b1101 "
b1100 "
0/
01
1,
0$
18
1D
1#
#720000
b1101 "
1/
1$
08
0D
0#
#730000
b1111 "
b1110 "
0/
11
0$
13
#740000
b1111 "
1/
1$
03
#750000
b111 "
b11 "
b1 "
b0 "
0/
01
0,
0>
0$
18
#760000
b1 "
1/
1$
08
#770000
b11 "
b10 "
0/
11
0$
13
#780000
b11 "
1/
1$
03
#790000
b111 "
b101 "
b100 "
0/
01
1,
0$
18
#800000
b101 "
1/
1$
08
#810000
b111 "
b110 "
0/
11
0$
13
1D
1#
#820000
b111 "
1/
1$
03
0D
0#
#830000
b1111 "
b1011 "
b1001 "
b1000 "
0/
01
0,
1>
0$
18
#840000
b1001 "
1/
1$
08
#850000
b1011 "
b1010 "
0/
11
0$
13
#860000
b1011 "
1/
1$
03
#870000
b1111 "
b1101 "
b1100 "
0/
01
1,
0$
18
1D
1#
#880000
b1101 "
1/
1$
08
0D
0#
#890000
b1111 "
b1110 "
0/
11
0$
13
#900000
b1111 "
1/
1$
03
#910000
b111 "
b11 "
b1 "
b0 "
0/
01
0,
0>
0$
18
#920000
b1 "
1/
1$
08
#930000
b11 "
b10 "
0/
11
0$
13
#940000
b11 "
1/
1$
03
#950000
b111 "
b101 "
b100 "
0/
01
1,
0$
18
#960000
b101 "
1/
1$
08
#970000
b111 "
b110 "
0/
11
0$
13
1D
1#
#980000
b111 "
1/
1$
03
0D
0#
#990000
b1111 "
b1011 "
b1001 "
b1000 "
0/
01
0,
1>
0$
18
