ex3/add4bit/simulation/qsim/add4bit.msim.vcd
$comment
	File created using the following command:
		vcd file add4bit.msim.vcd -direction
$end
$date
	Tue Dec 08 14:30:30 2015
$end
$version
	ModelSim Version 10.3d
$end
$timescale
	1ps
$end

$scope module add4bit_vlg_vec_tst $end
$var reg 4 ! a [3:0] $end
$var reg 4 " b [3:0] $end
$var reg 1 # cin $end
$var wire 1 $ cout $end
$var wire 1 % somme [3] $end
$var wire 1 & somme [2] $end
$var wire 1 ' somme [1] $end
$var wire 1 ( somme [0] $end
$var wire 1 ) sampler $end

$scope module i1 $end
$var wire 1 * gnd $end
$var wire 1 + vcc $end
$var wire 1 , unknown $end
$var tri1 1 - devclrn $end
$var tri1 1 . devpor $end
$var tri1 1 / devoe $end
$var wire 1 0 somme[0]~output_o $end
$var wire 1 1 somme[1]~output_o $end
$var wire 1 2 somme[2]~output_o $end
$var wire 1 3 somme[3]~output_o $end
$var wire 1 4 cout~output_o $end
$var wire 1 5 cin~input_o $end
$var wire 1 6 a[0]~input_o $end
$var wire 1 7 b[0]~input_o $end
$var wire 1 8 fourAdders:0:add|somme~1_cout $end
$var wire 1 9 fourAdders:0:add|somme~2_combout $end
$var wire 1 : b[1]~input_o $end
$var wire 1 ; a[1]~input_o $end
$var wire 1 < fourAdders:0:add|somme~3 $end
$var wire 1 = fourAdders:0:add|somme~4_combout $end
$var wire 1 > b[2]~input_o $end
$var wire 1 ? a[2]~input_o $end
$var wire 1 @ fourAdders:0:add|somme~5 $end
$var wire 1 A fourAdders:0:add|somme~6_combout $end
$var wire 1 B b[3]~input_o $end
$var wire 1 C a[3]~input_o $end
$var wire 1 D fourAdders:0:add|somme~7 $end
$var wire 1 E fourAdders:0:add|somme~8_combout $end
$var wire 1 F fourAdders:0:add|somme~9 $end
$var wire 1 G fourAdders:0:add|somme~10_combout $end
$upscope $end
$upscope $end
$enddefinitions $end
#0
$dumpvars
b1011 !
b1011 "
0#
1$
0(
1'
1&
0%
x)
0*
1+
x,
1-
1.
1/
00
11
12
03
14
05
16
17
18
09
1:
1;
0<
1=
0>
0?
1@
1A
1B
1C
1D
0E
1F
1G
$end
#10000
1#
b1111 !
b1101 !
b1111 "
b1101 "
15
0:
1>
0;
1?
0)
0@
0D
19
10
1(
0A
1E
13
02
1%
0&
#20000
b101 !
b100 !
b101 "
b100 "
07
0B
06
0C
1)
08
0F
09
00
1<
0(
19
0G
04
10
0$
1(
0=
01
0'
#30000
b0 !
b10 !
b0 "
b10 "
b1010 !
b1010 "
1:
0>
1B
1;
0?
1C
0)
1@
1D
1F
1A
0E
1G
14
03
12
1$
0%
1&
#40000
0#
b1110 !
b1100 !
b1110 "
b1100 "
b100 !
b100 "
05
0:
1>
0B
0;
1?
0C
1)
0@
0D
0F
09
00
0(
0A
1E
0G
04
13
02
0$
1%
0&
#50000
b101 !
b101 "
1#
b1 !
b11 !
b1 "
b11 "
17
1:
0>
16
1;
0?
15
0)
18
1@
1D
0<
19
1A
0E
1=
11
03
12
10
1'
0%
1&
1(
#60000
b1011 !
b1011 "
0#
1B
1C
05
1)
1F
09
00
0(
1G
14
1$
#70000
b1001 !
b1001 "
b1 !
b1 "
1#
0:
0B
0;
0C
15
0)
0@
0F
19
10
1(
0A
0G
04
02
0$
0&
#80000
b0 !
b0 "
b10 !
b10 "
b1010 !
b1010 "
07
1:
1B
06
1;
1C
1)
08
1@
1F
09
00
1<
0(
19
1A
1G
14
12
10
1$
1&
1(
0=
01
0'
#90000
0#
05
0)
09
00
0(
#100000
b1110 !
b1110 "
1>
1?
1)
0D
1E
13
1%
#110000
b1100 !
b1100 "
b100 !
b100 "
1#
b0 !
b0 "
0:
0>
0B
0;
0?
0C
15
0)
0@
1D
0F
19
10
1(
0A
0E
0G
04
03
02
0$
0%
0&
#120000
b10 !
b10 "
1:
1;
1)
1@
1A
12
1&
#130000
b0 !
b0 "
0:
0;
0)
0@
0A
02
0&
#140000
b1 !
b1 "
0#
b101 !
b101 "
b111 !
b111 "
17
1:
1>
16
1;
1?
05
1)
18
1@
0D
0<
09
1A
1E
13
12
00
1%
1&
0(
1=
11
1'
#150000
b1111 !
b1111 "
b1110 !
b1110 "
b1010 !
b1010 "
07
0>
1B
06
0?
1C
0)
08
1D
1F
1<
19
10
1(
09
0E
1G
0=
01
14
03
00
0'
1$
0%
0(
#160000
1#
b1000 !
b1000 "
15
0:
0;
1)
0@
19
10
1(
0A
02
0&
#170000
b1001 !
b1001 "
b1101 !
b1101 "
b1111 !
b1111 "
17
1:
1>
16
1;
1?
0)
18
1@
0D
0<
09
00
0(
19
1A
1E
1=
11
13
12
10
1'
1%
1&
1(
#180000
b111 !
b111 "
b11 !
b11 "
0>
0B
0?
0C
1)
1D
0F
0E
0G
04
03
0$
0%
#190000
b10 !
b10 "
b1010 !
b1010 "
07
1B
06
1C
0)
08
1F
09
00
1<
0(
19
1G
14
10
1$
1(
0=
01
0'
#200000
0#
b1000 !
b1000 "
b1100 !
b1100 "
b1101 !
b1101 "
b101 !
b101 "
05
17
0:
1>
0B
16
0;
1?
0C
1)
18
0@
0D
0F
0<
09
0A
1E
0G
04
13
02
00
0$
1%
0&
0(
1=
11
1'
#210000
1#
b100 !
b100 "
b1100 !
b1100 "
15
07
1B
06
1C
0)
08
1F
1<
19
1G
14
10
1$
1(
0=
01
0'
#220000
b1110 !
b1110 "
0#
b1111 !
b1111 "
17
1:
16
1;
05
1)
18
1@
0<
09
1A
12
00
1&
0(
1=
11
1'
#230000
b111 !
b111 "
b101 !
b101 "
1#
b100 !
b100 "
07
0:
0B
06
0;
0C
15
0)
08
0@
0F
1<
19
0A
0G
04
02
10
0$
0&
1(
0=
01
0'
#240000
b0 !
b0 "
b1000 !
b1000 "
b1001 !
b1001 "
17
0>
1B
16
0?
1C
1)
18
1D
1F
0<
09
00
0(
19
0E
1G
1=
11
14
03
10
1'
1$
0%
1(
#250000
b1101 !
b1101 "
b1100 !
b1100 "
07
1>
06
1?
0)
08
0D
09
00
1<
0(
19
1E
13
10
1%
1(
0=
01
0'
#260000
b1110 !
b1110 "
b1010 !
b1010 "
b1011 !
b1011 "
17
1:
0>
16
1;
0?
1)
18
1@
1D
0<
09
00
0(
19
1A
0E
1=
11
03
12
10
1'
0%
1&
1(
#270000
0#
b1001 !
b1001 "
b1101 !
b1101 "
b1100 !
b1100 "
05
07
0:
1>
06
0;
1?
0)
1<
08
0@
0D
0=
09
0A
1E
13
02
00
01
1%
0&
0(
0'
#280000
b1110 !
b1110 "
1:
1;
1)
1@
1A
12
1&
#290000
b110 !
b110 "
b10 !
b10 "
b11 !
b11 "
b1 !
b1 "
17
0:
0>
0B
16
0;
0?
0C
0)
18
0@
1D
0F
19
10
0<
1(
09
0A
0E
0G
04
03
02
00
0$
0%
0&
0(
1=
11
1'
#300000
b0 !
b0 "
b10 !
b10 "
07
1:
06
1;
1)
08
1@
1<
19
10
1(
09
1A
0=
01
12
00
0'
1&
0(
#310000
1#
b0 !
b0 "
15
0:
0;
0)
0@
19
10
1(
0A
02
0&
#320000
b1000 !
b1000 "
b1100 !
b1100 "
b1101 !
b1101 "
17
1>
1B
16
1?
1C
1)
18
0D
1F
0<
09
00
0(
19
1E
1G
1=
11
14
13
10
1'
1$
1%
1(
#330000
0#
b101 !
b101 "
b1 !
b1 "
05
0>
0B
0?
0C
0)
1D
0F
09
00
0(
0E
0G
04
03
0$
0%
#340000
b11 !
b11 "
1#
b1011 !
b1011 "
b1111 !
b1111 "
1:
1>
1B
1;
1?
1C
15
1)
1@
0D
1F
19
10
1(
1A
1E
1G
14
13
12
1$
1%
1&
#350000
b1110 !
b1110 "
b1100 !
b1100 "
b1000 !
b1000 "
07
0:
0>
06
0;
0?
0)
08
0@
1D
09
00
1<
0(
19
0A
0E
03
02
10
0%
0&
1(
0=
01
0'
#360000
0#
b0 !
b0 "
b10 !
b10 "
05
1:
0B
1;
0C
1)
1@
0F
09
00
0(
1A
0G
04
12
0$
1&
#370000
b11 !
b11 "
17
16
0)
18
19
10
0<
1(
09
00
0(
1=
11
1'
#380000
b1011 !
b1011 "
b1010 !
b1010 "
07
1B
06
1C
1)
08
1F
1<
19
10
1(
09
1G
0=
01
14
00
0'
1$
0(
#390000
b1110 !
b1110 "
b1100 !
b1100 "
b1101 !
b1101 "
17
0:
1>
16
0;
1?
0)
18
0@
0D
19
10
0<
1(
09
0A
1E
13
02
00
1%
0&
0(
1=
11
1'
#400000
b101 !
b101 "
b100 !
b100 "
07
0B
06
0C
1)
08
0F
1<
19
10
1(
09
0G
0=
01
04
00
0'
0$
0(
#410000
1#
b110 !
b110 "
b1110 !
b1110 "
b1111 !
b1111 "
15
17
1:
1B
16
1;
1C
0)
0<
18
1@
1F
1=
19
1A
1G
14
12
10
11
1$
1&
1(
1'
#420000
b1011 !
b1011 "
0>
0?
1)
1D
0E
03
0%
#430000
0#
b1001 !
b1001 "
b1000 !
b1000 "
05
07
0:
06
0;
0)
1<
08
0@
0=
09
0A
02
00
01
0&
0(
0'
#440000
b0 !
b0 "
b100 !
b100 "
1#
b101 !
b101 "
17
1>
0B
16
1?
0C
15
1)
18
0D
0F
0<
19
1E
0G
1=
11
04
13
10
1'
0$
1%
1(
#450000
b111 !
b111 "
0#
1:
1;
05
0)
1@
09
00
0(
1A
12
1&
#460000
b1111 !
b1111 "
1B
1C
1)
1F
1G
14
1$
#470000
b1011 !
b1011 "
b1001 !
b1001 "
0:
0>
0;
0?
0)
0@
1D
0A
0E
03
02
0%
0&
#480000
1#
b1101 !
b1101 "
15
1>
1?
1)
0D
19
10
1(
1E
13
1%
#490000
b101 !
b101 "
b1 !
b1 "
0>
0B
0?
0C
0)
1D
0F
0E
0G
04
03
0$
0%
#500000
b0 !
b0 "
b1000 !
b1000 "
07
1B
06
1C
1)
08
1F
09
00
1<
0(
19
1G
14
10
1$
1(
0=
01
0'
#510000
b1010 !
b1010 "
0#
b1110 !
b1110 "
b1111 !
b1111 "
17
1:
1>
16
1;
1?
05
0)
18
1@
0D
0<
09
1A
1E
13
12
00
1%
1&
0(
1=
11
1'
#520000
b111 !
b111 "
0B
0C
1)
0F
0G
04
0$
#530000
b101 !
b101 "
1#
b1 !
b1 "
0:
0>
0;
0?
15
0)
0@
1D
19
10
1(
0A
0E
03
02
0%
0&
#540000
b1001 !
b1001 "
b1011 !
b1011 "
0#
b1111 !
b1111 "
1:
1>
1B
1;
1?
1C
05
1)
1@
0D
1F
09
00
0(
1A
1E
1G
14
13
12
1$
1%
1&
#550000
b1101 !
b1101 "
1#
b1001 !
b1001 "
0:
0>
0;
0?
15
0)
0@
1D
19
10
1(
0A
0E
03
02
0%
0&
#560000
b1000 !
b1000 "
b1010 !
b1010 "
07
1:
06
1;
1)
08
1@
09
00
1<
0(
19
1A
12
10
1&
1(
0=
01
0'
#570000
0#
b1011 !
b1011 "
05
17
16
0)
18
0<
09
00
0(
1=
11
1'
#580000
b11 !
b11 "
b111 !
b111 "
b101 !
b101 "
1#
b100 !
b100 "
07
0:
1>
0B
06
0;
1?
0C
15
1)
08
0@
0D
0F
1<
19
0A
1E
0G
04
13
02
10
0$
1%
0&
1(
0=
01
0'
#590000
b1100 !
b1100 "
b1000 !
b1000 "
b1001 !
b1001 "
17
0>
1B
16
0?
1C
0)
18
1D
1F
0<
09
00
0(
19
0E
1G
1=
11
14
03
10
1'
1$
0%
1(
#600000
b1011 !
b1011 "
b1111 !
b1111 "
1:
1>
1;
1?
1)
1@
0D
1A
1E
13
12
1%
1&
#610000
b1011 !
b1011 "
0>
0?
0)
1D
0E
03
0%
#620000
b11 !
b11 "
b10 !
b10 "
b0 !
b0 "
07
0:
0B
06
0;
0C
1)
08
0@
0F
09
00
1<
0(
19
0A
0G
04
02
10
0$
0&
1(
0=
01
0'
#630000
b1000 !
b1000 "
b1010 !
b1010 "
1:
1B
1;
1C
0)
1@
1F
1A
1G
14
12
1$
1&
#640000
0#
b1011 !
b1011 "
b1001 !
b1001 "
05
17
0:
16
0;
1)
18
0@
0<
09
0A
02
00
0&
0(
1=
11
1'
#650000
b1 !
b1 "
0B
0C
0)
0F
0G
04
0$
#660000
b0 !
b0 "
b1000 !
b1000 "
07
1B
06
1C
1)
08
1F
1<
19
10
1(
09
1G
0=
01
14
00
0'
1$
0(
#670000
b1100 !
b1100 "
b1110 !
b1110 "
b110 !
b110 "
1:
1>
0B
1;
1?
0C
0)
1@
0D
0F
1A
1E
0G
04
13
12
0$
1%
1&
#680000
1#
b1110 !
b1110 "
15
1B
1C
1)
1F
19
10
1(
1G
14
1$
#690000
b1010 !
b1010 "
b1000 !
b1000 "
b0 !
b0 "
0:
0>
0B
0;
0?
0C
0)
0@
1D
0F
0A
0E
0G
04
03
02
0$
0%
0&
#710000
b1000 !
b1000 "
1B
1C
1)
1F
1G
14
1$
#720000
b0 !
b0 "
0B
0C
0)
0F
0G
04
0$
#730000
b100 !
b100 "
b110 !
b110 "
b1110 !
b1110 "
1:
1>
1B
1;
1?
1C
1)
1@
0D
1F
1A
1E
1G
14
13
12
1$
1%
1&
#740000
0#
b1100 !
b1100 "
b100 !
b100 "
05
0:
0B
0;
0C
0)
0@
0F
09
00
0(
0A
0G
04
02
0$
0&
#750000
b0 !
b0 "
1#
0>
0?
15
1)
1D
19
10
1(
0E
03
0%
#760000
b1 !
b1 "
b11 !
b11 "
17
1:
16
1;
0)
18
1@
0<
09
00
0(
19
1A
1=
11
12
10
1'
1&
1(
#770000
b111 !
b111 "
1>
1?
1)
0D
1E
13
1%
#780000
b101 !
b101 "
b1 !
b1 "
0:
0>
0;
0?
0)
0@
1D
0A
0E
03
02
0%
0&
#790000
0#
b0 !
b0 "
b100 !
b100 "
05
07
1>
06
1?
1)
1<
08
0D
0=
09
1E
13
00
01
1%
0(
0'
#800000
b1100 !
b1100 "
b1110 !
b1110 "
1#
1:
1B
1;
1C
15
0)
1@
1F
19
10
1(
1A
1G
14
12
1$
1&
#810000
b1111 !
b1111 "
b1011 !
b1011 "
b11 !
b11 "
17
0>
0B
16
0?
0C
1)
18
1D
0F
0<
09
00
0(
19
0E
0G
1=
11
04
03
10
1'
0$
0%
1(
#820000
b111 !
b111 "
1>
1?
0)
0D
1E
13
1%
#830000
b101 !
b101 "
b1101 !
b1101 "
0:
1B
0;
1C
1)
0@
1F
0A
1G
14
02
1$
0&
#840000
b101 !
b101 "
0B
0C
0)
0F
0G
04
0$
#850000
b100 !
b100 "
b110 !
b110 "
b1110 !
b1110 "
07
1:
1B
06
1;
1C
1)
08
1@
1F
09
00
1<
0(
19
1A
1G
14
12
10
1$
1&
1(
0=
01
0'
#860000
b110 !
b110 "
0B
0C
0)
0F
0G
04
0$
#870000
0#
b10 !
b10 "
b11 !
b11 "
b1 !
b1 "
05
17
0:
0>
16
0;
0?
1)
18
0@
1D
0<
09
0A
0E
03
02
00
0%
0&
0(
1=
11
1'
#880000
b1001 !
b1001 "
b1101 !
b1101 "
b1111 !
b1111 "
1:
1>
1B
1;
1?
1C
0)
1@
0D
1F
1A
1E
1G
14
13
12
1$
1%
1&
#890000
b111 !
b111 "
b11 !
b11 "
b1 !
b1 "
0:
0>
0B
0;
0?
0C
1)
0@
1D
0F
0A
0E
0G
04
03
02
0$
0%
0&
#900000
1#
b0 !
b0 "
b1000 !
b1000 "
15
07
1B
06
1C
0)
08
1F
1<
19
1G
14
10
1$
1(
0=
01
0'
#920000
b1100 !
b1100 "
0#
b1101 !
b1101 "
17
1>
16
1?
05
1)
18
0D
0<
09
1E
13
00
1%
0(
1=
11
1'
#930000
b1111 !
b1111 "
b111 !
b111 "
1:
0B
1;
0C
0)
1@
0F
1A
0G
04
12
0$
1&
#950000
b11 !
b11 "
b10 !
b10 "
b0 !
b0 "
b1000 !
b1000 "
07
0:
0>
1B
06
0;
0?
1C
1)
08
0@
1D
1F
1<
19
10
1(
09
0A
0E
1G
0=
01
14
03
02
00
0'
1$
0%
0&
0(
#960000
1#
b0 !
b0 "
15
0B
0C
0)
0F
19
10
1(
0G
04
0$
#970000
b1 !
b1 "
0#
17
16
05
1)
18
0<
09
00
0(
1=
11
1'
#980000
b101 !
b101 "
b111 !
b111 "
b1111 !
b1111 "
b1110 !
b1110 "
07
1:
1>
1B
06
1;
1?
1C
0)
08
1@
0D
1F
1<
19
10
1(
09
1A
1E
1G
0=
01
14
13
12
00
0'
1$
1%
1&
0(
#990000
b1100 !
b1100 "
b100 !
b100 "
0:
0B
0;
0C
1)
0@
0F
0A
0G
04
02
0$
0&
