ex3/add4bit/simulation/qsim/add4bit.msim.vcd
$comment
	File created using the following command:
		vcd file add4bit.msim.vcd -direction
$end
$date
	Fri Sep 18 15:20:45 2015
$end
$version
	ModelSim Version 10.1d
$end
$timescale
	1ps
$end
$scope module add4bit_vlg_vec_tst $end
$var reg 4 ! a [3:0] $end
$var reg 4 " b [3:0] $end
$var reg 1 # cin $end
$var wire 1 $ cout $end
$var wire 1 % somme [3] $end
$var wire 1 & somme [2] $end
$var wire 1 ' somme [1] $end
$var wire 1 ( somme [0] $end
$var wire 1 ) sampler $end
$scope module i1 $end
$var wire 1 * gnd $end
$var wire 1 + vcc $end
$var wire 1 , unknown $end
$var tri1 1 - devclrn $end
$var tri1 1 . devpor $end
$var tri1 1 / devoe $end
$var wire 1 0 b[0]~input_o $end
$var wire 1 1 somme[0]~output_o $end
$var wire 1 2 somme[1]~output_o $end
$var wire 1 3 somme[2]~output_o $end
$var wire 1 4 somme[3]~output_o $end
$var wire 1 5 cout~output_o $end
$var wire 1 6 cin~input_o $end
$var wire 1 7 a[0]~input_o $end
$var wire 1 8 fourAdders:0:add|somme~1_cout $end
$var wire 1 9 fourAdders:0:add|somme~2_combout $end
$var wire 1 : b[1]~input_o $end
$var wire 1 ; a[1]~input_o $end
$var wire 1 < fourAdders:0:add|somme~3 $end
$var wire 1 = fourAdders:0:add|somme~4_combout $end
$var wire 1 > b[2]~input_o $end
$var wire 1 ? a[2]~input_o $end
$var wire 1 @ fourAdders:0:add|somme~5 $end
$var wire 1 A fourAdders:0:add|somme~6_combout $end
$var wire 1 B b[3]~input_o $end
$var wire 1 C a[3]~input_o $end
$var wire 1 D fourAdders:0:add|somme~7 $end
$var wire 1 E fourAdders:0:add|somme~8_combout $end
$var wire 1 F fourAdders:0:add|somme~9 $end
$var wire 1 G fourAdders:0:add|somme~10_combout $end
$upscope $end
$upscope $end
$enddefinitions $end
#0
$dumpvars
b0 !
b0 "
0#
0$
0(
0'
0&
0%
x)
0*
1+
x,
1-
1.
1/
00
01
02
03
04
05
06
07
08
09
0:
0;
1<
0=
0>
0?
0@
0A
0B
0C
1D
0E
0F
0G
$end
#10000
b1 !
17
0)
19
11
1(
#20000
b11 !
b10 !
07
1;
1)
09
1=
01
12
0(
1'
#30000
b11 !
17
0)
19
11
1(
#40000
b111 !
b101 !
b100 !
07
0;
1?
1)
09
0=
1A
01
02
13
0(
0'
1&
#50000
b101 !
17
0)
19
11
1(
#60000
b111 !
b110 !
07
1;
1)
09
1=
01
12
0(
1'
#70000
b111 !
17
0)
19
11
1(
#80000
b1111 !
b1011 !
b1001 !
b1000 !
07
0;
0?
1C
1)
09
0=
0A
1E
01
02
03
14
0(
0'
0&
1%
#90000
b1001 !
17
0)
19
11
1(
#100000
b1011 !
b1010 !
07
1;
1)
09
1=
01
12
0(
1'
#110000
b1011 !
17
0)
19
11
1(
#120000
b1111 !
b1101 !
b1100 !
07
0;
1?
1)
09
0=
1A
01
02
13
0(
0'
1&
#130000
b1101 !
17
0)
19
11
1(
#140000
b1111 !
b1110 !
07
1;
1)
09
1=
01
12
0(
1'
#150000
b1111 !
17
0)
19
11
1(
#160000
b1000 "
b1100 "
b1110 "
b1111 "
b111 !
b11 !
b1 !
b0 !
07
0;
0?
0C
10
1:
1>
1B
1)
18
09
01
0(
19
11
1(
#170000
b1 !
17
0)
0<
09
1@
01
0(
0=
0D
02
0'
0A
1F
03
0&
0E
04
0%
1G
15
1$
#180000
b11 !
b10 !
07
1;
1)
1<
19
1=
11
12
1(
1'
0=
02
0'
#190000
b11 !
17
0)
0<
09
01
0(
1=
12
1'
#200000
b111 !
b101 !
b100 !
07
0;
1?
1)
1<
19
0=
1A
0@
11
02
13
1(
0'
1&
1=
12
1'
0A
03
0&
#210000
b101 !
17
0)
0<
09
1@
01
0(
0=
02
0'
1A
13
1&
#220000
b111 !
b110 !
07
1;
1)
1<
19
1=
11
12
1(
1'
0=
02
0'
#230000
b111 !
17
0)
0<
09
01
0(
1=
12
1'
#240000
b1111 !
b1011 !
b1001 !
b1000 !
07
0;
0?
1C
1)
1<
19
0=
0A
1E
0@
11
02
03
14
1(
0'
0&
1%
1=
1D
12
1'
1A
13
1&
0E
04
0%
#250000
1#
b1001 !
16
17
0)
0<
1@
0=
0D
02
0'
0A
03
0&
1E
14
1%
#260000
b1011 !
b1010 !
07
1;
1)
09
1=
01
12
0(
1'
#270000
b1011 !
17
0)
19
11
1(
#280000
b1111 !
b1101 !
b1100 !
07
0;
1?
1)
09
0=
1A
01
02
13
0(
0'
1&
#290000
b1101 !
17
0)
19
11
1(
#300000
b1111 !
b1110 !
07
1;
1)
09
1=
01
12
0(
1'
#310000
b1111 !
17
0)
19
11
1(
#320000
b111 !
b11 !
b1 !
b0 !
07
0;
0?
0C
1)
09
0=
0A
0E
01
02
03
04
0(
0'
0&
0%
#330000
b1 !
17
0)
19
11
1(
#340000
b111 "
b11 "
b1 "
b0 "
b11 !
b10 !
07
1;
00
0:
0>
0B
1)
08
1D
0F
09
1A
1E
1<
01
13
14
0(
1&
1%
19
0E
0G
0@
11
04
05
1(
0%
0$
1=
12
1'
0A
03
0&
#350000
b11 !
17
0)
0<
09
1@
01
0(
0=
02
0'
1A
13
1&
#360000
b111 !
b101 !
b100 !
07
0;
1?
1)
1<
0@
0D
19
1=
0A
1D
11
12
03
1(
1'
0&
0=
1A
1E
02
13
14
0'
1&
1%
0E
04
0%
#370000
b101 !
17
0)
0<
09
01
0(
1=
12
1'
#380000
b111 !
b110 !
07
1;
1)
1<
1@
19
0=
0@
0D
11
02
1(
0'
1=
0A
1D
12
03
1'
0&
1A
1E
13
14
1&
1%
0E
04
0%
#390000
b111 !
17
0)
0<
09
1@
01
0(
0=
0D
02
0'
0A
03
0&
1E
14
1%
#400000
b1111 !
b1011 !
b1001 !
b1000 !
07
0;
0?
1C
1)
1<
0@
1D
1F
19
1=
1A
0E
0F
11
12
13
04
1(
1'
1&
0%
0=
0A
1E
1G
02
03
14
15
0'
0&
1%
1$
0G
05
0$
#410000
b1001 !
17
0)
0<
09
01
0(
1=
12
1'
#420000
b1011 !
b1010 !
07
1;
1)
1<
1@
19
0=
0@
11
02
1(
0'
1=
1A
12
13
1'
1&
0A
03
0&
#430000
b1011 !
17
0)
0<
09
1@
01
0(
0=
02
0'
1A
13
1&
#440000
b1111 !
b1101 !
b1100 !
07
0;
1?
1)
1<
0@
0D
19
1=
0A
1D
1F
11
12
03
1(
1'
0&
0=
1A
0E
0F
02
13
04
0'
1&
0%
1E
1G
14
15
1%
1$
0G
05
0$
#450000
b1101 !
17
0)
0<
09
01
0(
1=
12
1'
#460000
b1111 !
b1110 !
07
1;
1)
1<
1@
19
0=
0@
0D
11
02
1(
0'
1=
0A
1D
1F
12
03
1'
0&
1A
0E
0F
13
04
1&
0%
1E
1G
14
15
1%
1$
0G
05
0$
#470000
b1111 !
17
0)
0<
09
1@
01
0(
0=
0D
02
0'
0A
1F
03
0&
0E
04
0%
1G
15
1$
#480000
b111 !
b11 !
b1 !
b0 !
07
0;
0?
0C
1)
1<
0@
1D
0F
19
1=
1A
1E
11
12
13
14
1(
1'
1&
1%
0=
0A
0E
0G
02
03
04
05
0'
0&
0%
0$
#490000
b1 !
17
0)
0<
09
01
0(
1=
12
1'
#500000
0#
b11 !
b10 !
06
07
1;
1)
1<
1@
0=
0@
02
0'
1=
1A
12
13
1'
1&
0A
03
0&
#510000
b11 !
17
0)
19
11
1(
#520000
b111 !
b101 !
b100 !
07
0;
1?
1)
09
0=
1A
01
02
13
0(
0'
1&
#530000
b101 !
17
0)
19
11
1(
#540000
b111 !
b110 !
07
1;
1)
09
1=
01
12
0(
1'
#550000
b111 !
17
0)
19
11
1(
#560000
b1111 !
b1011 !
b1001 !
b1000 !
07
0;
0?
1C
1)
09
0=
0A
1E
01
02
03
14
0(
0'
0&
1%
#570000
b1001 !
17
0)
19
11
1(
#580000
b1011 !
b1010 !
07
1;
1)
09
1=
01
12
0(
1'
#590000
b1011 !
17
0)
19
11
1(
#600000
b1111 !
b1101 !
b1100 !
07
0;
1?
1)
09
0=
1A
01
02
13
0(
0'
1&
#610000
b1101 !
17
0)
19
11
1(
#620000
b1111 !
b1110 !
07
1;
1)
09
1=
01
12
0(
1'
#630000
b1111 !
17
0)
19
11
1(
#640000
b111 !
b11 !
b1 !
b0 !
07
0;
0?
0C
1)
09
0=
0A
0E
01
02
03
04
0(
0'
0&
0%
#650000
b1 !
17
0)
19
11
1(
#660000
b11 !
b10 !
07
1;
1)
09
1=
01
12
0(
1'
#670000
b11 !
17
0)
19
11
1(
#680000
b111 !
b101 !
b100 !
07
0;
1?
1)
09
0=
1A
01
02
13
0(
0'
1&
#690000
b101 !
17
0)
19
11
1(
#700000
b111 !
b110 !
07
1;
1)
09
1=
01
12
0(
1'
#710000
b111 !
17
0)
19
11
1(
#720000
b1111 !
b1011 !
b1001 !
b1000 !
07
0;
0?
1C
1)
09
0=
0A
1E
01
02
03
14
0(
0'
0&
1%
#730000
b1001 !
17
0)
19
11
1(
#740000
b1011 !
b1010 !
07
1;
1)
09
1=
01
12
0(
1'
#750000
b1011 !
17
0)
19
11
1(
#760000
b1111 !
b1101 !
b1100 !
07
0;
1?
1)
09
0=
1A
01
02
13
0(
0'
1&
#770000
b1101 !
17
0)
19
11
1(
#780000
b1111 !
b1110 !
07
1;
1)
09
1=
01
12
0(
1'
#790000
b1111 !
17
0)
19
11
1(
#800000
b111 !
b11 !
b1 !
b0 !
07
0;
0?
0C
1)
09
0=
0A
0E
01
02
03
04
0(
0'
0&
0%
#810000
b1 !
17
0)
19
11
1(
#820000
b11 !
b10 !
07
1;
1)
09
1=
01
12
0(
1'
#830000
b11 !
17
0)
19
11
1(
#840000
b1000 "
b1100 "
b1110 "
b1111 "
b111 !
b101 !
b100 !
07
0;
1?
10
1:
1>
1B
1)
0D
18
09
1E
1F
01
14
0(
1%
0E
19
04
11
0%
1(
1G
15
1$
#850000
b101 !
17
0)
0<
09
1@
01
0(
0=
02
0'
1A
13
1&
#860000
b111 !
b110 !
07
1;
1)
1<
19
1=
11
12
1(
1'
0=
02
0'
#870000
b111 !
17
0)
0<
09
01
0(
1=
12
1'
#880000
b1111 !
b1011 !
b1001 !
b1000 !
07
0;
0?
1C
1)
1<
19
0=
0A
1E
0@
11
02
03
14
1(
0'
0&
1%
1=
1D
12
1'
1A
13
1&
0E
04
0%
#890000
b1001 !
17
0)
0<
09
1@
01
0(
0=
0D
02
0'
0A
03
0&
1E
14
1%
#900000
b1011 !
b1010 !
07
1;
1)
1<
19
1=
11
12
1(
1'
0=
02
0'
#910000
b1011 !
17
0)
0<
09
01
0(
1=
12
1'
#920000
b1111 !
b1101 !
b1100 !
07
0;
1?
1)
1<
19
0=
1A
0@
11
02
13
1(
0'
1&
1=
12
1'
0A
03
0&
#930000
b1101 !
17
0)
0<
09
1@
01
0(
0=
02
0'
1A
13
1&
#940000
b1111 !
b1110 !
07
1;
1)
1<
19
1=
11
12
1(
1'
0=
02
0'
#950000
b1111 !
17
0)
0<
09
01
0(
1=
12
1'
#960000
b111 !
b11 !
b1 !
b0 !
07
0;
0?
0C
1)
1<
19
0=
0A
0E
0@
11
02
03
04
1(
0'
0&
0%
1=
1D
12
1'
1A
0F
13
1&
1E
14
1%
0G
05
0$
#970000
b1 !
17
0)
0<
09
1@
01
0(
0=
0D
02
0'
0A
1F
03
0&
0E
04
0%
1G
15
1$
#980000
b11 !
b10 !
07
1;
1)
1<
19
1=
11
12
1(
1'
0=
02
0'
#990000
b11 !
17
0)
0<
09
01
0(
1=
12
1'
