chenillard/simulation/qsim/chenillard.msim.vcd
$comment
	File created using the following command:
		vcd file chenillard.msim.vcd -direction
$end
$date
	Sat Dec 12 15:01:10 2015
$end
$version
	ModelSim Version 10.3d
$end
$timescale
	1ps
$end

$scope module chenillard_vlg_vec_tst $end
$var reg 1 ! clk $end
$var reg 8 " delay [7:0] $end
$var wire 1 # leds_output [9] $end
$var wire 1 $ leds_output [8] $end
$var wire 1 % leds_output [7] $end
$var wire 1 & leds_output [6] $end
$var wire 1 ' leds_output [5] $end
$var wire 1 ( leds_output [4] $end
$var wire 1 ) leds_output [3] $end
$var wire 1 * leds_output [2] $end
$var wire 1 + leds_output [1] $end
$var wire 1 , leds_output [0] $end
$var wire 1 - sampler $end

$scope module i1 $end
$var wire 1 . gnd $end
$var wire 1 / vcc $end
$var wire 1 0 unknown $end
$var tri1 1 1 devclrn $end
$var tri1 1 2 devpor $end
$var tri1 1 3 devoe $end
$var wire 1 4 leds_output[0]~output_o $end
$var wire 1 5 leds_output[1]~output_o $end
$var wire 1 6 leds_output[2]~output_o $end
$var wire 1 7 leds_output[3]~output_o $end
$var wire 1 8 leds_output[4]~output_o $end
$var wire 1 9 leds_output[5]~output_o $end
$var wire 1 : leds_output[6]~output_o $end
$var wire 1 ; leds_output[7]~output_o $end
$var wire 1 < leds_output[8]~output_o $end
$var wire 1 = leds_output[9]~output_o $end
$var wire 1 > clk~input_o $end
$var wire 1 ? Add0~17_sumout $end
$var wire 1 @ delay[3]~input_o $end
$var wire 1 A delay[2]~input_o $end
$var wire 1 B delay[1]~input_o $end
$var wire 1 C delay[0]~input_o $end
$var wire 1 D LessThan0~0_combout $end
$var wire 1 E LessThan0~1_combout $end
$var wire 1 F delay[5]~input_o $end
$var wire 1 G delay[7]~input_o $end
$var wire 1 H delay[6]~input_o $end
$var wire 1 I LessThan0~2_combout $end
$var wire 1 J delay[4]~input_o $end
$var wire 1 K LessThan0~3_combout $end
$var wire 1 L LessThan0~4_combout $end
$var wire 1 M LessThan0~5_combout $end
$var wire 1 N LessThan0~6_combout $end
$var wire 1 O LessThan0~7_combout $end
$var wire 1 P LessThan0~8_combout $end
$var wire 1 Q LessThan0~9_combout $end
$var wire 1 R LessThan0~10_combout $end
$var wire 1 S LessThan0~11_combout $end
$var wire 1 T Add0~18 $end
$var wire 1 U Add0~13_sumout $end
$var wire 1 V Add0~14 $end
$var wire 1 W Add0~9_sumout $end
$var wire 1 X Add0~10 $end
$var wire 1 Y Add0~5_sumout $end
$var wire 1 Z Add0~6 $end
$var wire 1 [ Add0~33_sumout $end
$var wire 1 \ Add0~34 $end
$var wire 1 ] Add0~21_sumout $end
$var wire 1 ^ Add0~22 $end
$var wire 1 _ Add0~29_sumout $end
$var wire 1 ` Add0~30 $end
$var wire 1 a Add0~25_sumout $end
$var wire 1 b Add0~26 $end
$var wire 1 c Add0~101_sumout $end
$var wire 1 d Add0~102 $end
$var wire 1 e Add0~97_sumout $end
$var wire 1 f Add0~98 $end
$var wire 1 g Add0~93_sumout $end
$var wire 1 h Add0~94 $end
$var wire 1 i Add0~89_sumout $end
$var wire 1 j Add0~90 $end
$var wire 1 k Add0~61_sumout $end
$var wire 1 l Add0~62 $end
$var wire 1 m Add0~57_sumout $end
$var wire 1 n Add0~58 $end
$var wire 1 o Add0~53_sumout $end
$var wire 1 p Add0~54 $end
$var wire 1 q Add0~49_sumout $end
$var wire 1 r Add0~50 $end
$var wire 1 s Add0~45_sumout $end
$var wire 1 t Add0~46 $end
$var wire 1 u Add0~85_sumout $end
$var wire 1 v Add0~86 $end
$var wire 1 w Add0~81_sumout $end
$var wire 1 x Add0~82 $end
$var wire 1 y Add0~77_sumout $end
$var wire 1 z Add0~78 $end
$var wire 1 { Add0~73_sumout $end
$var wire 1 | Add0~74 $end
$var wire 1 } Add0~105_sumout $end
$var wire 1 ~ Add0~106 $end
$var wire 1 !! Add0~69_sumout $end
$var wire 1 "! Add0~70 $end
$var wire 1 #! Add0~65_sumout $end
$var wire 1 $! Add0~66 $end
$var wire 1 %! Add0~41_sumout $end
$var wire 1 &! Add0~42 $end
$var wire 1 '! Add0~125_sumout $end
$var wire 1 (! Add0~126 $end
$var wire 1 )! Add0~121_sumout $end
$var wire 1 *! Add0~122 $end
$var wire 1 +! Add0~117_sumout $end
$var wire 1 ,! Add0~118 $end
$var wire 1 -! Add0~113_sumout $end
$var wire 1 .! Add0~114 $end
$var wire 1 /! Add0~109_sumout $end
$var wire 1 0! Add0~110 $end
$var wire 1 1! Add0~37_sumout $end
$var wire 1 2! Add0~38 $end
$var wire 1 3! Add0~1_sumout $end
$var wire 1 4! state~0_combout $end
$var wire 1 5! state~q $end
$var wire 1 6! direction~1_combout $end
$var wire 1 7! direction~0_combout $end
$var wire 1 8! direction~2_combout $end
$var wire 1 9! direction~q $end
$var wire 1 :! i~9_combout $end
$var wire 1 ;! i~8_combout $end
$var wire 1 <! i~7_combout $end
$var wire 1 =! i~6_combout $end
$var wire 1 >! i~5_combout $end
$var wire 1 ?! i~4_combout $end
$var wire 1 @! i~3_combout $end
$var wire 1 A! i~2_combout $end
$var wire 1 B! i~1_combout $end
$var wire 1 C! i~0_combout $end
$var wire 1 D! leds_output[0]~0_combout $end
$var wire 1 E! leds_output[0]~reg0_q $end
$var wire 1 F! leds_output[1]~reg0_q $end
$var wire 1 G! leds_output[2]~reg0_q $end
$var wire 1 H! leds_output[3]~reg0_q $end
$var wire 1 I! leds_output[4]~reg0_q $end
$var wire 1 J! leds_output[5]~reg0_q $end
$var wire 1 K! leds_output[6]~reg0_q $end
$var wire 1 L! leds_output[7]~reg0_q $end
$var wire 1 M! leds_output[8]~reg0_q $end
$var wire 1 N! leds_output[9]~reg0_q $end
$var wire 1 O! delay_count [31] $end
$var wire 1 P! delay_count [30] $end
$var wire 1 Q! delay_count [29] $end
$var wire 1 R! delay_count [28] $end
$var wire 1 S! delay_count [27] $end
$var wire 1 T! delay_count [26] $end
$var wire 1 U! delay_count [25] $end
$var wire 1 V! delay_count [24] $end
$var wire 1 W! delay_count [23] $end
$var wire 1 X! delay_count [22] $end
$var wire 1 Y! delay_count [21] $end
$var wire 1 Z! delay_count [20] $end
$var wire 1 [! delay_count [19] $end
$var wire 1 \! delay_count [18] $end
$var wire 1 ]! delay_count [17] $end
$var wire 1 ^! delay_count [16] $end
$var wire 1 _! delay_count [15] $end
$var wire 1 `! delay_count [14] $end
$var wire 1 a! delay_count [13] $end
$var wire 1 b! delay_count [12] $end
$var wire 1 c! delay_count [11] $end
$var wire 1 d! delay_count [10] $end
$var wire 1 e! delay_count [9] $end
$var wire 1 f! delay_count [8] $end
$var wire 1 g! delay_count [7] $end
$var wire 1 h! delay_count [6] $end
$var wire 1 i! delay_count [5] $end
$var wire 1 j! delay_count [4] $end
$var wire 1 k! delay_count [3] $end
$var wire 1 l! delay_count [2] $end
$var wire 1 m! delay_count [1] $end
$var wire 1 n! delay_count [0] $end
$var wire 1 o! i [9] $end
$var wire 1 p! i [8] $end
$var wire 1 q! i [7] $end
$var wire 1 r! i [6] $end
$var wire 1 s! i [5] $end
$var wire 1 t! i [4] $end
$var wire 1 u! i [3] $end
$var wire 1 v! i [2] $end
$var wire 1 w! i [1] $end
$var wire 1 x! i [0] $end
$upscope $end
$upscope $end
$enddefinitions $end
#0
$dumpvars
0!
b11110 "
0,
0+
0*
0)
0(
0'
0&
0%
0$
0#
x-
0.
1/
x0
11
12
13
04
05
06
07
08
09
0:
0;
0<
0=
0>
1?
1@
1A
1B
0C
1D
1E
0F
0G
0H
1I
1J
0K
0L
0M
1N
1O
1P
1Q
1R
0S
0T
0U
0V
0W
0X
0Y
0Z
0[
0\
0]
0^
0_
0`
0a
0b
0c
0d
0e
0f
0g
0h
0i
0j
0k
0l
0m
0n
0o
0p
0q
0r
0s
0t
0u
0v
0w
0x
0y
0z
0{
0|
0}
0~
0!!
0"!
0#!
0$!
0%!
0&!
0'!
0(!
0)!
0*!
0+!
0,!
0-!
0.!
0/!
00!
01!
02!
03!
14!
05!
06!
17!
08!
09!
0:!
0;!
0<!
0=!
0>!
0?!
0@!
0A!
1B!
1C!
1D!
0E!
0F!
0G!
0H!
0I!
0J!
0K!
0L!
0M!
0N!
0n!
0m!
0l!
0k!
0j!
0i!
0h!
0g!
0f!
0e!
0d!
0c!
0b!
0a!
0`!
0_!
0^!
0]!
0\!
0[!
0Z!
0Y!
0X!
0W!
0V!
0U!
0T!
0S!
0R!
0Q!
0P!
0O!
0x!
0w!
0v!
0u!
0t!
0s!
0r!
0q!
0p!
0o!
$end
#5000
1!
0-
1>
1x!
15!
1E!
1w!
14
07!
1,
0D!
0B!
1A!
#10000
0!
1-
0>
#15000
1!
0-
1>
1n!
1T
0?
1U
#20000
0!
1-
0>
#25000
1!
0-
1>
1m!
0n!
0D
0T
1V
1?
0U
0V
1U
1W
0W
#30000
0!
1-
0>
#35000
1!
0-
1>
1n!
1T
0?
1V
0U
1W
#40000
0!
1-
0>
#45000
1!
0-
1>
1l!
0m!
0n!
1D
0T
0V
1X
1?
1U
0W
0X
0U
1W
1Y
0Y
#50000
0!
1-
0>
#55000
1!
0-
1>
1n!
1T
0?
1U
#60000
0!
1-
0>
#65000
1!
0-
1>
1m!
0n!
0D
0T
1V
1?
0U
0V
1X
1U
0W
0X
1W
1Y
0Y
#70000
0!
1-
0>
#75000
1!
0-
1>
1n!
1T
0?
1V
0U
1X
0W
1Y
#80000
0!
1-
0>
#85000
1!
0-
1>
1k!
0l!
0m!
0n!
1D
0T
0V
0X
1Z
1?
1U
1W
0Y
0Z
0U
0W
1Y
1[
0[
#90000
0!
1-
0>
#95000
1!
0-
1>
1n!
1T
0?
1U
#100000
0!
1-
0>
#105000
1!
0-
1>
1m!
0n!
0D
0T
1V
1?
0U
0V
1U
1W
0W
#110000
0!
1-
0>
#115000
1!
0-
1>
1n!
1T
0?
1V
0U
1W
#120000
0!
1-
0>
#125000
1!
0-
1>
1l!
0m!
0n!
1D
0T
0V
1X
0E
1?
1U
0W
0X
1Z
1E
0U
1W
0Y
0Z
1Y
1[
0[
#130000
0!
1-
0>
#135000
1!
0-
1>
1n!
1T
0?
1U
#140000
0!
1-
0>
#145000
1!
0-
1>
1m!
0n!
0D
0T
1V
1?
0U
0V
1X
0E
1U
0W
0X
1Z
1W
0Y
0Z
1Y
1[
0[
#150000
0!
1-
0>
#155000
1!
0-
1>
1n!
1T
0?
1V
0U
1X
0W
1Z
0Y
1[
#160000
0!
1-
0>
#165000
1!
0-
1>
1j!
0k!
0l!
0m!
0n!
1D
0T
0V
0X
1E
0Z
1\
1M
1K
1?
1U
1W
1Y
0[
0\
0U
0W
0Y
1[
1]
0]
#170000
0!
1-
0>
#175000
1!
0-
1>
1n!
1T
0?
1U
#180000
0!
1-
0>
#185000
1!
0-
1>
1m!
0n!
0D
0T
1V
1?
0U
0V
1U
1W
0W
#190000
0!
1-
0>
#195000
1!
0-
1>
1n!
1T
0?
1V
0U
1W
#200000
0!
1-
0>
#205000
1!
0-
1>
1l!
0m!
0n!
1D
0T
0V
1X
1?
1U
0W
0X
0U
1W
1Y
0Y
#210000
0!
1-
0>
#215000
1!
0-
1>
1n!
1T
0?
1U
#220000
0!
1-
0>
#225000
1!
0-
1>
1m!
0n!
0D
0T
1V
1?
0U
0V
1X
1U
0W
0X
1W
1Y
0Y
#230000
0!
1-
0>
#235000
1!
0-
1>
1n!
1T
0?
1V
0U
1X
0W
1Y
#240000
0!
1-
0>
#245000
1!
0-
1>
1k!
0l!
0m!
0n!
1D
0T
0V
0X
1Z
1?
1U
1W
0Y
0Z
1\
0U
0W
1Y
0[
0\
1[
1]
0]
#250000
0!
1-
0>
#255000
1!
0-
1>
1n!
1T
0?
1U
#260000
0!
1-
0>
#265000
1!
0-
1>
1m!
0n!
0D
0T
1V
1?
0U
0V
1U
1W
0W
#270000
0!
1-
0>
#275000
1!
0-
1>
1n!
1T
0?
1V
0U
1W
#280000
0!
1-
0>
#285000
1!
0-
1>
1l!
0m!
0n!
1D
0T
0V
1X
0E
1?
1U
0W
0X
1Z
1S
1E
0U
1W
0Y
04!
0Z
1\
0S
1Y
0[
14!
0\
1[
1]
0]
#290000
0!
1-
0>
#295000
1!
0-
1>
1n!
1T
0?
1U
#300000
0!
1-
0>
#305000
1!
0-
1>
1m!
0n!
0D
0T
1V
1?
0U
0V
1X
0E
1U
0W
0X
1Z
1S
1W
0Y
04!
0Z
1\
1Y
0[
0\
1[
1]
0]
#310000
0!
1-
0>
#315000
1!
0-
1>
05!
0j!
0k!
0l!
0m!
1D
1E
0M
0K
16!
0U
0W
0Y
0[
14!
0S
#320000
0!
1-
0>
#325000
1!
0-
1>
15!
1F!
0E!
0w!
1v!
04
15
06!
17!
0,
1+
1@!
0A!
#330000
0!
1-
0>
#335000
1!
0-
1>
1n!
1T
0?
1U
#340000
0!
1-
0>
#345000
1!
0-
1>
1m!
0n!
0D
0T
1V
1?
0U
0V
1U
1W
0W
#350000
0!
1-
0>
#355000
1!
0-
1>
1n!
1T
0?
1V
0U
1W
#360000
0!
1-
0>
#365000
1!
0-
1>
1l!
0m!
0n!
1D
0T
0V
1X
1?
1U
0W
0X
0U
1W
1Y
0Y
#370000
0!
1-
0>
#375000
1!
0-
1>
1n!
1T
0?
1U
#380000
0!
1-
0>
#385000
1!
0-
1>
1m!
0n!
0D
0T
1V
1?
0U
0V
1X
1U
0W
0X
1W
1Y
0Y
#390000
0!
1-
0>
#395000
1!
0-
1>
1n!
1T
0?
1V
0U
1X
0W
1Y
#400000
0!
1-
0>
#405000
1!
0-
1>
1k!
0l!
0m!
0n!
1D
0T
0V
0X
1Z
1?
1U
1W
0Y
0Z
0U
0W
1Y
1[
0[
#410000
0!
1-
0>
#415000
1!
0-
1>
1n!
1T
0?
1U
#420000
0!
1-
0>
#425000
1!
0-
1>
1m!
0n!
0D
0T
1V
1?
0U
0V
1U
1W
0W
#430000
0!
1-
0>
#435000
1!
0-
1>
1n!
1T
0?
1V
0U
1W
#440000
0!
1-
0>
#445000
1!
0-
1>
1l!
0m!
0n!
1D
0T
0V
1X
0E
1?
1U
0W
0X
1Z
1E
0U
1W
0Y
0Z
1Y
1[
0[
#450000
0!
1-
0>
#455000
1!
0-
1>
1n!
1T
0?
1U
#460000
0!
1-
0>
#465000
1!
0-
1>
1m!
0n!
0D
0T
1V
1?
0U
0V
1X
0E
1U
0W
0X
1Z
1W
0Y
0Z
1Y
1[
0[
#470000
0!
1-
0>
#475000
1!
0-
1>
1n!
1T
0?
1V
0U
1X
0W
1Z
0Y
1[
#480000
0!
1-
0>
#485000
1!
0-
1>
1j!
0k!
0l!
0m!
0n!
1D
0T
0V
0X
1E
0Z
1\
1M
1K
1?
1U
1W
1Y
0[
0\
0U
0W
0Y
1[
1]
0]
#490000
0!
1-
0>
#495000
1!
0-
1>
1n!
1T
0?
1U
#500000
0!
1-
0>
#505000
1!
0-
1>
1m!
0n!
0D
0T
1V
1?
0U
0V
1U
1W
0W
#510000
0!
1-
0>
#515000
1!
0-
1>
1n!
1T
0?
1V
0U
1W
#520000
0!
1-
0>
#525000
1!
0-
1>
1l!
0m!
0n!
1D
0T
0V
1X
1?
1U
0W
0X
0U
1W
1Y
0Y
#530000
0!
1-
0>
#535000
1!
0-
1>
1n!
1T
0?
1U
#540000
0!
1-
0>
#545000
1!
0-
1>
1m!
0n!
0D
0T
1V
1?
0U
0V
1X
1U
0W
0X
1W
1Y
0Y
#550000
0!
1-
0>
#555000
1!
0-
1>
1n!
1T
0?
1V
0U
1X
0W
1Y
#560000
0!
1-
0>
#565000
1!
0-
1>
1k!
0l!
0m!
0n!
1D
0T
0V
0X
1Z
1?
1U
1W
0Y
0Z
1\
0U
0W
1Y
0[
0\
1[
1]
0]
#570000
0!
1-
0>
#575000
1!
0-
1>
1n!
1T
0?
1U
#580000
0!
1-
0>
#585000
1!
0-
1>
1m!
0n!
0D
0T
1V
1?
0U
0V
1U
1W
0W
#590000
0!
1-
0>
#595000
1!
0-
1>
1n!
1T
0?
1V
0U
1W
#600000
0!
1-
0>
#605000
1!
0-
1>
1l!
0m!
0n!
1D
0T
0V
1X
0E
1?
1U
0W
0X
1Z
1S
1E
0U
1W
0Y
04!
0Z
1\
0S
1Y
0[
14!
0\
1[
1]
0]
#610000
0!
1-
0>
#615000
1!
0-
1>
1n!
1T
0?
1U
#620000
0!
1-
0>
#625000
1!
0-
1>
1m!
0n!
0D
0T
1V
1?
0U
0V
1X
0E
1U
0W
0X
1Z
1S
1W
0Y
04!
0Z
1\
1Y
0[
0\
1[
1]
0]
#630000
0!
1-
0>
#635000
1!
0-
1>
05!
0j!
0k!
0l!
0m!
1D
1E
0M
0K
0U
0W
0Y
0[
14!
0S
#640000
0!
1-
0>
#645000
1!
0-
1>
15!
1G!
0F!
0v!
1u!
05
16
07!
0+
1*
1?!
0@!
#650000
0!
1-
0>
#655000
1!
0-
1>
1n!
1T
0?
1U
#660000
0!
1-
0>
#665000
1!
0-
1>
1m!
0n!
0D
0T
1V
1?
0U
0V
1U
1W
0W
#670000
0!
1-
0>
#675000
1!
0-
1>
1n!
1T
0?
1V
0U
1W
#680000
0!
1-
0>
#685000
1!
0-
1>
1l!
0m!
0n!
1D
0T
0V
1X
1?
1U
0W
0X
0U
1W
1Y
0Y
#690000
0!
1-
0>
#695000
1!
0-
1>
1n!
1T
0?
1U
#700000
0!
1-
0>
#705000
1!
0-
1>
1m!
0n!
0D
0T
1V
1?
0U
0V
1X
1U
0W
0X
1W
1Y
0Y
#710000
0!
1-
0>
#715000
1!
0-
1>
1n!
1T
0?
1V
0U
1X
0W
1Y
#720000
0!
1-
0>
#725000
1!
0-
1>
1k!
0l!
0m!
0n!
1D
0T
0V
0X
1Z
1?
1U
1W
0Y
0Z
0U
0W
1Y
1[
0[
#730000
0!
1-
0>
#735000
1!
0-
1>
1n!
1T
0?
1U
#740000
0!
1-
0>
#745000
1!
0-
1>
1m!
0n!
0D
0T
1V
1?
0U
0V
1U
1W
0W
#750000
0!
1-
0>
#755000
1!
0-
1>
1n!
1T
0?
1V
0U
1W
#760000
0!
1-
0>
#765000
1!
0-
1>
1l!
0m!
0n!
1D
0T
0V
1X
0E
1?
1U
0W
0X
1Z
1E
0U
1W
0Y
0Z
1Y
1[
0[
#770000
0!
1-
0>
#775000
1!
0-
1>
1n!
1T
0?
1U
#780000
0!
1-
0>
#785000
1!
0-
1>
1m!
0n!
0D
0T
1V
1?
0U
0V
1X
0E
1U
0W
0X
1Z
1W
0Y
0Z
1Y
1[
0[
#790000
0!
1-
0>
#795000
1!
0-
1>
1n!
1T
0?
1V
0U
1X
0W
1Z
0Y
1[
#800000
0!
1-
0>
#805000
1!
0-
1>
1j!
0k!
0l!
0m!
0n!
1D
0T
0V
0X
1E
0Z
1\
1M
1K
1?
1U
1W
1Y
0[
0\
0U
0W
0Y
1[
1]
0]
#810000
0!
1-
0>
#815000
1!
0-
1>
1n!
1T
0?
1U
#820000
0!
1-
0>
#825000
1!
0-
1>
1m!
0n!
0D
0T
1V
1?
0U
0V
1U
1W
0W
#830000
0!
1-
0>
#835000
1!
0-
1>
1n!
1T
0?
1V
0U
1W
#840000
0!
1-
0>
#845000
1!
0-
1>
1l!
0m!
0n!
1D
0T
0V
1X
1?
1U
0W
0X
0U
1W
1Y
0Y
#850000
0!
1-
0>
#855000
1!
0-
1>
1n!
1T
0?
1U
#860000
0!
1-
0>
#865000
1!
0-
1>
1m!
0n!
0D
0T
1V
1?
0U
0V
1X
1U
0W
0X
1W
1Y
0Y
#870000
0!
1-
0>
#875000
1!
0-
1>
1n!
1T
0?
1V
0U
1X
0W
1Y
#880000
0!
1-
0>
#885000
1!
0-
1>
1k!
0l!
0m!
0n!
1D
0T
0V
0X
1Z
1?
1U
1W
0Y
0Z
1\
0U
0W
1Y
0[
0\
1[
1]
0]
#890000
0!
1-
0>
#895000
1!
0-
1>
1n!
1T
0?
1U
#900000
0!
1-
0>
#905000
1!
0-
1>
1m!
0n!
0D
0T
1V
1?
0U
0V
1U
1W
0W
#910000
0!
1-
0>
#915000
1!
0-
1>
1n!
1T
0?
1V
0U
1W
#920000
0!
1-
0>
#925000
1!
0-
1>
1l!
0m!
0n!
1D
0T
0V
1X
0E
1?
1U
0W
0X
1Z
1S
1E
0U
1W
0Y
04!
0Z
1\
0S
1Y
0[
14!
0\
1[
1]
0]
#930000
0!
1-
0>
#935000
1!
0-
1>
1n!
1T
0?
1U
#940000
0!
1-
0>
#945000
1!
0-
1>
1m!
0n!
0D
0T
1V
1?
0U
0V
1X
0E
1U
0W
0X
1Z
1S
1W
0Y
04!
0Z
1\
1Y
0[
0\
1[
1]
0]
#950000
0!
1-
0>
#955000
1!
0-
1>
05!
0j!
0k!
0l!
0m!
1D
1E
0M
0K
16!
0U
0W
0Y
0[
14!
0S
#960000
0!
1-
0>
#965000
1!
0-
1>
15!
1H!
0G!
0u!
1t!
06
17
06!
17!
0*
1)
1>!
0?!
#970000
0!
1-
0>
#975000
1!
0-
1>
1n!
1T
0?
1U
#980000
0!
1-
0>
#985000
1!
0-
1>
1m!
0n!
0D
0T
1V
1?
0U
0V
1U
1W
0W
#990000
0!
1-
0>
#995000
1!
0-
1>
1n!
1T
0?
1V
0U
1W
