counter8bit/simulation/qsim/counter8bit.msim.vcd
$comment
	File created using the following command:
		vcd file counter8bit.msim.vcd -direction
$end
$date
	Thu Dec 17 14:46:52 2015
$end
$version
	ModelSim Version 10.3d
$end
$timescale
	1ps
$end

$scope module counter8bit_vlg_vec_tst $end
$var reg 1 ! clk $end
$var reg 1 " enable $end
$var reg 1 # reset $end
$var wire 1 $ counter_output [7] $end
$var wire 1 % counter_output [6] $end
$var wire 1 & counter_output [5] $end
$var wire 1 ' counter_output [4] $end
$var wire 1 ( counter_output [3] $end
$var wire 1 ) counter_output [2] $end
$var wire 1 * counter_output [1] $end
$var wire 1 + counter_output [0] $end
$var wire 1 , sampler $end

$scope module i1 $end
$var wire 1 - gnd $end
$var wire 1 . vcc $end
$var wire 1 / unknown $end
$var tri1 1 0 devclrn $end
$var tri1 1 1 devpor $end
$var tri1 1 2 devoe $end
$var wire 1 3 counter_output_a0_a_aoutput_o $end
$var wire 1 4 counter_output_a1_a_aoutput_o $end
$var wire 1 5 counter_output_a2_a_aoutput_o $end
$var wire 1 6 counter_output_a3_a_aoutput_o $end
$var wire 1 7 counter_output_a4_a_aoutput_o $end
$var wire 1 8 counter_output_a5_a_aoutput_o $end
$var wire 1 9 counter_output_a6_a_aoutput_o $end
$var wire 1 : counter_output_a7_a_aoutput_o $end
$var wire 1 ; clk_ainput_o $end
$var wire 1 < clk_ainputclkctrl_outclk $end
$var wire 1 = cnt_a0_a_a8_combout $end
$var wire 1 > reset_ainput_o $end
$var wire 1 ? enable_ainput_o $end
$var wire 1 @ cnt_a0_a_a10_combout $end
$var wire 1 A cnt_a0_a_a9 $end
$var wire 1 B cnt_a1_a_a11_combout $end
$var wire 1 C cnt_a1_a_a12 $end
$var wire 1 D cnt_a2_a_a13_combout $end
$var wire 1 E cnt_a2_a_a14 $end
$var wire 1 F cnt_a3_a_a15_combout $end
$var wire 1 G cnt_a3_a_a16 $end
$var wire 1 H cnt_a4_a_a17_combout $end
$var wire 1 I cnt_a4_a_a18 $end
$var wire 1 J cnt_a5_a_a19_combout $end
$var wire 1 K cnt_a5_a_a20 $end
$var wire 1 L cnt_a6_a_a21_combout $end
$var wire 1 M cnt_a6_a_a22 $end
$var wire 1 N cnt_a7_a_a23_combout $end
$var wire 1 O cnt [31] $end
$var wire 1 P cnt [30] $end
$var wire 1 Q cnt [29] $end
$var wire 1 R cnt [28] $end
$var wire 1 S cnt [27] $end
$var wire 1 T cnt [26] $end
$var wire 1 U cnt [25] $end
$var wire 1 V cnt [24] $end
$var wire 1 W cnt [23] $end
$var wire 1 X cnt [22] $end
$var wire 1 Y cnt [21] $end
$var wire 1 Z cnt [20] $end
$var wire 1 [ cnt [19] $end
$var wire 1 \ cnt [18] $end
$var wire 1 ] cnt [17] $end
$var wire 1 ^ cnt [16] $end
$var wire 1 _ cnt [15] $end
$var wire 1 ` cnt [14] $end
$var wire 1 a cnt [13] $end
$var wire 1 b cnt [12] $end
$var wire 1 c cnt [11] $end
$var wire 1 d cnt [10] $end
$var wire 1 e cnt [9] $end
$var wire 1 f cnt [8] $end
$var wire 1 g cnt [7] $end
$var wire 1 h cnt [6] $end
$var wire 1 i cnt [5] $end
$var wire 1 j cnt [4] $end
$var wire 1 k cnt [3] $end
$var wire 1 l cnt [2] $end
$var wire 1 m cnt [1] $end
$var wire 1 n cnt [0] $end
$upscope $end
$upscope $end
$enddefinitions $end
#0
$dumpvars
0!
1"
0#
0+
0*
0)
0(
0'
0&
0%
0$
x,
0-
1.
x/
10
11
12
03
04
05
06
07
08
09
0:
0;
0<
1=
0>
1?
1@
0A
0B
1C
0D
0E
0F
1G
0H
0I
0J
1K
0L
0M
0N
0n
0m
0l
0k
0j
0i
0h
0g
zf
ze
zd
zc
zb
za
z`
z_
z^
z]
z\
z[
zZ
zY
zX
zW
zV
zU
zT
zS
zR
zQ
zP
zO
$end
#1316
1!
1;
1<
0,
#2631
0!
0;
0<
1,
1n
13
1A
1+
0=
1B
#3947
1!
1;
1<
0,
#5262
0!
0;
0<
1,
0n
1m
14
03
0A
0C
1*
0+
1=
0B
1C
1B
1D
0D
#6578
1!
1;
1<
0,
#7893
0!
0;
0<
1,
1n
13
1A
1+
0=
0C
0B
1D
#9209
1!
1;
1<
0,
#10524
0!
0;
0<
1,
0n
0m
1l
15
04
03
0A
1C
1E
1)
0*
0+
1=
1B
0D
0E
0B
1D
1F
0F
#11840
1!
1;
1<
0,
#13155
0!
0;
0<
1,
1n
13
1A
1+
0=
1B
#14471
1!
1;
1<
0,
#15786
0!
0;
0<
1,
0n
1m
14
03
0A
0C
1*
0+
1=
0B
1C
1E
1B
0D
0E
1D
1F
0F
#17102
1!
1;
1<
0,
#18417
0!
0;
0<
1,
1n
13
1A
1+
0=
0C
0B
1E
0D
1F
#19733
1!
1;
1<
0,
#21048
0!
0;
0<
1,
0n
0m
0l
1k
16
05
04
03
0A
1C
0E
0G
1(
0)
0*
0+
1=
1B
1D
0F
1G
0B
0D
1F
1H
0H
#22364
1!
1;
1<
0,
#23679
0!
0;
0<
1,
1n
13
1A
1+
0=
1B
#24995
1!
1;
1<
0,
#26310
0!
0;
0<
1,
0n
1m
14
03
0A
0C
1*
0+
1=
0B
1C
1B
1D
0D
#27626
1!
1;
1<
0,
#28941
0!
0;
0<
1,
1n
13
1A
1+
0=
0C
0B
1D
#30257
1!
1;
1<
0,
#31572
0!
0;
0<
1,
0n
0m
1l
15
04
03
0A
1C
1E
1)
0*
0+
1=
1B
0D
0E
0G
0B
1D
0F
1G
1F
1H
0H
#32888
1!
1;
1<
0,
#34203
0!
0;
0<
1,
1n
13
1A
1+
0=
1B
#35519
1!
1;
1<
0,
#36834
0!
0;
0<
1,
0n
1m
14
03
0A
0C
1*
0+
1=
0B
1C
1E
1B
0D
0E
0G
1D
0F
1G
1F
1H
0H
#38150
1!
1;
1<
0,
#39465
0!
0;
0<
1,
1n
13
1A
1+
0=
0C
0B
1E
0D
0G
0F
1H
#40781
1!
1;
1<
0,
#42096
0!
0;
0<
1,
0n
0m
0l
0k
1j
17
06
05
04
03
0A
1C
0E
1G
1I
1'
0(
0)
0*
0+
1=
1B
1D
1F
0H
0I
0B
0D
0F
1H
1J
0J
#43412
1!
1;
1<
0,
#44727
0!
0;
0<
1,
1n
13
1A
1+
0=
1B
#46043
1!
1;
1<
0,
#47358
0!
0;
0<
1,
0n
1m
14
03
0A
0C
1*
0+
1=
0B
1C
1B
1D
0D
#48674
1!
1;
1<
0,
#49989
0!
0;
0<
1,
1n
13
1A
1+
0=
0C
0B
1D
#51305
1!
1;
1<
0,
#52620
0!
0;
0<
1,
0n
0m
1l
15
04
03
0A
1C
1E
1)
0*
0+
1=
1B
0D
0E
0B
1D
1F
0F
#53936
1!
1;
1<
0,
#55251
0!
0;
0<
1,
1n
13
1A
1+
0=
1B
#56567
1!
1;
1<
0,
#57882
0!
0;
0<
1,
0n
1m
14
03
0A
0C
1*
0+
1=
0B
1C
1E
1B
0D
0E
1D
1F
0F
#59198
1!
1;
1<
0,
#60513
0!
0;
0<
1,
1n
13
1A
1+
0=
0C
0B
1E
0D
1F
#61829
1!
1;
1<
0,
#63144
0!
0;
0<
1,
0n
0m
0l
1k
16
05
04
03
0A
1C
0E
0G
1(
0)
0*
0+
1=
1B
1D
0F
1G
1I
0B
0D
1F
0H
0I
1H
1J
0J
#64460
1!
1;
1<
0,
#65775
0!
0;
0<
1,
1n
13
1A
1+
0=
1B
#67091
1!
1;
1<
0,
#68406
0!
0;
0<
1,
0n
1m
14
03
0A
0C
1*
0+
1=
0B
1C
1B
1D
0D
#69722
1!
1;
1<
0,
#71037
0!
0;
0<
1,
1n
13
1A
1+
0=
0C
0B
1D
#72353
1!
1;
1<
0,
#73668
0!
0;
0<
1,
0n
0m
1l
15
04
03
0A
1C
1E
1)
0*
0+
1=
1B
0D
0E
0G
0B
1D
0F
1G
1I
1F
0H
0I
1H
1J
0J
#74984
1!
1;
1<
0,
#76299
0!
0;
0<
1,
1n
13
1A
1+
0=
1B
#77615
1!
1;
1<
0,
#78930
0!
0;
0<
1,
0n
1m
14
03
0A
0C
1*
0+
1=
0B
1C
1E
1B
0D
0E
0G
1D
0F
1G
1I
1F
0H
0I
1H
1J
0J
#80246
1!
1;
1<
0,
#81561
0!
0;
0<
1,
1n
13
1A
1+
0=
0C
0B
1E
0D
0G
0F
1I
0H
1J
#82877
1!
1;
1<
0,
#84192
0!
0;
0<
1,
0n
0m
0l
0k
0j
1i
18
07
06
05
04
03
0A
1C
0E
1G
0I
0K
1&
0'
0(
0)
0*
0+
1=
1B
1D
1F
1H
0J
1K
0B
0D
0F
0H
1J
1L
0L
#85508
1!
1;
1<
0,
#86823
0!
0;
0<
1,
1n
13
1A
1+
0=
1B
#88139
1!
1;
1<
0,
#89454
0!
0;
0<
1,
0n
1m
14
03
0A
0C
1*
0+
1=
0B
1C
1B
1D
0D
#90770
1!
1;
1<
0,
#92085
0!
0;
0<
1,
1n
13
1A
1+
0=
0C
0B
1D
#93401
1!
1;
1<
0,
#94716
0!
0;
0<
1,
0n
0m
1l
15
04
03
0A
1C
1E
1)
0*
0+
1=
1B
0D
0E
0B
1D
1F
0F
#96032
1!
1;
1<
0,
#97347
0!
0;
0<
1,
1n
13
1A
1+
0=
1B
#98663
1!
1;
1<
0,
#99978
0!
0;
0<
1,
0n
1m
14
03
0A
0C
1*
0+
1=
0B
1C
1E
1B
0D
0E
1D
1F
0F
#101294
1!
1;
1<
0,
#102609
0!
0;
0<
1,
1n
13
1A
1+
0=
0C
0B
1E
0D
1F
#103925
1!
1;
1<
0,
#105240
0!
0;
0<
1,
0n
0m
0l
1k
16
05
04
03
0A
1C
0E
0G
1(
0)
0*
0+
1=
1B
1D
0F
1G
0B
0D
1F
1H
0H
#106556
1!
1;
1<
0,
#107871
0!
0;
0<
1,
1n
13
1A
1+
0=
1B
#109187
1!
1;
1<
0,
#110502
0!
0;
0<
1,
0n
1m
14
03
0A
0C
1*
0+
1=
0B
1C
1B
1D
0D
#111818
1!
1;
1<
0,
#113133
0!
0;
0<
1,
1n
13
1A
1+
0=
0C
0B
1D
#114449
1!
1;
1<
0,
#115764
0!
0;
0<
1,
0n
0m
1l
15
04
03
0A
1C
1E
1)
0*
0+
1=
1B
0D
0E
0G
0B
1D
0F
1G
1F
1H
0H
#117080
1!
1;
1<
0,
#118395
0!
0;
0<
1,
1n
13
1A
1+
0=
1B
#119711
1!
1;
1<
0,
#121026
0!
0;
0<
1,
0n
1m
14
03
0A
0C
1*
0+
1=
0B
1C
1E
1B
0D
0E
0G
1D
0F
1G
1F
1H
0H
#122342
1!
1;
1<
0,
#123657
0!
0;
0<
1,
1n
13
1A
1+
0=
0C
0B
1E
0D
0G
0F
1H
#124973
1!
1;
1<
0,
#126288
0!
0;
0<
1,
0n
0m
0l
0k
1j
17
06
05
04
03
0A
1C
0E
1G
1I
1'
0(
0)
0*
0+
1=
1B
1D
1F
0H
0I
0K
0B
0D
0F
1H
0J
1K
1J
1L
0L
#127604
1!
1;
1<
0,
#128919
0!
0;
0<
1,
1n
13
1A
1+
0=
1B
#130235
1!
1;
1<
0,
#131550
0!
0;
0<
1,
0n
1m
14
03
0A
0C
1*
0+
1=
0B
1C
1B
1D
0D
#132866
1!
1;
1<
0,
#134181
0!
0;
0<
1,
1n
13
1A
1+
0=
0C
0B
1D
#135497
1!
1;
1<
0,
#136812
0!
0;
0<
1,
0n
0m
1l
15
04
03
0A
1C
1E
1)
0*
0+
1=
1B
0D
0E
0B
1D
1F
0F
#138128
1!
1;
1<
0,
#139443
0!
0;
0<
1,
1n
13
1A
1+
0=
1B
#140759
1!
1;
1<
0,
#142074
0!
0;
0<
1,
0n
1m
14
03
0A
0C
1*
0+
1=
0B
1C
1E
1B
0D
0E
1D
1F
0F
#143390
1!
1;
1<
0,
#144705
0!
0;
0<
1,
1n
13
1A
1+
0=
0C
0B
1E
0D
1F
#146021
1!
1;
1<
0,
#147336
0!
0;
0<
1,
0n
0m
0l
1k
16
05
04
03
0A
1C
0E
0G
1(
0)
0*
0+
1=
1B
1D
0F
1G
1I
0B
0D
1F
0H
0I
0K
1H
0J
1K
1J
1L
0L
#148652
1!
1;
1<
0,
#149967
0!
0;
0<
1,
1n
13
1A
1+
0=
1B
#151283
1!
1;
1<
0,
#152598
0!
0;
0<
1,
0n
1m
14
03
0A
0C
1*
0+
1=
0B
1C
1B
1D
0D
#153914
1!
1;
1<
0,
#155229
0!
0;
0<
1,
1n
13
1A
1+
0=
0C
0B
1D
#156545
1!
1;
1<
0,
#157860
0!
0;
0<
1,
0n
0m
1l
15
04
03
0A
1C
1E
1)
0*
0+
1=
1B
0D
0E
0G
0B
1D
0F
1G
1I
1F
0H
0I
0K
1H
0J
1K
1J
1L
0L
#159176
1!
1;
1<
0,
#160491
0!
0;
0<
1,
1n
13
1A
1+
0=
1B
#161807
1!
1;
1<
0,
#163122
0!
0;
0<
1,
0n
1m
14
03
0A
0C
1*
0+
1=
0B
1C
1E
1B
0D
0E
0G
1D
0F
1G
1I
1F
0H
0I
0K
1H
0J
1K
1J
1L
0L
#164438
1!
1;
1<
0,
#165753
0!
0;
0<
1,
1n
13
1A
1+
0=
0C
0B
1E
0D
0G
0F
1I
0H
0K
0J
1L
#167069
1!
1;
1<
0,
#168384
0!
0;
0<
1,
0n
0m
0l
0k
0j
0i
1h
19
08
07
06
05
04
03
0A
1C
0E
1G
0I
1K
1M
1%
0&
0'
0(
0)
0*
0+
1=
1B
1D
1F
1H
1J
0L
0M
0B
0D
0F
0H
0J
1L
1N
0N
#169700
1!
1;
1<
0,
#171015
0!
0;
0<
1,
1n
13
1A
1+
0=
1B
#172331
1!
1;
1<
0,
#173646
0!
0;
0<
1,
0n
1m
14
03
0A
0C
1*
0+
1=
0B
1C
1B
1D
0D
#174962
1!
1;
1<
0,
#176277
0!
0;
0<
1,
1n
13
1A
1+
0=
0C
0B
1D
#177593
1!
1;
1<
0,
#178908
0!
0;
0<
1,
0n
0m
1l
15
04
03
0A
1C
1E
1)
0*
0+
1=
1B
0D
0E
0B
1D
1F
0F
#180224
1!
1;
1<
0,
#181539
0!
0;
0<
1,
1n
13
1A
1+
0=
1B
#182855
1!
1;
1<
0,
#184170
0!
0;
0<
1,
0n
1m
14
03
0A
0C
1*
0+
1=
0B
1C
1E
1B
0D
0E
1D
1F
0F
#185486
1!
1;
1<
0,
#186801
0!
0;
0<
1,
1n
13
1A
1+
0=
0C
0B
1E
0D
1F
#188117
1!
1;
1<
0,
#189432
0!
0;
0<
1,
0n
0m
0l
1k
16
05
04
03
0A
1C
0E
0G
1(
0)
0*
0+
1=
1B
1D
0F
1G
0B
0D
1F
1H
0H
#190748
1!
1;
1<
0,
#192063
0!
0;
0<
1,
1n
13
1A
1+
0=
1B
#193379
1!
1;
1<
0,
#194694
0!
0;
0<
1,
0n
1m
14
03
0A
0C
1*
0+
1=
0B
1C
1B
1D
0D
#196010
1!
1;
1<
0,
#197325
0!
0;
0<
1,
1n
13
1A
1+
0=
0C
0B
1D
#198641
1!
1;
1<
0,
#199956
0!
0;
0<
1,
0n
0m
1l
15
04
03
0A
1C
1E
1)
0*
0+
1=
1B
0D
0E
0G
0B
1D
0F
1G
1F
1H
0H
#201272
1!
1;
1<
0,
#202587
0!
0;
0<
1,
1n
13
1A
1+
0=
1B
#203903
1!
1;
1<
0,
#205218
0!
0;
0<
1,
0n
1m
14
03
0A
0C
1*
0+
1=
0B
1C
1E
1B
0D
0E
0G
1D
0F
1G
1F
1H
0H
#206534
1!
1;
1<
0,
#207849
0!
0;
0<
1,
1n
13
1A
1+
0=
0C
0B
1E
0D
0G
0F
1H
#209165
1!
1;
1<
0,
#210480
0!
0;
0<
1,
0n
0m
0l
0k
1j
17
06
05
04
03
0A
1C
0E
1G
1I
1'
0(
0)
0*
0+
1=
1B
1D
1F
0H
0I
0B
0D
0F
1H
1J
0J
#211796
1!
1;
1<
0,
#213111
0!
0;
0<
1,
1n
13
1A
1+
0=
1B
#214427
1!
1;
1<
0,
#215742
0!
0;
0<
1,
0n
1m
14
03
0A
0C
1*
0+
1=
0B
1C
1B
1D
0D
#217058
1!
1;
1<
0,
#218373
0!
0;
0<
1,
1n
13
1A
1+
0=
0C
0B
1D
#219689
1!
1;
1<
0,
#221004
0!
0;
0<
1,
0n
0m
1l
15
04
03
0A
1C
1E
1)
0*
0+
1=
1B
0D
0E
0B
1D
1F
0F
#222320
1!
1;
1<
0,
#223635
0!
0;
0<
1,
1n
13
1A
1+
0=
1B
#224951
1!
1;
1<
0,
#226266
0!
0;
0<
1,
0n
1m
14
03
0A
0C
1*
0+
1=
0B
1C
1E
1B
0D
0E
1D
1F
0F
#227582
1!
1;
1<
0,
#228897
0!
0;
0<
1,
1n
13
1A
1+
0=
0C
0B
1E
0D
1F
#230213
1!
1;
1<
0,
#231528
0!
0;
0<
1,
0n
0m
0l
1k
16
05
04
03
0A
1C
0E
0G
1(
0)
0*
0+
1=
1B
1D
0F
1G
1I
0B
0D
1F
0H
0I
1H
1J
0J
#232844
1!
1;
1<
0,
#234159
0!
0;
0<
1,
1n
13
1A
1+
0=
1B
#235475
1!
1;
1<
0,
#236790
0!
0;
0<
1,
0n
1m
14
03
0A
0C
1*
0+
1=
0B
1C
1B
1D
0D
#238106
1!
1;
1<
0,
#239421
0!
0;
0<
1,
1n
13
1A
1+
0=
0C
0B
1D
#240737
1!
1;
1<
0,
#242052
0!
0;
0<
1,
0n
0m
1l
15
04
03
0A
1C
1E
1)
0*
0+
1=
1B
0D
0E
0G
0B
1D
0F
1G
1I
1F
0H
0I
1H
1J
0J
#243368
1!
1;
1<
0,
#244683
0!
0;
0<
1,
1n
13
1A
1+
0=
1B
#245999
1!
1;
1<
0,
#247314
0!
0;
0<
1,
0n
1m
14
03
0A
0C
1*
0+
1=
0B
1C
1E
1B
0D
0E
0G
1D
0F
1G
1I
1F
0H
0I
1H
1J
0J
#248630
1!
1;
1<
0,
#249945
0!
0;
0<
1,
1n
13
1A
1+
0=
0C
0B
1E
0D
0G
0F
1I
0H
1J
#251261
1!
1;
1<
0,
#252576
0!
0;
0<
1,
0n
0m
0l
0k
0j
1i
18
07
06
05
04
03
0A
1C
0E
1G
0I
0K
1&
0'
0(
0)
0*
0+
1=
1B
1D
1F
1H
0J
1K
1M
0B
0D
0F
0H
1J
0L
0M
1L
1N
0N
#253892
1!
1;
1<
0,
#255207
0!
0;
0<
1,
1n
13
1A
1+
0=
1B
#256523
1!
1;
1<
0,
#257838
0!
0;
0<
1,
0n
1m
14
03
0A
0C
1*
0+
1=
0B
1C
1B
1D
0D
#259154
1!
1;
1<
0,
#260469
0!
0;
0<
1,
1n
13
1A
1+
0=
0C
0B
1D
#261785
1!
1;
1<
0,
#263100
0!
0;
0<
1,
0n
0m
1l
15
04
03
0A
1C
1E
1)
0*
0+
1=
1B
0D
0E
0B
1D
1F
0F
#264416
1!
1;
1<
0,
#265731
0!
0;
0<
1,
1n
13
1A
1+
0=
1B
#267047
1!
1;
1<
0,
#268362
0!
0;
0<
1,
0n
1m
14
03
0A
0C
1*
0+
1=
0B
1C
1E
1B
0D
0E
1D
1F
0F
#269678
1!
1;
1<
0,
#270993
0!
0;
0<
1,
1n
13
1A
1+
0=
0C
0B
1E
0D
1F
#272309
1!
1;
1<
0,
#273624
0!
0;
0<
1,
0n
0m
0l
1k
16
05
04
03
0A
1C
0E
0G
1(
0)
0*
0+
1=
1B
1D
0F
1G
0B
0D
1F
1H
0H
#274940
1!
1;
1<
0,
#276255
0!
0;
0<
1,
1n
13
1A
1+
0=
1B
#277571
1!
1;
1<
0,
#278886
0!
0;
0<
1,
0n
1m
14
03
0A
0C
1*
0+
1=
0B
1C
1B
1D
0D
#280202
1!
1;
1<
0,
#281517
0!
0;
0<
1,
1n
13
1A
1+
0=
0C
0B
1D
#282833
1!
1;
1<
0,
#284148
0!
0;
0<
1,
0n
0m
1l
15
04
03
0A
1C
1E
1)
0*
0+
1=
1B
0D
0E
0G
0B
1D
0F
1G
1F
1H
0H
#285464
1!
1;
1<
0,
#286779
0!
0;
0<
1,
1n
13
1A
1+
0=
1B
#288095
1!
1;
1<
0,
#289410
0!
0;
0<
1,
0n
1m
14
03
0A
0C
1*
0+
1=
0B
1C
1E
1B
0D
0E
0G
1D
0F
1G
1F
1H
0H
#290726
1!
1;
1<
0,
#292041
0!
0;
0<
1,
1n
13
1A
1+
0=
0C
0B
1E
0D
0G
0F
1H
#293357
1!
1;
1<
0,
#294672
0!
0;
0<
1,
0n
0m
0l
0k
1j
17
06
05
04
03
0A
1C
0E
1G
1I
1'
0(
0)
0*
0+
1=
1B
1D
1F
0H
0I
0K
0B
0D
0F
1H
0J
1K
1M
1J
0L
0M
1L
1N
0N
#295988
1!
1;
1<
0,
#297303
0!
0;
0<
1,
1n
13
1A
1+
0=
1B
#298619
1!
1;
1<
0,
#299934
0!
0;
0<
1,
0n
1m
14
03
0A
0C
1*
0+
1=
0B
1C
1B
1D
0D
#301250
1!
1;
1<
0,
#302565
0!
0;
0<
1,
1n
13
1A
1+
0=
0C
0B
1D
#303881
1!
1;
1<
0,
#305196
0!
0;
0<
1,
0n
0m
1l
15
04
03
0A
1C
1E
1)
0*
0+
1=
1B
0D
0E
0B
1D
1F
0F
#306512
1!
1;
1<
0,
#307827
0!
0;
0<
1,
1n
13
1A
1+
0=
1B
#309143
1!
1;
1<
0,
#310458
0!
0;
0<
1,
0n
1m
14
03
0A
0C
1*
0+
1=
0B
1C
1E
1B
0D
0E
1D
1F
0F
#311774
1!
1;
1<
0,
#313089
0!
0;
0<
1,
1n
13
1A
1+
0=
0C
0B
1E
0D
1F
#314405
1!
1;
1<
0,
#315720
0!
0;
0<
1,
0n
0m
0l
1k
16
05
04
03
0A
1C
0E
0G
1(
0)
0*
0+
1=
1B
1D
0F
1G
1I
0B
0D
1F
0H
0I
0K
1H
0J
1K
1M
1J
0L
0M
1L
1N
0N
#317036
1!
1;
1<
0,
#318351
0!
0;
0<
1,
1n
13
1A
1+
0=
1B
#319667
1!
1;
1<
0,
#320982
0!
0;
0<
1,
0n
1m
14
03
0A
0C
1*
0+
1=
0B
1C
1B
1D
0D
#322298
1!
1;
1<
0,
#323613
0!
0;
0<
1,
1n
13
1A
1+
0=
0C
0B
1D
#324929
1!
1;
1<
0,
#326244
0!
0;
0<
1,
0n
0m
1l
15
04
03
0A
1C
1E
1)
0*
0+
1=
1B
0D
0E
0G
0B
1D
0F
1G
1I
1F
0H
0I
0K
1H
0J
1K
1M
1J
0L
0M
1L
1N
0N
#327560
1!
1;
1<
0,
#328875
0!
0;
0<
1,
1n
13
1A
1+
0=
1B
#330191
1!
1;
1<
0,
#331506
0!
0;
0<
1,
0n
1m
14
03
0A
0C
1*
0+
1=
0B
1C
1E
1B
0D
0E
0G
1D
0F
1G
1I
1F
0H
0I
0K
1H
0J
1K
1M
1J
0L
0M
1L
1N
0N
#332822
1!
1;
1<
0,
#334137
0!
0;
0<
1,
1n
13
1A
1+
0=
0C
0B
1E
0D
0G
0F
1I
0H
0K
0J
1M
0L
1N
#335453
1!
1;
1<
0,
#336768
0!
0;
0<
1,
0n
0m
0l
0k
0j
0i
0h
1g
1:
09
08
07
06
05
04
03
0A
1C
0E
1G
0I
1K
0M
1$
0%
0&
0'
0(
0)
0*
0+
1=
1B
1D
1F
1H
1J
1L
0N
0B
0D
0F
0H
0J
0L
1N
#338084
1!
1;
1<
0,
#339399
0!
0;
0<
1,
1n
13
1A
1+
0=
1B
#340715
1!
1;
1<
0,
#342030
0!
0;
0<
1,
0n
1m
14
03
0A
0C
1*
0+
1=
0B
1C
1B
1D
0D
#343346
1!
1;
1<
0,
#344661
0!
0;
0<
1,
1n
13
1A
1+
0=
0C
0B
1D
#345977
1!
1;
1<
0,
#347292
0!
0;
0<
1,
0n
0m
1l
15
04
03
0A
1C
1E
1)
0*
0+
1=
1B
0D
0E
0B
1D
1F
0F
#348608
1!
1;
1<
0,
#349923
0!
0;
0<
1,
1n
13
1A
1+
0=
1B
#351239
1!
1;
1<
0,
#352554
0!
0;
0<
1,
0n
1m
14
03
0A
0C
1*
0+
1=
0B
1C
1E
1B
0D
0E
1D
1F
0F
#353870
1!
1;
1<
0,
#355185
0!
0;
0<
1,
1n
13
1A
1+
0=
0C
0B
1E
0D
1F
#356501
1!
1;
1<
0,
#357816
0!
0;
0<
1,
0n
0m
0l
1k
16
05
04
03
0A
1C
0E
0G
1(
0)
0*
0+
1=
1B
1D
0F
1G
0B
0D
1F
1H
0H
#359132
1!
1;
1<
0,
#360447
0!
0;
0<
1,
1n
13
1A
1+
0=
1B
#361763
1!
1;
1<
0,
#363078
0!
0;
0<
1,
0n
1m
14
03
0A
0C
1*
0+
1=
0B
1C
1B
1D
0D
#364394
1!
1;
1<
0,
#365709
0!
0;
0<
1,
1n
13
1A
1+
0=
0C
0B
1D
#367025
1!
1;
1<
0,
#368340
0!
0;
0<
1,
0n
0m
1l
15
04
03
0A
1C
1E
1)
0*
0+
1=
1B
0D
0E
0G
0B
1D
0F
1G
1F
1H
0H
#369656
1!
1;
1<
0,
#370971
0!
0;
0<
1,
1n
13
1A
1+
0=
1B
#372287
1!
1;
1<
0,
#373602
0!
0;
0<
1,
0n
1m
14
03
0A
0C
1*
0+
1=
0B
1C
1E
1B
0D
0E
0G
1D
0F
1G
1F
1H
0H
#374918
1!
1;
1<
0,
#376233
0!
0;
0<
1,
1n
13
1A
1+
0=
0C
0B
1E
0D
0G
0F
1H
#377549
1!
1;
1<
0,
#378864
0!
0;
0<
1,
0n
0m
0l
0k
1j
17
06
05
04
03
0A
1C
0E
1G
1I
1'
0(
0)
0*
0+
1=
1B
1D
1F
0H
0I
0B
0D
0F
1H
1J
0J
#380180
1!
1;
1<
0,
#381495
0!
0;
0<
1,
1n
13
1A
1+
0=
1B
#382811
1!
1;
1<
0,
#384126
0!
0;
0<
1,
0n
1m
14
03
0A
0C
1*
0+
1=
0B
1C
1B
1D
0D
#385442
1!
1;
1<
0,
#386757
0!
0;
0<
1,
1n
13
1A
1+
0=
0C
0B
1D
#388073
1!
1;
1<
0,
#389388
0!
0;
0<
1,
0n
0m
1l
15
04
03
0A
1C
1E
1)
0*
0+
1=
1B
0D
0E
0B
1D
1F
0F
#390704
1!
1;
1<
0,
#392019
0!
0;
0<
1,
1n
13
1A
1+
0=
1B
#393335
1!
1;
1<
0,
#394650
0!
0;
0<
1,
0n
1m
14
03
0A
0C
1*
0+
1=
0B
1C
1E
1B
0D
0E
1D
1F
0F
#395966
1!
1;
1<
0,
#397281
0!
0;
0<
1,
1n
13
1A
1+
0=
0C
0B
1E
0D
1F
#398597
1!
1;
1<
0,
#399912
0!
0;
0<
1,
0n
0m
0l
1k
16
05
04
03
0A
1C
0E
0G
1(
0)
0*
0+
1=
1B
1D
0F
1G
1I
0B
0D
1F
0H
0I
1H
1J
0J
#401228
1!
1;
1<
0,
#402543
0!
0;
0<
1,
1n
13
1A
1+
0=
1B
#403859
1!
1;
1<
0,
#405174
0!
0;
0<
1,
0n
1m
14
03
0A
0C
1*
0+
1=
0B
1C
1B
1D
0D
#406490
1!
1;
1<
0,
#407805
0!
0;
0<
1,
1n
13
1A
1+
0=
0C
0B
1D
#409121
1!
1;
1<
0,
#410436
0!
0;
0<
1,
0n
0m
1l
15
04
03
0A
1C
1E
1)
0*
0+
1=
1B
0D
0E
0G
0B
1D
0F
1G
1I
1F
0H
0I
1H
1J
0J
#411752
1!
1;
1<
0,
#413067
0!
0;
0<
1,
1n
13
1A
1+
0=
1B
#414383
1!
1;
1<
0,
#415698
0!
0;
0<
1,
0n
1m
14
03
0A
0C
1*
0+
1=
0B
1C
1E
1B
0D
0E
0G
1D
0F
1G
1I
1F
0H
0I
1H
1J
0J
#417014
1!
1;
1<
0,
#418329
0!
0;
0<
1,
1n
13
1A
1+
0=
0C
0B
1E
0D
0G
0F
1I
0H
1J
#419645
1!
1;
1<
0,
#420960
0!
0;
0<
1,
0n
0m
0l
0k
0j
1i
18
07
06
05
04
03
0A
1C
0E
1G
0I
0K
1&
0'
0(
0)
0*
0+
1=
1B
1D
1F
1H
0J
1K
0B
0D
0F
0H
1J
1L
0L
#422276
1!
1;
1<
0,
#423591
0!
0;
0<
1,
1n
13
1A
1+
0=
1B
#424907
1!
1;
1<
0,
#426222
0!
0;
0<
1,
0n
1m
14
03
0A
0C
1*
0+
1=
0B
1C
1B
1D
0D
#427538
1!
1;
1<
0,
#428853
0!
0;
0<
1,
1n
13
1A
1+
0=
0C
0B
1D
#430169
1!
1;
1<
0,
#431484
0!
0;
0<
1,
0n
0m
1l
15
04
03
0A
1C
1E
1)
0*
0+
1=
1B
0D
0E
0B
1D
1F
0F
#432800
1!
1;
1<
0,
#434115
0!
0;
0<
1,
1n
13
1A
1+
0=
1B
#435431
1!
1;
1<
0,
#436746
0!
0;
0<
1,
0n
1m
14
03
0A
0C
1*
0+
1=
0B
1C
1E
1B
0D
0E
1D
1F
0F
#438062
1!
1;
1<
0,
#439377
0!
0;
0<
1,
1n
13
1A
1+
0=
0C
0B
1E
0D
1F
#440693
1!
1;
1<
0,
#442008
0!
0;
0<
1,
0n
0m
0l
1k
16
05
04
03
0A
1C
0E
0G
1(
0)
0*
0+
1=
1B
1D
0F
1G
0B
0D
1F
1H
0H
#443324
1!
1;
1<
0,
#444639
0!
0;
0<
1,
1n
13
1A
1+
0=
1B
#445955
1!
1;
1<
0,
#447270
0!
0;
0<
1,
0n
1m
14
03
0A
0C
1*
0+
1=
0B
1C
1B
1D
0D
#448586
1!
1;
1<
0,
#449901
0!
0;
0<
1,
1n
13
1A
1+
0=
0C
0B
1D
#451217
1!
1;
1<
0,
