chenillard_pwm/simulation/qsim/chenillard_pwm.msim.vcd
$comment
	File created using the following command:
		vcd file chenillard_pwm.msim.vcd -direction
$end
$date
	Sun Dec 13 12:46:04 2015
$end
$version
	ModelSim Version 10.3d
$end
$timescale
	1ps
$end

$scope module chenillard_pwm_vlg_vec_tst $end
$var reg 1 ! clk $end
$var reg 8 " delay [7:0] $end
$var reg 1 # enable_pwm $end
$var reg 1 $ reset_pwm $end
$var wire 1 % difference_t [9] $end
$var wire 1 & difference_t [8] $end
$var wire 1 ' difference_t [7] $end
$var wire 1 ( difference_t [6] $end
$var wire 1 ) difference_t [5] $end
$var wire 1 * difference_t [4] $end
$var wire 1 + difference_t [3] $end
$var wire 1 , difference_t [2] $end
$var wire 1 - difference_t [1] $end
$var wire 1 . difference_t [0] $end
$var wire 1 / i_t [9] $end
$var wire 1 0 i_t [8] $end
$var wire 1 1 i_t [7] $end
$var wire 1 2 i_t [6] $end
$var wire 1 3 i_t [5] $end
$var wire 1 4 i_t [4] $end
$var wire 1 5 i_t [3] $end
$var wire 1 6 i_t [2] $end
$var wire 1 7 i_t [1] $end
$var wire 1 8 i_t [0] $end
$var wire 1 9 leds_output [9] $end
$var wire 1 : leds_output [8] $end
$var wire 1 ; leds_output [7] $end
$var wire 1 < leds_output [6] $end
$var wire 1 = leds_output [5] $end
$var wire 1 > leds_output [4] $end
$var wire 1 ? leds_output [3] $end
$var wire 1 @ leds_output [2] $end
$var wire 1 A leds_output [1] $end
$var wire 1 B leds_output [0] $end
$var wire 1 C pwm_test $end
$var wire 1 D sampler $end

$scope module i1 $end
$var wire 1 E gnd $end
$var wire 1 F vcc $end
$var wire 1 G unknown $end
$var tri1 1 H devclrn $end
$var tri1 1 I devpor $end
$var tri1 1 J devoe $end
$var wire 1 K ~QUARTUS_CREATED_GND~I_combout $end
$var wire 1 L clk~input_o $end
$var wire 1 M clk~inputCLKENA0_outclk $end
$var wire 1 N pwms:0:pwm|count[0]~1_combout $end
$var wire 1 O pwms:0:pwm|count[0]~DUPLICATE_q $end
$var wire 1 P Add2~101_sumout $end
$var wire 1 Q delay[2]~input_o $end
$var wire 1 R delay[3]~input_o $end
$var wire 1 S Add5~9_sumout $end
$var wire 1 T delay[7]~input_o $end
$var wire 1 U delay[6]~input_o $end
$var wire 1 V Add5~18 $end
$var wire 1 W Add5~13_sumout $end
$var wire 1 X Add5~14 $end
$var wire 1 Y Add5~25_sumout $end
$var wire 1 Z Add5~26 $end
$var wire 1 [ Add5~21_sumout $end
$var wire 1 \ Add5~22 $end
$var wire 1 ] Add5~33_sumout $end
$var wire 1 ^ Add5~34 $end
$var wire 1 _ Add5~29_sumout $end
$var wire 1 ` LessThan1~7_combout $end
$var wire 1 a Add5~30 $end
$var wire 1 b Add5~105_sumout $end
$var wire 1 c Add5~106 $end
$var wire 1 d Add5~101_sumout $end
$var wire 1 e Add5~102 $end
$var wire 1 f Add5~97_sumout $end
$var wire 1 g Add5~98 $end
$var wire 1 h Add5~93_sumout $end
$var wire 1 i Add5~94 $end
$var wire 1 j Add5~61_sumout $end
$var wire 1 k Add5~62 $end
$var wire 1 l Add5~57_sumout $end
$var wire 1 m Add5~58 $end
$var wire 1 n Add5~53_sumout $end
$var wire 1 o Add5~54 $end
$var wire 1 p Add5~49_sumout $end
$var wire 1 q Add5~50 $end
$var wire 1 r Add5~45_sumout $end
$var wire 1 s Add5~46 $end
$var wire 1 t Add5~85_sumout $end
$var wire 1 u Add5~86 $end
$var wire 1 v Add5~81_sumout $end
$var wire 1 w Add5~82 $end
$var wire 1 x Add5~77_sumout $end
$var wire 1 y Add5~78 $end
$var wire 1 z Add5~73_sumout $end
$var wire 1 { Add5~74 $end
$var wire 1 | Add5~89_sumout $end
$var wire 1 } Add5~90 $end
$var wire 1 ~ Add5~69_sumout $end
$var wire 1 !! Add5~70 $end
$var wire 1 "! Add5~65_sumout $end
$var wire 1 #! Add5~66 $end
$var wire 1 $! Add5~41_sumout $end
$var wire 1 %! Add5~42 $end
$var wire 1 &! Add5~125_sumout $end
$var wire 1 '! Add5~126 $end
$var wire 1 (! Add5~121_sumout $end
$var wire 1 )! Add5~122 $end
$var wire 1 *! Add5~37_sumout $end
$var wire 1 +! Add5~38 $end
$var wire 1 ,! Add5~117_sumout $end
$var wire 1 -! Add5~118 $end
$var wire 1 .! Add5~113_sumout $end
$var wire 1 /! Add5~114 $end
$var wire 1 0! Add5~109_sumout $end
$var wire 1 1! Add5~110 $end
$var wire 1 2! Add5~1_sumout $end
$var wire 1 3! LessThan1~8_combout $end
$var wire 1 4! LessThan1~9_combout $end
$var wire 1 5! LessThan1~11_combout $end
$var wire 1 6! LessThan1~10_combout $end
$var wire 1 7! LessThan1~12_combout $end
$var wire 1 8! LessThan1~13_combout $end
$var wire 1 9! Add5~10 $end
$var wire 1 :! Add5~5_sumout $end
$var wire 1 ;! Add5~6 $end
$var wire 1 <! Add5~17_sumout $end
$var wire 1 =! LessThan1~1_combout $end
$var wire 1 >! delay[5]~input_o $end
$var wire 1 ?! delay[4]~input_o $end
$var wire 1 @! LessThan1~4_combout $end
$var wire 1 A! LessThan1~2_combout $end
$var wire 1 B! LessThan1~3_combout $end
$var wire 1 C! LessThan1~5_combout $end
$var wire 1 D! delay[1]~input_o $end
$var wire 1 E! delay[0]~input_o $end
$var wire 1 F! LessThan1~0_combout $end
$var wire 1 G! LessThan1~6_combout $end
$var wire 1 H! Selector1~0_combout $end
$var wire 1 I! state.wait_state~q $end
$var wire 1 J! Add2~2 $end
$var wire 1 K! Add2~25_sumout $end
$var wire 1 L! Add2~26 $end
$var wire 1 M! Add2~21_sumout $end
$var wire 1 N! Add2~22 $end
$var wire 1 O! Add2~17_sumout $end
$var wire 1 P! Add2~18 $end
$var wire 1 Q! Add2~13_sumout $end
$var wire 1 R! Add2~14 $end
$var wire 1 S! Add2~9_sumout $end
$var wire 1 T! duty_count[9]~DUPLICATE_q $end
$var wire 1 U! Add2~10 $end
$var wire 1 V! Add2~29_sumout $end
$var wire 1 W! LessThan0~0_combout $end
$var wire 1 X! Add2~30 $end
$var wire 1 Y! Add2~53_sumout $end
$var wire 1 Z! Add2~54 $end
$var wire 1 [! Add2~49_sumout $end
$var wire 1 \! Add2~50 $end
$var wire 1 ]! Add2~45_sumout $end
$var wire 1 ^! Add2~46 $end
$var wire 1 _! Add2~41_sumout $end
$var wire 1 `! Add2~42 $end
$var wire 1 a! Add2~37_sumout $end
$var wire 1 b! Add2~38 $end
$var wire 1 c! Add2~33_sumout $end
$var wire 1 d! LessThan0~1_combout $end
$var wire 1 e! Add2~34 $end
$var wire 1 f! Add2~65_sumout $end
$var wire 1 g! Add2~66 $end
$var wire 1 h! Add2~85_sumout $end
$var wire 1 i! Add2~86 $end
$var wire 1 j! Add2~105_sumout $end
$var wire 1 k! Add2~106 $end
$var wire 1 l! Add2~57_sumout $end
$var wire 1 m! Add2~58 $end
$var wire 1 n! Add2~109_sumout $end
$var wire 1 o! Add2~110 $end
$var wire 1 p! Add2~113_sumout $end
$var wire 1 q! Add2~114 $end
$var wire 1 r! Add2~117_sumout $end
$var wire 1 s! Add2~118 $end
$var wire 1 t! Add2~121_sumout $end
$var wire 1 u! Add2~122 $end
$var wire 1 v! Add2~125_sumout $end
$var wire 1 w! Add2~126 $end
$var wire 1 x! Add2~77_sumout $end
$var wire 1 y! Add2~78 $end
$var wire 1 z! Add2~61_sumout $end
$var wire 1 {! Add2~62 $end
$var wire 1 |! Add2~69_sumout $end
$var wire 1 }! Add2~70 $end
$var wire 1 ~! Add2~81_sumout $end
$var wire 1 !" Add2~82 $end
$var wire 1 "" Add2~73_sumout $end
$var wire 1 #" Add2~74 $end
$var wire 1 $" Add2~5_sumout $end
$var wire 1 %" LessThan0~4_combout $end
$var wire 1 &" LessThan0~2_combout $end
$var wire 1 '" duty_count[1]~DUPLICATE_q $end
$var wire 1 (" duty_count[2]~DUPLICATE_q $end
$var wire 1 )" LessThan0~3_combout $end
$var wire 1 *" LessThan0~5_combout $end
$var wire 1 +" Selector0~0_combout $end
$var wire 1 ," Selector0~1_combout $end
$var wire 1 -" state.calculate_duty_state~q $end
$var wire 1 ." Add2~102 $end
$var wire 1 /" Add2~97_sumout $end
$var wire 1 0" Add2~98 $end
$var wire 1 1" Add2~93_sumout $end
$var wire 1 2" Add2~94 $end
$var wire 1 3" Add2~89_sumout $end
$var wire 1 4" Add2~90 $end
$var wire 1 5" Add2~1_sumout $end
$var wire 1 6" LessThan0~6_combout $end
$var wire 1 7" state~5_combout $end
$var wire 1 8" state.go_state~q $end
$var wire 1 9" Add3~1_sumout $end
$var wire 1 :" Add3~2 $end
$var wire 1 ;" Add3~5_sumout $end
$var wire 1 <" Add3~6 $end
$var wire 1 =" Add3~9_sumout $end
$var wire 1 >" Add3~10 $end
$var wire 1 ?" Add3~13_sumout $end
$var wire 1 @" direction~0_combout $end
$var wire 1 A" Add3~14 $end
$var wire 1 B" Add3~17_sumout $end
$var wire 1 C" Add3~18 $end
$var wire 1 D" Add3~21_sumout $end
$var wire 1 E" Add3~22 $end
$var wire 1 F" Add3~25_sumout $end
$var wire 1 G" Add3~26 $end
$var wire 1 H" Add3~29_sumout $end
$var wire 1 I" Add3~30 $end
$var wire 1 J" Add3~33_sumout $end
$var wire 1 K" direction~1_combout $end
$var wire 1 L" direction~2_combout $end
$var wire 1 M" direction~q $end
$var wire 1 N" Add3~34 $end
$var wire 1 O" Add3~37_sumout $end
$var wire 1 P" Add0~6 $end
$var wire 1 Q" Add0~7 $end
$var wire 1 R" Add0~10 $end
$var wire 1 S" Add0~11 $end
$var wire 1 T" Add0~14 $end
$var wire 1 U" Add0~15 $end
$var wire 1 V" Add0~18 $end
$var wire 1 W" Add0~19 $end
$var wire 1 X" Add0~22 $end
$var wire 1 Y" Add0~23 $end
$var wire 1 Z" Add0~26 $end
$var wire 1 [" Add0~27 $end
$var wire 1 \" Add0~30 $end
$var wire 1 ]" Add0~31 $end
$var wire 1 ^" Add0~34 $end
$var wire 1 _" Add0~35 $end
$var wire 1 `" Add0~38 $end
$var wire 1 a" Add0~39 $end
$var wire 1 b" Add0~1_sumout $end
$var wire 1 c" Add0~37_sumout $end
$var wire 1 d" Add0~33_sumout $end
$var wire 1 e" Add0~29_sumout $end
$var wire 1 f" Add0~25_sumout $end
$var wire 1 g" Add0~21_sumout $end
$var wire 1 h" Add0~17_sumout $end
$var wire 1 i" Add0~13_sumout $end
$var wire 1 j" Add0~9_sumout $end
$var wire 1 k" Add0~5_sumout $end
$var wire 1 l" Add1~42_cout $end
$var wire 1 m" Add1~2 $end
$var wire 1 n" Add1~6 $end
$var wire 1 o" Add1~10 $end
$var wire 1 p" Add1~14 $end
$var wire 1 q" Add1~18 $end
$var wire 1 r" Add1~22 $end
$var wire 1 s" Add1~26 $end
$var wire 1 t" Add1~30 $end
$var wire 1 u" Add1~33_sumout $end
$var wire 1 v" Add1~1_sumout $end
$var wire 1 w" Add1~5_sumout $end
$var wire 1 x" Add1~13_sumout $end
$var wire 1 y" Add1~21_sumout $end
$var wire 1 z" Add1~9_sumout $end
$var wire 1 {" Add1~17_sumout $end
$var wire 1 |" Equal0~0_combout $end
$var wire 1 }" Add1~25_sumout $end
$var wire 1 ~" Add1~29_sumout $end
$var wire 1 !# Equal0~1_combout $end
$var wire 1 "# Add1~34 $end
$var wire 1 ## Add1~37_sumout $end
$var wire 1 $# current_duty_value[0][7]~0_combout $end
$var wire 1 %# current_duty_value[0][7]~1_combout $end
$var wire 1 &# current_duty_value[0][7]~q $end
$var wire 1 '# pwms:0:pwm|count[1]~0_combout $end
$var wire 1 (# pwms:0:pwm|count[1]~DUPLICATE_q $end
$var wire 1 )# pwms:0:pwm|pwm_out~1_combout $end
$var wire 1 *# pwms:0:pwm|pwm_out~0_combout $end
$var wire 1 +# pwms:0:pwm|pwm_out~q $end
$var wire 1 ,# current_duty_value[1][7]~2_combout $end
$var wire 1 -# current_duty_value[1][7]~3_combout $end
$var wire 1 .# current_duty_value[1][7]~q $end
$var wire 1 /# pwms:1:pwm|half_duty_new[0]~feeder_combout $end
$var wire 1 0# pwms:1:pwm|half_duty[0]~feeder_combout $end
$var wire 1 1# pwms:1:pwm|pwm_out~0_combout $end
$var wire 1 2# pwms:1:pwm|pwm_out~q $end
$var wire 1 3# current_duty_value[2][7]~4_combout $end
$var wire 1 4# current_duty_value[2][7]~5_combout $end
$var wire 1 5# current_duty_value[2][7]~q $end
$var wire 1 6# pwms:2:pwm|pwm_out~0_combout $end
$var wire 1 7# pwms:2:pwm|pwm_out~q $end
$var wire 1 8# current_duty_value[3][7]~6_combout $end
$var wire 1 9# current_duty_value[3][7]~7_combout $end
$var wire 1 :# current_duty_value[3][7]~q $end
$var wire 1 ;# pwms:3:pwm|pwm_out~0_combout $end
$var wire 1 <# pwms:3:pwm|pwm_out~q $end
$var wire 1 =# current_duty_value[4][7]~8_combout $end
$var wire 1 ># current_duty_value[4][7]~9_combout $end
$var wire 1 ?# current_duty_value[4][7]~q $end
$var wire 1 @# pwms:4:pwm|pwm_out~0_combout $end
$var wire 1 A# pwms:4:pwm|pwm_out~q $end
$var wire 1 B# current_duty_value[5][7]~10_combout $end
$var wire 1 C# current_duty_value[5][7]~11_combout $end
$var wire 1 D# current_duty_value[5][7]~q $end
$var wire 1 E# pwms:5:pwm|half_duty[0]~feeder_combout $end
$var wire 1 F# pwms:5:pwm|pwm_out~0_combout $end
$var wire 1 G# pwms:5:pwm|pwm_out~q $end
$var wire 1 H# current_duty_value[6][7]~12_combout $end
$var wire 1 I# current_duty_value[6][7]~13_combout $end
$var wire 1 J# current_duty_value[6][7]~q $end
$var wire 1 K# pwms:6:pwm|half_duty_new[0]~feeder_combout $end
$var wire 1 L# pwms:6:pwm|pwm_out~0_combout $end
$var wire 1 M# pwms:6:pwm|pwm_out~q $end
$var wire 1 N# current_duty_value[7][7]~14_combout $end
$var wire 1 O# current_duty_value[7][7]~15_combout $end
$var wire 1 P# current_duty_value[7][7]~q $end
$var wire 1 Q# pwms:7:pwm|half_duty[0]~feeder_combout $end
$var wire 1 R# pwms:7:pwm|pwm_out~0_combout $end
$var wire 1 S# pwms:7:pwm|pwm_out~q $end
$var wire 1 T# current_duty_value[8][7]~16_combout $end
$var wire 1 U# current_duty_value[8][7]~17_combout $end
$var wire 1 V# current_duty_value[8][7]~q $end
$var wire 1 W# pwms:8:pwm|pwm_out~0_combout $end
$var wire 1 X# pwms:8:pwm|pwm_out~q $end
$var wire 1 Y# current_duty_value[9][7]~18_combout $end
$var wire 1 Z# current_duty_value[9][7]~19_combout $end
$var wire 1 [# current_duty_value[9][7]~q $end
$var wire 1 \# pwms:9:pwm|half_duty[0]~feeder_combout $end
$var wire 1 ]# pwms:9:pwm|pwm_out~0_combout $end
$var wire 1 ^# pwms:9:pwm|pwm_out~q $end
$var wire 1 _# difference_t[0]~reg0feeder_combout $end
$var wire 1 `# difference_t[0]~reg0_q $end
$var wire 1 a# difference_t[1]~reg0feeder_combout $end
$var wire 1 b# difference_t[1]~reg0_q $end
$var wire 1 c# difference_t[2]~reg0_q $end
$var wire 1 d# difference_t[3]~reg0_q $end
$var wire 1 e# difference_t[4]~reg0feeder_combout $end
$var wire 1 f# difference_t[4]~reg0_q $end
$var wire 1 g# difference_t[5]~reg0_q $end
$var wire 1 h# difference_t[6]~reg0feeder_combout $end
$var wire 1 i# difference_t[6]~reg0_q $end
$var wire 1 j# difference_t[7]~reg0feeder_combout $end
$var wire 1 k# difference_t[7]~reg0_q $end
$var wire 1 l# difference_t[8]~reg0_q $end
$var wire 1 m# difference_t[9]~reg0_q $end
$var wire 1 n# reset_pwm~input_o $end
$var wire 1 o# pwm_t|count[0]~1_combout $end
$var wire 1 p# pwm_t|count[0]~DUPLICATE_q $end
$var wire 1 q# pwm_t|count[1]~0_combout $end
$var wire 1 r# pwm_t|count[1]~DUPLICATE_q $end
$var wire 1 s# enable_pwm~input_o $end
$var wire 1 t# pwm_t|half_duty_new[0]~0_combout $end
$var wire 1 u# pwm_t|half_duty[0]~0_combout $end
$var wire 1 v# pwm_t|pwm_out~0_combout $end
$var wire 1 w# pwm_t|pwm_out~q $end
$var wire 1 x# i_t[0]~reg0_q $end
$var wire 1 y# i_t[1]~reg0_q $end
$var wire 1 z# i_t[2]~reg0_q $end
$var wire 1 {# i_t[3]~reg0feeder_combout $end
$var wire 1 |# i_t[3]~reg0_q $end
$var wire 1 }# i_t[4]~reg0_q $end
$var wire 1 ~# i_t[5]~reg0feeder_combout $end
$var wire 1 !$ i_t[5]~reg0_q $end
$var wire 1 "$ i_t[6]~reg0_q $end
$var wire 1 #$ i_t[7]~reg0_q $end
$var wire 1 $$ i_t[8]~reg0_q $end
$var wire 1 %$ i_t[9]~reg0_q $end
$var wire 1 &$ delay_count [31] $end
$var wire 1 '$ delay_count [30] $end
$var wire 1 ($ delay_count [29] $end
$var wire 1 )$ delay_count [28] $end
$var wire 1 *$ delay_count [27] $end
$var wire 1 +$ delay_count [26] $end
$var wire 1 ,$ delay_count [25] $end
$var wire 1 -$ delay_count [24] $end
$var wire 1 .$ delay_count [23] $end
$var wire 1 /$ delay_count [22] $end
$var wire 1 0$ delay_count [21] $end
$var wire 1 1$ delay_count [20] $end
$var wire 1 2$ delay_count [19] $end
$var wire 1 3$ delay_count [18] $end
$var wire 1 4$ delay_count [17] $end
$var wire 1 5$ delay_count [16] $end
$var wire 1 6$ delay_count [15] $end
$var wire 1 7$ delay_count [14] $end
$var wire 1 8$ delay_count [13] $end
$var wire 1 9$ delay_count [12] $end
$var wire 1 :$ delay_count [11] $end
$var wire 1 ;$ delay_count [10] $end
$var wire 1 <$ delay_count [9] $end
$var wire 1 =$ delay_count [8] $end
$var wire 1 >$ delay_count [7] $end
$var wire 1 ?$ delay_count [6] $end
$var wire 1 @$ delay_count [5] $end
$var wire 1 A$ delay_count [4] $end
$var wire 1 B$ delay_count [3] $end
$var wire 1 C$ delay_count [2] $end
$var wire 1 D$ delay_count [1] $end
$var wire 1 E$ delay_count [0] $end
$var wire 1 F$ pwms:1:pwm|half_duty [1] $end
$var wire 1 G$ pwms:1:pwm|half_duty [0] $end
$var wire 1 H$ pwms:0:pwm|half_duty [1] $end
$var wire 1 I$ pwms:0:pwm|half_duty [0] $end
$var wire 1 J$ duty_count [31] $end
$var wire 1 K$ duty_count [30] $end
$var wire 1 L$ duty_count [29] $end
$var wire 1 M$ duty_count [28] $end
$var wire 1 N$ duty_count [27] $end
$var wire 1 O$ duty_count [26] $end
$var wire 1 P$ duty_count [25] $end
$var wire 1 Q$ duty_count [24] $end
$var wire 1 R$ duty_count [23] $end
$var wire 1 S$ duty_count [22] $end
$var wire 1 T$ duty_count [21] $end
$var wire 1 U$ duty_count [20] $end
$var wire 1 V$ duty_count [19] $end
$var wire 1 W$ duty_count [18] $end
$var wire 1 X$ duty_count [17] $end
$var wire 1 Y$ duty_count [16] $end
$var wire 1 Z$ duty_count [15] $end
$var wire 1 [$ duty_count [14] $end
$var wire 1 \$ duty_count [13] $end
$var wire 1 ]$ duty_count [12] $end
$var wire 1 ^$ duty_count [11] $end
$var wire 1 _$ duty_count [10] $end
$var wire 1 `$ duty_count [9] $end
$var wire 1 a$ duty_count [8] $end
$var wire 1 b$ duty_count [7] $end
$var wire 1 c$ duty_count [6] $end
$var wire 1 d$ duty_count [5] $end
$var wire 1 e$ duty_count [4] $end
$var wire 1 f$ duty_count [3] $end
$var wire 1 g$ duty_count [2] $end
$var wire 1 h$ duty_count [1] $end
$var wire 1 i$ duty_count [0] $end
$var wire 1 j$ pwms:0:pwm|count [1] $end
$var wire 1 k$ pwms:0:pwm|count [0] $end
$var wire 1 l$ pwms:2:pwm|half_duty [1] $end
$var wire 1 m$ pwms:2:pwm|half_duty [0] $end
$var wire 1 n$ pwms:3:pwm|half_duty [1] $end
$var wire 1 o$ pwms:3:pwm|half_duty [0] $end
$var wire 1 p$ pwms:4:pwm|half_duty [1] $end
$var wire 1 q$ pwms:4:pwm|half_duty [0] $end
$var wire 1 r$ pwms:5:pwm|half_duty [1] $end
$var wire 1 s$ pwms:5:pwm|half_duty [0] $end
$var wire 1 t$ pwms:6:pwm|half_duty [1] $end
$var wire 1 u$ pwms:6:pwm|half_duty [0] $end
$var wire 1 v$ pwms:7:pwm|half_duty [1] $end
$var wire 1 w$ pwms:7:pwm|half_duty [0] $end
$var wire 1 x$ pwms:8:pwm|half_duty [1] $end
$var wire 1 y$ pwms:8:pwm|half_duty [0] $end
$var wire 1 z$ pwms:9:pwm|half_duty [1] $end
$var wire 1 {$ pwms:9:pwm|half_duty [0] $end
$var wire 1 |$ difference [9] $end
$var wire 1 }$ difference [8] $end
$var wire 1 ~$ difference [7] $end
$var wire 1 !% difference [6] $end
$var wire 1 "% difference [5] $end
$var wire 1 #% difference [4] $end
$var wire 1 $% difference [3] $end
$var wire 1 %% difference [2] $end
$var wire 1 &% difference [1] $end
$var wire 1 '% difference [0] $end
$var wire 1 (% pwm_t|half_duty [1] $end
$var wire 1 )% pwm_t|half_duty [0] $end
$var wire 1 *% pwm_t|count [1] $end
$var wire 1 +% pwm_t|count [0] $end
$var wire 1 ,% i [9] $end
$var wire 1 -% i [8] $end
$var wire 1 .% i [7] $end
$var wire 1 /% i [6] $end
$var wire 1 0% i [5] $end
$var wire 1 1% i [4] $end
$var wire 1 2% i [3] $end
$var wire 1 3% i [2] $end
$var wire 1 4% i [1] $end
$var wire 1 5% i [0] $end
$var wire 1 6% pwms:0:pwm|half_duty_new [1] $end
$var wire 1 7% pwms:0:pwm|half_duty_new [0] $end
$var wire 1 8% pwms:1:pwm|half_duty_new [1] $end
$var wire 1 9% pwms:1:pwm|half_duty_new [0] $end
$var wire 1 :% pwms:2:pwm|half_duty_new [1] $end
$var wire 1 ;% pwms:2:pwm|half_duty_new [0] $end
$var wire 1 <% pwms:3:pwm|half_duty_new [1] $end
$var wire 1 =% pwms:3:pwm|half_duty_new [0] $end
$var wire 1 >% pwms:4:pwm|half_duty_new [1] $end
$var wire 1 ?% pwms:4:pwm|half_duty_new [0] $end
$var wire 1 @% pwms:5:pwm|half_duty_new [1] $end
$var wire 1 A% pwms:5:pwm|half_duty_new [0] $end
$var wire 1 B% pwms:6:pwm|half_duty_new [1] $end
$var wire 1 C% pwms:6:pwm|half_duty_new [0] $end
$var wire 1 D% pwms:7:pwm|half_duty_new [1] $end
$var wire 1 E% pwms:7:pwm|half_duty_new [0] $end
$var wire 1 F% pwms:8:pwm|half_duty_new [1] $end
$var wire 1 G% pwms:8:pwm|half_duty_new [0] $end
$var wire 1 H% pwms:9:pwm|half_duty_new [1] $end
$var wire 1 I% pwms:9:pwm|half_duty_new [0] $end
$var wire 1 J% pwm_t|half_duty_new [1] $end
$var wire 1 K% pwm_t|half_duty_new [0] $end
$upscope $end
$upscope $end
$enddefinitions $end
#0
$dumpvars
0!
b1010 "
0#
0$
1%"
1&"
0'"
0("
1)"
1*"
1+"
0,"
0-"
0."
0/"
00"
01"
02"
03"
04"
05"
06"
07"
08"
19"
0:"
0;"
0<"
0="
0>"
0?"
0@"
0A"
0B"
0C"
0D"
0E"
0F"
0G"
0H"
0I"
0J"
1K"
0L"
0M"
0N"
0O"
0P"
1Q"
1R"
0S"
1T"
0U"
1V"
0W"
1X"
0Y"
1Z"
0["
1\"
0]"
1^"
0_"
1`"
0a"
0b"
0c"
0d"
0e"
0f"
0g"
0h"
0i"
0j"
0k"
0l"
0m"
0n"
0o"
0p"
0q"
0r"
0s"
0t"
0u"
0v"
0w"
0x"
0y"
0z"
0{"
1|"
0}"
0~"
1!#
0"#
0##
1$#
1%#
0&#
0'#
0(#
0)#
0*#
0+#
0,#
0-#
0.#
0/#
00#
01#
02#
03#
04#
05#
06#
07#
08#
09#
0:#
0;#
0<#
0=#
0>#
0?#
0@#
0A#
0B#
0C#
0D#
0E#
0F#
0G#
0H#
0I#
0J#
0K#
0L#
0M#
0N#
0O#
0P#
0Q#
0R#
0S#
0T#
0U#
0V#
0W#
0X#
0Y#
0Z#
0[#
0\#
0]#
0^#
0_#
0`#
0a#
0b#
0c#
0d#
0e#
0f#
0g#
0h#
0i#
0j#
0k#
0l#
0m#
0n#
1o#
0p#
0q#
0r#
0s#
0t#
0u#
0v#
0w#
0x#
0y#
0z#
0{#
0|#
0}#
0~#
0!$
0"$
0#$
0$$
0%$
0E$
0D$
0C$
0B$
0A$
0@$
0?$
0>$
0=$
0<$
0;$
0:$
09$
08$
07$
06$
05$
04$
03$
02$
01$
00$
0/$
0.$
0-$
0,$
0+$
0*$
0)$
0($
0'$
0&$
0G$
zF$
0I$
zH$
0i$
0h$
0g$
0f$
0e$
0d$
0c$
0b$
0a$
0`$
0_$
0^$
0]$
0\$
0[$
0Z$
0Y$
0X$
0W$
0V$
0U$
0T$
0S$
0R$
0Q$
0P$
0O$
0N$
0M$
0L$
0K$
0J$
0k$
0j$
0m$
zl$
0o$
zn$
0q$
zp$
0s$
zr$
0u$
zt$
0w$
zv$
0y$
zx$
0{$
zz$
0'%
0&%
0%%
0$%
0#%
0"%
0!%
0~$
0}$
0|$
0)%
z(%
0+%
0*%
05%
04%
03%
02%
01%
00%
0/%
0.%
0-%
0,%
07%
z6%
09%
z8%
0;%
z:%
0=%
z<%
0?%
z>%
0A%
z@%
0C%
zB%
0E%
zD%
0G%
zF%
0I%
zH%
0K%
zJ%
0.
0-
0,
0+
0*
0)
0(
0'
0&
0%
08
07
06
05
04
03
02
01
00
0/
0B
0A
0@
0?
0>
0=
0<
0;
0:
09
0C
xD
0E
1F
xG
1H
1I
1J
0K
0L
0M
1N
0O
1P
0Q
1R
1S
0T
0U
0V
0W
0X
0Y
0Z
0[
0\
0]
0^
0_
0`
0a
0b
0c
0d
0e
0f
0g
0h
0i
0j
0k
0l
0m
0n
0o
0p
0q
0r
0s
0t
0u
0v
0w
0x
0y
0z
0{
0|
0}
0~
0!!
0"!
0#!
0$!
0%!
0&!
0'!
0(!
0)!
0*!
0+!
0,!
0-!
0.!
0/!
00!
01!
02!
13!
14!
15!
16!
17!
08!
09!
0:!
0;!
0<!
0=!
0>!
0?!
0@!
1A!
1B!
1C!
1D!
0E!
1F!
1G!
0H!
0I!
0J!
0K!
0L!
0M!
0N!
0O!
0P!
0Q!
0R!
0S!
0T!
0U!
0V!
1W!
0X!
0Y!
0Z!
0[!
0\!
0]!
0^!
0_!
0`!
0a!
0b!
0c!
1d!
0e!
0f!
0g!
0h!
0i!
0j!
0k!
0l!
0m!
0n!
0o!
0p!
0q!
0r!
0s!
0t!
0u!
0v!
0w!
0x!
0y!
0z!
0{!
0|!
0}!
0~!
0!"
0""
0#"
0$"
$end
#2500
1!
1L
0D
1M
1&#
1i$
1O
1k$
1,#
0$#
1k"
0Q"
1."
0P
0N
1'#
0R"
1j"
1/"
1v"
1-#
0T"
1i"
0|"
1w"
0V"
1h"
0-#
1z"
0X"
1g"
1x"
0Z"
1f"
1{"
0\"
1e"
1y"
0^"
1d"
1}"
0`"
1c"
0!#
1~"
1b"
1u"
1l"
0u"
0~"
0}"
0y"
0{"
0x"
0z"
0w"
0v"
1|"
1!#
1v"
0|"
1-#
0-#
#5000
0!
0L
1D
0M
#7500
1!
1L
0D
1M
1'%
1(#
1j$
17%
1h$
0i$
1'"
0O
0k$
13#
0,#
0k"
1Q"
0."
1P
0j"
10"
1N
0/"
1_#
1j"
00"
1m"
1/"
11"
1w"
0v"
01"
#10000
0!
0L
1D
0M
#12500
1!
1L
0D
1M
1&%
0'%
1i$
1O
1k$
1`#
1)#
18#
03#
1k"
0Q"
1."
0P
1.
0N
0'#
0_#
1a#
0j"
10"
0m"
0/"
1v"
11"
#15000
0!
0L
1D
0M
#17500
1!
1L
0D
1M
1'%
1I$
0(#
0j$
1g$
0h$
0i$
1("
0'"
0O
0k$
1b#
0`#
0)#
1=#
08#
0k"
1Q"
0."
1P
1j"
00"
0i"
12"
0.
1-
1N
1/"
01"
1_#
1R"
0j"
02"
13"
1m"
0/"
11"
1z"
0w"
0v"
1i"
03"
1n"
#20000
0!
0L
1D
0M
#22500
1!
1L
0D
1M
1%%
0&%
0'%
1i$
1O
1k$
1`#
1B#
0=#
1k"
0Q"
1."
0P
1.
0N
1'#
0_#
0a#
0R"
1j"
0m"
1/"
1v"
0i"
0n"
#25000
0!
0L
1D
0M
#27500
1!
1L
0D
1M
1'%
1(#
1j$
1h$
0i$
1'"
0O
0k$
1c#
0b#
0`#
1H#
0B#
0k"
1Q"
0."
1P
0j"
10"
0.
0-
1,
1N
0/"
1_#
1j"
00"
12"
1m"
1/"
01"
1w"
0v"
02"
13"
11"
03"
#30000
0!
0L
1D
0M
#32500
1!
1L
0D
1M
1&%
0'%
1i$
1O
1k$
1`#
1)#
1N#
0H#
1k"
0Q"
1."
0P
1.
0N
1*#
0'#
0_#
1a#
0j"
10"
0m"
0/"
1v"
12"
01"
13"
#35000
0!
0L
1D
0M
#37500
1!
1L
0D
1M
1'%
0(#
0j$
1f$
0g$
0h$
0i$
0("
0'"
0O
0k$
1b#
0`#
1+#
0)#
1T#
0N#
0k"
1Q"
0."
1P
1j"
00"
1i"
02"
0h"
14"
03"
1B
0.
1-
1N
1/"
11"
1_#
1R"
0j"
04"
13"
15"
1m"
0/"
01"
1x"
0z"
0w"
0v"
1T"
0i"
05"
1n"
1h"
1o"
#40000
0!
0L
1D
0M
#42500
1!
1L
0D
1M
1$%
0%%
0&%
0'%
1i$
1O
1k$
1`#
1Y#
0T#
1k"
0Q"
0)"
1."
0P
1.
0N
0*#
1'#
0_#
0a#
0R"
1j"
0*"
0m"
1/"
1v"
0T"
1i"
0n"
16"
0+"
0h"
0o"
1,"
17"
