light2/simulation/qsim/light2.msim.vcd
$comment
	File created using the following command:
		vcd file light2.msim.vcd -direction
$end
$date
	Thu Sep 17 16:53:16 2015
$end
$version
	ModelSim Version 10.1d
$end
$timescale
	1ps
$end
$scope module light2_vlg_vec_tst $end
$var reg 1 ! x1 $end
$var reg 1 " x2 $end
$var wire 1 # f $end
$var wire 1 $ sampler $end
$scope module i1 $end
$var wire 1 % gnd $end
$var wire 1 & vcc $end
$var wire 1 ' unknown $end
$var tri1 1 ( devclrn $end
$var tri1 1 ) devpor $end
$var tri1 1 * devoe $end
$var wire 1 + f~output_o $end
$var wire 1 , x1~input_o $end
$var wire 1 - x2~input_o $end
$var wire 1 . f~0_combout $end
$upscope $end
$upscope $end
$enddefinitions $end
#0
$dumpvars
0!
0"
0#
x$
0%
1&
x'
1(
1)
1*
0+
0,
0-
0.
$end
#20000
1"
1-
0$
1.
1+
1#
#40000
1!
0"
1,
0-
1$
#60000
1"
1-
0$
0.
0+
0#
#80000
0!
0"
0,
0-
1$
#100000
1"
1-
0$
1.
1+
1#
#120000
1!
0"
1,
0-
1$
#140000
1"
1-
0$
0.
0+
0#
#160000
0!
0"
0,
0-
1$
#180000
1"
1-
0$
1.
1+
1#
