ex4/simulation/qsim/timer.msim.vcd
$comment
	File created using the following command:
		vcd file timer.msim.vcd -direction
$end
$date
	Tue Dec 08 17:51:36 2015
$end
$version
	ModelSim Version 10.3d
$end
$timescale
	1ps
$end

$scope module timer_vlg_vec_tst $end
$var reg 1 ! en $end
$var reg 9 " fin [8:0] $end
$var reg 1 # hor $end
$var wire 1 $ hordiv $end
$var wire 1 % sampler $end

$scope module i1 $end
$var wire 1 & gnd $end
$var wire 1 ' vcc $end
$var wire 1 ( unknown $end
$var tri1 1 ) devclrn $end
$var tri1 1 * devpor $end
$var tri1 1 + devoe $end
$var wire 1 , hordiv~output_o $end
$var wire 1 - hor~input_o $end
$var wire 1 . en~input_o $end
$var wire 1 / fin[8]~input_o $end
$var wire 1 0 Add0~25_sumout $end
$var wire 1 1 fin[4]~input_o $end
$var wire 1 2 fin[7]~input_o $end
$var wire 1 3 fin[6]~input_o $end
$var wire 1 4 fin[5]~input_o $end
$var wire 1 5 LessThan0~0_combout $end
$var wire 1 6 fin[1]~input_o $end
$var wire 1 7 fin[0]~input_o $end
$var wire 1 8 LessThan0~1_combout $end
$var wire 1 9 fin[3]~input_o $end
$var wire 1 : fin[2]~input_o $end
$var wire 1 ; LessThan0~2_combout $end
$var wire 1 < LessThan0~3_combout $end
$var wire 1 = LessThan0~4_combout $end
$var wire 1 > LessThan0~5_combout $end
$var wire 1 ? LessThan0~6_combout $end
$var wire 1 @ cpt[8]~0_combout $end
$var wire 1 A Add0~26 $end
$var wire 1 B Add0~21_sumout $end
$var wire 1 C Add0~22 $end
$var wire 1 D Add0~33_sumout $end
$var wire 1 E Add0~34 $end
$var wire 1 F Add0~29_sumout $end
$var wire 1 G Add0~30 $end
$var wire 1 H Add0~5_sumout $end
$var wire 1 I Add0~6 $end
$var wire 1 J Add0~17_sumout $end
$var wire 1 K Add0~18 $end
$var wire 1 L Add0~13_sumout $end
$var wire 1 M Add0~14 $end
$var wire 1 N Add0~9_sumout $end
$var wire 1 O Add0~10 $end
$var wire 1 P Add0~1_sumout $end
$var wire 1 Q div~0_combout $end
$var wire 1 R div~q $end
$var wire 1 S cpt [8] $end
$var wire 1 T cpt [7] $end
$var wire 1 U cpt [6] $end
$var wire 1 V cpt [5] $end
$var wire 1 W cpt [4] $end
$var wire 1 X cpt [3] $end
$var wire 1 Y cpt [2] $end
$var wire 1 Z cpt [1] $end
$var wire 1 [ cpt [0] $end
$upscope $end
$upscope $end
$enddefinitions $end
#0
$dumpvars
1!
b101 "
0#
0$
x%
0&
1'
x(
1)
1*
1+
0,
0-
1.
0/
10
01
02
03
04
15
06
17
18
09
1:
0;
1<
1=
0>
1?
0@
0A
0B
0C
0D
0E
0F
0G
0H
0I
0J
0K
0L
0M
0N
0O
0P
0Q
0R
0[
0Z
0Y
0X
0W
0V
0U
0T
0S
$end
#1000
1#
0%
1-
1[
08
1A
00
1B
#2000
0#
1%
0-
#3000
1#
0%
1-
1Z
0[
0A
1C
10
0B
0C
1B
1D
0D
#4000
0#
1%
0-
#5000
1#
0%
1-
1[
1A
00
1C
0B
1D
#6000
0#
1%
0-
#7000
1#
0%
1-
1Y
0Z
0[
18
0A
0C
1E
0<
1;
10
1B
0D
0E
0B
1D
1F
0F
#8000
0#
1%
0-
#9000
1#
0%
1-
1[
08
1A
00
0=
1B
1@
1Q
#10000
0#
1%
0-
#11000
1#
0%
1-
0Y
0[
1R
1,
18
0A
1<
0;
1$
10
0D
0Q
1=
0B
0@
1Q
#12000
0#
1%
0-
#13000
1#
0%
1-
1[
08
1A
00
1B
#14000
0#
1%
0-
#15000
1#
0%
1-
1Z
0[
0A
1C
10
0B
0C
1B
1D
0D
#16000
0#
1%
0-
#17000
1#
0%
1-
1[
1A
00
1C
0B
1D
#18000
0#
1%
0-
#19000
1#
0%
1-
1Y
0Z
0[
18
0A
0C
1E
0<
1;
10
1B
0D
0E
0B
1D
1F
0F
#20000
0#
1%
0-
#21000
1#
0%
1-
1[
08
1A
00
0=
1B
1@
0Q
#22000
0#
1%
0-
#23000
1#
0%
1-
0Y
0[
0R
0,
18
0A
1<
0;
0$
10
0D
1Q
1=
0B
0@
0Q
#24000
0#
1%
0-
#25000
1#
0%
1-
1[
08
1A
00
1B
#26000
0#
1%
0-
#27000
1#
0%
1-
1Z
0[
0A
1C
10
0B
0C
1B
1D
0D
#28000
0#
1%
0-
#29000
1#
0%
1-
1[
1A
00
1C
0B
1D
#30000
0#
1%
0-
#31000
1#
0%
1-
1Y
0Z
0[
18
0A
0C
1E
0<
1;
10
1B
0D
0E
0B
1D
1F
0F
#32000
0#
1%
0-
#33000
1#
0%
1-
1[
08
1A
00
0=
1B
1@
1Q
#34000
0#
1%
0-
#35000
1#
0%
1-
0Y
0[
1R
1,
18
0A
1<
0;
1$
10
0D
0Q
1=
0B
0@
1Q
#36000
0#
1%
0-
#37000
1#
0%
1-
1[
08
1A
00
1B
#38000
0#
1%
0-
#39000
1#
0%
1-
1Z
0[
0A
1C
10
0B
0C
1B
1D
0D
#40000
0#
1%
0-
#41000
1#
0%
1-
1[
1A
00
1C
0B
1D
#42000
0#
1%
0-
#43000
1#
0%
1-
1Y
0Z
0[
18
0A
0C
1E
0<
1;
10
1B
0D
0E
0B
1D
1F
0F
#44000
0#
1%
0-
#45000
1#
0%
1-
1[
08
1A
00
0=
1B
1@
0Q
#46000
0#
1%
0-
#47000
1#
0%
1-
0Y
0[
0R
0,
18
0A
1<
0;
0$
10
0D
1Q
1=
0B
0@
0Q
#48000
0#
1%
0-
#49000
1#
0%
1-
1[
08
1A
00
1B
#50000
0#
1%
0-
#51000
1#
0%
1-
1Z
0[
0A
1C
10
0B
0C
1B
1D
0D
#52000
0#
1%
0-
#53000
1#
0%
1-
1[
1A
00
1C
0B
1D
#54000
0#
1%
0-
#55000
1#
0%
1-
1Y
0Z
0[
18
0A
0C
1E
0<
1;
10
1B
0D
0E
0B
1D
1F
0F
#56000
0#
1%
0-
#57000
1#
0%
1-
1[
08
1A
00
0=
1B
1@
1Q
#58000
0#
1%
0-
#59000
1#
0%
1-
0Y
0[
1R
1,
18
0A
1<
0;
1$
10
0D
0Q
1=
0B
0@
1Q
#60000
0#
1%
0-
#61000
1#
0%
1-
1[
08
1A
00
1B
#62000
0#
1%
0-
#63000
1#
0%
1-
1Z
0[
0A
1C
10
0B
0C
1B
1D
0D
#64000
0#
1%
0-
#65000
1#
0%
1-
1[
1A
00
1C
0B
1D
#66000
0#
1%
0-
#67000
1#
0%
1-
1Y
0Z
0[
18
0A
0C
1E
0<
1;
10
1B
0D
0E
0B
1D
1F
0F
#68000
0#
1%
0-
#69000
1#
0%
1-
1[
08
1A
00
0=
1B
1@
0Q
#70000
0#
1%
0-
#71000
1#
0%
1-
0Y
0[
0R
0,
18
0A
1<
0;
0$
10
0D
1Q
1=
0B
0@
0Q
#72000
0#
1%
0-
#73000
1#
0%
1-
1[
08
1A
00
1B
#74000
0#
1%
0-
#75000
1#
0%
1-
1Z
0[
0A
1C
10
0B
0C
1B
1D
0D
#76000
0#
1%
0-
#77000
1#
0%
1-
1[
1A
00
1C
0B
1D
#78000
0#
1%
0-
#79000
1#
0%
1-
1Y
0Z
0[
18
0A
0C
1E
0<
1;
10
1B
0D
0E
0B
1D
1F
0F
#80000
b1 "
0#
0:
1%
0-
0;
0=
1@
1Q
#81000
1#
0%
1-
0Y
1R
1,
1;
1$
0D
0Q
1=
0@
1Q
#82000
0#
1%
0-
#83000
1#
0%
1-
1[
08
1A
00
0=
1B
1@
0Q
#84000
0#
1%
0-
#85000
1#
0%
1-
0[
0R
0,
18
0A
0$
10
1Q
1=
0B
0@
0Q
#86000
0#
1%
0-
#87000
1#
0%
1-
1[
08
1A
00
0=
1B
1@
1Q
#88000
0#
1%
0-
#89000
1#
0%
1-
0[
1R
1,
18
0A
1$
10
0Q
1=
0B
0@
1Q
#90000
0#
1%
0-
#91000
1#
0%
1-
1[
08
1A
00
0=
1B
1@
0Q
#92000
0#
1%
0-
#93000
1#
0%
1-
0[
0R
0,
18
0A
0$
10
1Q
1=
0B
0@
0Q
#94000
0#
1%
0-
#95000
1#
0%
1-
1[
08
1A
00
0=
1B
1@
1Q
#96000
0#
1%
0-
#97000
1#
0%
1-
0[
1R
1,
18
0A
1$
10
0Q
1=
0B
0@
1Q
#98000
0#
1%
0-
#99000
1#
0%
1-
1[
08
1A
00
0=
1B
1@
0Q
#100000
0#
1%
0-
#101000
1#
0%
1-
0[
0R
0,
18
0A
0$
10
1Q
1=
0B
0@
0Q
#102000
0#
1%
0-
#103000
1#
0%
1-
1[
08
1A
00
0=
1B
1@
1Q
#104000
0#
1%
0-
#105000
1#
0%
1-
0[
1R
1,
18
0A
1$
10
0Q
1=
0B
0@
1Q
#106000
0#
1%
0-
#107000
1#
0%
1-
1[
08
1A
00
0=
1B
1@
0Q
#108000
0#
1%
0-
#109000
1#
0%
1-
0[
0R
0,
18
0A
0$
10
1Q
1=
0B
0@
0Q
#110000
0#
1%
0-
#111000
1#
0%
1-
1[
08
1A
00
0=
1B
1@
1Q
#112000
0#
1%
0-
#113000
1#
0%
1-
0[
1R
1,
18
0A
1$
10
0Q
1=
0B
0@
1Q
#114000
0#
1%
0-
#115000
1#
0%
1-
1[
08
1A
00
0=
1B
1@
0Q
#116000
0#
1%
0-
#117000
1#
0%
1-
0[
0R
0,
18
0A
0$
10
1Q
1=
0B
0@
0Q
#118000
0#
1%
0-
#119000
1#
0%
1-
1[
08
1A
00
0=
1B
1@
1Q
#120000
b11 "
0#
16
1%
0-
18
1=
0@
0Q
#121000
1#
0%
1-
1Z
0[
0A
1C
10
0B
0C
1B
1D
0D
#122000
0#
1%
0-
#123000
1#
0%
1-
1[
08
1A
00
1C
0=
0B
1@
1D
1Q
#124000
0#
1%
0-
#125000
1#
0%
1-
0Z
0[
1R
1,
18
0A
0C
1$
10
1B
0Q
1=
0B
0D
0@
1Q
#126000
0#
1%
0-
#127000
1#
0%
1-
1[
1A
00
1B
#128000
0#
1%
0-
#129000
1#
0%
1-
1Z
0[
0A
1C
10
0B
0C
1B
1D
0D
#130000
0#
1%
0-
#131000
1#
0%
1-
1[
08
1A
00
1C
0=
0B
1@
1D
0Q
#132000
0#
1%
0-
#133000
1#
0%
1-
0Z
0[
0R
0,
18
0A
0C
0$
10
1B
1Q
1=
0B
0D
0@
0Q
#134000
0#
1%
0-
#135000
1#
0%
1-
1[
1A
00
1B
#136000
0#
1%
0-
#137000
1#
0%
1-
1Z
0[
0A
1C
10
0B
0C
1B
1D
0D
#138000
0#
1%
0-
#139000
1#
0%
1-
1[
08
1A
00
1C
0=
0B
1@
1D
1Q
#140000
0#
1%
0-
#141000
1#
0%
1-
0Z
0[
1R
1,
18
0A
0C
1$
10
1B
0Q
1=
0B
0D
0@
1Q
#142000
0#
1%
0-
#143000
1#
0%
1-
1[
1A
00
1B
#144000
0#
1%
0-
#145000
1#
0%
1-
1Z
0[
0A
1C
10
0B
0C
1B
1D
0D
#146000
0#
1%
0-
#147000
1#
0%
1-
1[
08
1A
00
1C
0=
0B
1@
1D
0Q
#148000
0#
1%
0-
#149000
1#
0%
1-
0Z
0[
0R
0,
18
0A
0C
0$
10
1B
1Q
1=
0B
0D
0@
0Q
#150000
0#
1%
0-
#151000
1#
0%
1-
1[
1A
00
1B
#152000
0#
1%
0-
#153000
1#
0%
1-
1Z
0[
0A
1C
10
0B
0C
1B
1D
0D
#154000
0#
1%
0-
#155000
1#
0%
1-
1[
08
1A
00
1C
0=
0B
1@
1D
1Q
#156000
0#
1%
0-
#157000
1#
0%
1-
0Z
0[
1R
1,
18
0A
0C
1$
10
1B
0Q
1=
0B
0D
0@
1Q
#158000
0#
1%
0-
#159000
1#
0%
1-
1[
1A
00
1B
#160000
0#
1%
0-
#161000
1#
0%
1-
1Z
0[
0A
1C
10
0B
0C
1B
1D
0D
#162000
0#
1%
0-
#163000
1#
0%
1-
1[
08
1A
00
1C
0=
0B
1@
1D
0Q
#164000
0#
1%
0-
#165000
1#
0%
1-
0Z
0[
0R
0,
18
0A
0C
0$
10
1B
1Q
1=
0B
0D
0@
0Q
#166000
0#
1%
0-
#167000
1#
0%
1-
1[
1A
00
1B
#168000
0#
1%
0-
#169000
1#
0%
1-
1Z
0[
0A
1C
10
0B
0C
1B
1D
0D
#170000
0#
1%
0-
#171000
1#
0%
1-
1[
08
1A
00
1C
0=
0B
1@
1D
1Q
#172000
0#
1%
0-
#173000
1#
0%
1-
0Z
0[
1R
1,
18
0A
0C
1$
10
1B
0Q
1=
0B
0D
0@
1Q
#174000
0#
1%
0-
#175000
1#
0%
1-
1[
1A
00
1B
#176000
0#
1%
0-
#177000
1#
0%
1-
1Z
0[
0A
1C
10
0B
0C
1B
1D
0D
#178000
0#
1%
0-
#179000
1#
0%
1-
1[
08
1A
00
1C
0=
0B
1@
1D
0Q
#180000
0#
1%
0-
#181000
1#
0%
1-
0Z
0[
0R
0,
18
0A
0C
0$
10
1B
1Q
1=
0B
0D
0@
0Q
#182000
0#
1%
0-
#183000
1#
0%
1-
1[
1A
00
1B
#184000
0#
1%
0-
#185000
1#
0%
1-
1Z
0[
0A
1C
10
0B
0C
1B
1D
0D
#186000
0#
1%
0-
#187000
1#
0%
1-
1[
08
1A
00
1C
0=
0B
1@
1D
1Q
#188000
0#
1%
0-
#189000
1#
0%
1-
0Z
0[
1R
1,
18
0A
0C
1$
10
1B
0Q
1=
0B
0D
0@
1Q
#190000
0#
1%
0-
#191000
1#
0%
1-
1[
1A
00
1B
#192000
0#
1%
0-
#193000
1#
0%
1-
1Z
0[
0A
1C
10
0B
0C
1B
1D
0D
#194000
0#
1%
0-
#195000
1#
0%
1-
1[
08
1A
00
1C
0=
0B
1@
1D
0Q
#196000
0#
1%
0-
#197000
1#
0%
1-
0Z
0[
0R
0,
18
0A
0C
0$
10
1B
1Q
1=
0B
0D
0@
0Q
#198000
0#
1%
0-
#199000
1#
0%
1-
1[
1A
00
1B
#200000
0#
1%
0-
#201000
1#
0%
1-
1Z
0[
0A
1C
10
0B
0C
1B
1D
0D
#202000
0#
1%
0-
#203000
1#
0%
1-
1[
08
1A
00
1C
0=
0B
1@
1D
1Q
#204000
0#
1%
0-
#205000
1#
0%
1-
0Z
0[
1R
1,
18
0A
0C
1$
10
1B
0Q
1=
0B
0D
0@
1Q
#206000
0#
1%
0-
#207000
1#
0%
1-
1[
1A
00
1B
#208000
0#
1%
0-
#209000
1#
0%
1-
1Z
0[
0A
1C
10
0B
0C
1B
1D
0D
#210000
0#
1%
0-
#211000
1#
0%
1-
1[
08
1A
00
1C
0=
0B
1@
1D
0Q
#212000
0#
1%
0-
#213000
1#
0%
1-
0Z
0[
0R
0,
18
0A
0C
0$
10
1B
1Q
1=
0B
0D
0@
0Q
#214000
0#
1%
0-
#215000
1#
0%
1-
1[
1A
00
1B
#216000
0#
1%
0-
#217000
1#
0%
1-
1Z
0[
0A
1C
10
0B
0C
1B
1D
0D
#218000
0#
1%
0-
#219000
1#
0%
1-
1[
08
1A
00
1C
0=
0B
1@
1D
1Q
#220000
b10 "
0#
07
1%
0-
#221000
1#
0%
1-
0Z
0[
1R
1,
18
0A
0C
1$
10
1B
0Q
1=
0B
0D
0@
1Q
#222000
0#
1%
0-
#223000
1#
0%
1-
1[
1A
00
1B
#224000
0#
1%
0-
#225000
1#
0%
1-
1Z
0[
08
0A
1C
10
0B
0C
0=
1B
1D
1@
0D
0Q
#226000
0#
1%
0-
#227000
1#
0%
1-
0Z
0R
0,
18
0$
0B
1Q
1=
0@
0Q
#228000
0#
1%
0-
#229000
1#
0%
1-
1[
1A
00
1B
#230000
0#
1%
0-
#231000
1#
0%
1-
1Z
0[
08
0A
1C
10
0B
0C
0=
1B
1D
1@
0D
1Q
#232000
0#
1%
0-
#233000
1#
0%
1-
0Z
1R
1,
18
1$
0B
0Q
1=
0@
1Q
#234000
0#
1%
0-
#235000
1#
0%
1-
1[
1A
00
1B
#236000
0#
1%
0-
#237000
1#
0%
1-
1Z
0[
08
0A
1C
10
0B
0C
0=
1B
1D
1@
0D
0Q
#238000
0#
1%
0-
#239000
1#
0%
1-
0Z
0R
0,
18
0$
0B
1Q
1=
0@
0Q
#240000
0#
1%
0-
#241000
1#
0%
1-
1[
1A
00
1B
#242000
0#
1%
0-
#243000
1#
0%
1-
1Z
0[
08
0A
1C
10
0B
0C
0=
1B
1D
1@
0D
1Q
#244000
0#
1%
0-
#245000
1#
0%
1-
0Z
1R
1,
18
1$
0B
0Q
1=
0@
1Q
#246000
0#
1%
0-
#247000
1#
0%
1-
1[
1A
00
1B
#248000
0#
1%
0-
#249000
1#
0%
1-
1Z
0[
08
0A
1C
10
0B
0C
0=
1B
1D
1@
0D
0Q
#250000
0#
1%
0-
#251000
1#
0%
1-
0Z
0R
0,
18
0$
0B
1Q
1=
0@
0Q
#252000
0#
1%
0-
#253000
1#
0%
1-
1[
1A
00
1B
#254000
0#
1%
0-
#255000
1#
0%
1-
1Z
0[
08
0A
1C
10
0B
0C
0=
1B
1D
1@
0D
1Q
#256000
0#
1%
0-
#257000
1#
0%
1-
0Z
1R
1,
18
1$
0B
0Q
1=
0@
1Q
#258000
0#
1%
0-
#259000
1#
0%
1-
1[
1A
00
1B
#260000
0#
1%
0-
#261000
1#
0%
1-
1Z
0[
08
0A
1C
10
0B
0C
0=
1B
1D
1@
0D
0Q
#262000
0#
1%
0-
#263000
1#
0%
1-
0Z
0R
0,
18
0$
0B
1Q
1=
0@
0Q
#264000
0#
1%
0-
#265000
1#
0%
1-
1[
1A
00
1B
#266000
0#
1%
0-
#267000
1#
0%
1-
1Z
0[
08
0A
1C
10
0B
0C
0=
1B
1D
1@
0D
1Q
#268000
0#
1%
0-
#269000
1#
0%
1-
0Z
1R
1,
18
1$
0B
0Q
1=
0@
1Q
#270000
b1010 "
0#
19
1%
0-
1<
0;
#271000
1#
0%
1-
1[
1A
00
1B
#272000
0#
1%
0-
#273000
1#
0%
1-
1Z
0[
08
0A
1C
10
0B
0C
1B
1D
0D
#274000
0#
1%
0-
#275000
1#
0%
1-
1[
1A
00
1C
0B
1D
#276000
0#
1%
0-
#277000
1#
0%
1-
1Y
0Z
0[
18
0A
0C
1E
10
1B
0D
0E
0B
1D
1F
0F
#278000
0#
1%
0-
#279000
1#
0%
1-
1[
1A
00
1B
#280000
0#
1%
0-
#281000
1#
0%
1-
1Z
0[
08
0A
1C
10
0B
0C
1E
1B
0D
0E
1D
1F
0F
#282000
0#
1%
0-
#283000
1#
0%
1-
1[
1A
00
1C
0B
1E
0D
1F
#284000
0#
1%
0-
#285000
1#
0%
1-
1X
0Y
0Z
0[
18
0A
0C
0E
0<
1;
1G
10
1B
1D
0F
0G
0B
0D
1F
1H
0H
#286000
0#
1%
0-
#287000
1#
0%
1-
1[
1A
00
1B
#288000
0#
1%
0-
#289000
1#
0%
1-
1Z
0[
08
0A
1C
10
0B
0C
0=
1B
1D
1@
0D
0Q
#290000
0#
1%
0-
#291000
1#
0%
1-
0X
0Z
0R
0,
18
1<
0;
0$
0B
0F
1Q
1=
0@
0Q
#292000
0#
1%
0-
#293000
1#
0%
1-
1[
1A
00
1B
#294000
0#
1%
0-
#295000
1#
0%
1-
1Z
0[
08
0A
1C
10
0B
0C
1B
1D
0D
#296000
0#
1%
0-
#297000
1#
0%
1-
1[
1A
00
1C
0B
1D
#298000
0#
1%
0-
#299000
1#
0%
1-
1Y
0Z
0[
18
0A
0C
1E
10
1B
0D
0E
0B
1D
1F
0F
#300000
0#
1%
0-
#301000
1#
0%
1-
1[
1A
00
1B
#302000
0#
1%
0-
#303000
1#
0%
1-
1Z
0[
08
0A
1C
10
0B
0C
1E
1B
0D
0E
1D
1F
0F
#304000
0#
1%
0-
#305000
1#
0%
1-
1[
1A
00
1C
0B
1E
0D
1F
#306000
0#
1%
0-
#307000
1#
0%
1-
1X
0Y
0Z
0[
18
0A
0C
0E
0<
1;
1G
10
1B
1D
0F
0G
0B
0D
1F
1H
0H
#308000
0#
1%
0-
#309000
1#
0%
1-
1[
1A
00
1B
#310000
0#
1%
0-
#311000
1#
0%
1-
1Z
0[
08
0A
1C
10
0B
0C
0=
1B
1D
1@
0D
1Q
#312000
0#
1%
0-
#313000
1#
0%
1-
0X
0Z
1R
1,
18
1<
0;
1$
0B
0F
0Q
1=
0@
1Q
#314000
0#
1%
0-
#315000
1#
0%
1-
1[
1A
00
1B
#316000
0#
1%
0-
#317000
1#
0%
1-
1Z
0[
08
0A
1C
10
0B
0C
1B
1D
0D
#318000
0#
1%
0-
#319000
1#
0%
1-
1[
1A
00
1C
0B
1D
#320000
0#
1%
0-
#321000
1#
0%
1-
1Y
0Z
0[
18
0A
0C
1E
10
1B
0D
0E
0B
1D
1F
0F
#322000
0#
1%
0-
#323000
1#
0%
1-
1[
1A
00
1B
#324000
0#
1%
0-
#325000
1#
0%
1-
1Z
0[
08
0A
1C
10
0B
0C
1E
1B
0D
0E
1D
1F
0F
#326000
0#
1%
0-
#327000
1#
0%
1-
1[
1A
00
1C
0B
1E
0D
1F
#328000
0#
1%
0-
#329000
1#
0%
1-
1X
0Y
0Z
0[
18
0A
0C
0E
0<
1;
1G
10
1B
1D
0F
0G
0B
0D
1F
1H
0H
#330000
0#
1%
0-
#331000
1#
0%
1-
1[
1A
00
1B
#332000
0#
1%
0-
#333000
1#
0%
1-
1Z
0[
08
0A
1C
10
0B
0C
0=
1B
1D
1@
0D
0Q
#334000
0#
1%
0-
#335000
1#
0%
1-
0X
0Z
0R
0,
18
1<
0;
0$
0B
0F
1Q
1=
0@
0Q
#336000
0#
1%
0-
#337000
1#
0%
1-
1[
1A
00
1B
#338000
0#
1%
0-
#339000
1#
0%
1-
1Z
0[
08
0A
1C
10
0B
0C
1B
1D
0D
#340000
0#
1%
0-
#341000
1#
0%
1-
1[
1A
00
1C
0B
1D
#342000
0#
1%
0-
#343000
1#
0%
1-
1Y
0Z
0[
18
0A
0C
1E
10
1B
0D
0E
0B
1D
1F
0F
#344000
0#
1%
0-
#345000
1#
0%
1-
1[
1A
00
1B
#346000
0#
1%
0-
#347000
1#
0%
1-
1Z
0[
08
0A
1C
10
0B
0C
1E
1B
0D
0E
1D
1F
0F
#348000
0#
1%
0-
#349000
1#
0%
1-
1[
1A
00
1C
0B
1E
0D
1F
#350000
0#
1%
0-
#351000
1#
0%
1-
1X
0Y
0Z
0[
18
0A
0C
0E
0<
1;
1G
10
1B
1D
0F
0G
0B
0D
1F
1H
0H
#352000
0#
1%
0-
#353000
1#
0%
1-
1[
1A
00
1B
#354000
0#
1%
0-
#355000
1#
0%
1-
1Z
0[
08
0A
1C
10
0B
0C
0=
1B
1D
1@
0D
1Q
#356000
0#
1%
0-
#357000
1#
0%
1-
0X
0Z
1R
1,
18
1<
0;
1$
0B
0F
0Q
1=
0@
1Q
#358000
0#
1%
0-
#359000
1#
0%
1-
1[
1A
00
1B
#360000
0#
1%
0-
#361000
1#
0%
1-
1Z
0[
08
0A
1C
10
0B
0C
1B
1D
0D
#362000
0#
1%
0-
#363000
1#
0%
1-
1[
1A
00
1C
0B
1D
#364000
0#
1%
0-
#365000
1#
0%
1-
1Y
0Z
0[
18
0A
0C
1E
10
1B
0D
0E
0B
1D
1F
0F
#366000
0#
1%
0-
#367000
1#
0%
1-
1[
1A
00
1B
#368000
0#
1%
0-
#369000
1#
0%
1-
1Z
0[
08
0A
1C
10
0B
0C
1E
1B
0D
0E
1D
1F
0F
#370000
0#
1%
0-
#371000
1#
0%
1-
1[
1A
00
1C
0B
1E
0D
1F
#372000
0#
1%
0-
#373000
1#
0%
1-
1X
0Y
0Z
0[
18
0A
0C
0E
0<
1;
1G
10
1B
1D
0F
0G
0B
0D
1F
1H
0H
#374000
0#
1%
0-
#375000
1#
0%
1-
1[
1A
00
1B
#376000
0#
1%
0-
#377000
1#
0%
1-
1Z
0[
08
0A
1C
10
0B
0C
0=
1B
1D
1@
0D
0Q
#378000
0#
1%
0-
#379000
1#
0%
1-
0X
0Z
0R
0,
18
1<
0;
0$
0B
0F
1Q
1=
0@
0Q
#380000
0#
1%
0-
#381000
1#
0%
1-
1[
1A
00
1B
#382000
0#
1%
0-
#383000
1#
0%
1-
1Z
0[
08
0A
1C
10
0B
0C
1B
1D
0D
#384000
0#
1%
0-
#385000
1#
0%
1-
1[
1A
00
1C
0B
1D
#386000
0#
1%
0-
#387000
1#
0%
1-
1Y
0Z
0[
18
0A
0C
1E
10
1B
0D
0E
0B
1D
1F
0F
#388000
0#
1%
0-
#389000
1#
0%
1-
1[
1A
00
1B
#390000
0#
1%
0-
#391000
1#
0%
1-
1Z
0[
08
0A
1C
10
0B
0C
1E
1B
0D
0E
1D
1F
0F
#392000
0#
1%
0-
#393000
1#
0%
1-
1[
1A
00
1C
0B
1E
0D
1F
#394000
0#
1%
0-
#395000
1#
0%
1-
1X
0Y
0Z
0[
18
0A
0C
0E
0<
1;
1G
10
1B
1D
0F
0G
0B
0D
1F
1H
0H
#396000
0#
1%
0-
#397000
1#
0%
1-
1[
1A
00
1B
#398000
0#
1%
0-
#399000
1#
0%
1-
1Z
0[
08
0A
1C
10
0B
0C
0=
1B
1D
1@
0D
1Q
#400000
0#
1%
0-
#401000
1#
0%
1-
0X
0Z
1R
1,
18
1<
0;
1$
0B
0F
0Q
1=
0@
1Q
#402000
0#
1%
0-
#403000
1#
0%
1-
1[
1A
00
1B
#404000
0#
1%
0-
#405000
1#
0%
1-
1Z
0[
08
0A
1C
10
0B
0C
1B
1D
0D
#406000
0#
1%
0-
#407000
1#
0%
1-
1[
1A
00
1C
0B
1D
#408000
0#
1%
0-
#409000
1#
0%
1-
1Y
0Z
0[
18
0A
0C
1E
10
1B
0D
0E
0B
1D
1F
0F
#410000
0#
1%
0-
#411000
1#
0%
1-
1[
1A
00
1B
#412000
0#
1%
0-
#413000
1#
0%
1-
1Z
0[
08
0A
1C
10
0B
0C
1E
1B
0D
0E
1D
1F
0F
#414000
0#
1%
0-
#415000
1#
0%
1-
1[
1A
00
1C
0B
1E
0D
1F
#416000
0#
1%
0-
#417000
1#
0%
1-
1X
0Y
0Z
0[
18
0A
0C
0E
0<
1;
1G
10
1B
1D
0F
0G
0B
0D
1F
1H
0H
#418000
0#
1%
0-
#419000
1#
0%
1-
1[
1A
00
1B
#420000
0#
1%
0-
#421000
1#
0%
1-
1Z
0[
08
0A
1C
10
0B
0C
0=
1B
1D
1@
0D
0Q
#422000
0#
1%
0-
#423000
1#
0%
1-
0X
0Z
0R
0,
18
1<
0;
0$
0B
0F
1Q
1=
0@
0Q
#424000
0#
1%
0-
#425000
1#
0%
1-
1[
1A
00
1B
#426000
0#
1%
0-
#427000
1#
0%
1-
1Z
0[
08
0A
1C
10
0B
0C
1B
1D
0D
#428000
0#
1%
0-
#429000
1#
0%
1-
1[
1A
00
1C
0B
1D
#430000
0#
1%
0-
#431000
1#
0%
1-
1Y
0Z
0[
18
0A
0C
1E
10
1B
0D
0E
0B
1D
1F
0F
#432000
0#
1%
0-
#433000
1#
0%
1-
1[
1A
00
1B
#434000
0#
1%
0-
#435000
1#
0%
1-
1Z
0[
08
0A
1C
10
0B
0C
1E
1B
0D
0E
1D
1F
0F
#436000
0#
1%
0-
#437000
1#
0%
1-
1[
1A
00
1C
0B
1E
0D
1F
#438000
0#
1%
0-
#439000
1#
0%
1-
1X
0Y
0Z
0[
18
0A
0C
0E
0<
1;
1G
10
1B
1D
0F
0G
0B
0D
1F
1H
0H
#440000
0#
1%
0-
#441000
1#
0%
1-
1[
1A
00
1B
#442000
0#
1%
0-
#443000
1#
0%
1-
1Z
0[
08
0A
1C
10
0B
0C
0=
1B
1D
1@
0D
1Q
#444000
0#
1%
0-
#445000
1#
0%
1-
0X
0Z
1R
1,
18
1<
0;
1$
0B
0F
0Q
1=
0@
1Q
#446000
0#
1%
0-
#447000
1#
0%
1-
1[
1A
00
1B
#448000
0#
1%
0-
#449000
1#
0%
1-
1Z
0[
08
0A
1C
10
0B
0C
1B
1D
0D
#450000
0#
1%
0-
#451000
1#
0%
1-
1[
1A
00
1C
0B
1D
#452000
0#
1%
0-
#453000
1#
0%
1-
1Y
0Z
0[
18
0A
0C
1E
10
1B
0D
0E
0B
1D
1F
0F
#454000
0#
1%
0-
#455000
1#
0%
1-
1[
1A
00
1B
#456000
0#
1%
0-
#457000
1#
0%
1-
1Z
0[
08
0A
1C
10
0B
0C
1E
1B
0D
0E
1D
1F
0F
#458000
0#
1%
0-
#459000
1#
0%
1-
1[
1A
00
1C
0B
1E
0D
1F
#460000
0#
1%
0-
#461000
1#
0%
1-
1X
0Y
0Z
0[
18
0A
0C
0E
0<
1;
1G
10
1B
1D
0F
0G
0B
0D
1F
1H
0H
#462000
0#
1%
0-
#463000
1#
0%
1-
1[
1A
00
1B
#464000
0#
1%
0-
#465000
1#
0%
1-
1Z
0[
08
0A
1C
10
0B
0C
0=
1B
1D
1@
0D
0Q
#466000
0#
1%
0-
#467000
1#
0%
1-
0X
0Z
0R
0,
18
1<
0;
0$
0B
0F
1Q
1=
0@
0Q
#468000
0#
1%
0-
#469000
1#
0%
1-
1[
1A
00
1B
#470000
0#
1%
0-
#471000
1#
0%
1-
1Z
0[
08
0A
1C
10
0B
0C
1B
1D
0D
#472000
0#
1%
0-
#473000
1#
0%
1-
1[
1A
00
1C
0B
1D
#474000
0#
1%
0-
#475000
1#
0%
1-
1Y
0Z
0[
18
0A
0C
1E
10
1B
0D
0E
0B
1D
1F
0F
#476000
0#
1%
0-
#477000
1#
0%
1-
1[
1A
00
1B
#478000
0#
1%
0-
#479000
1#
0%
1-
1Z
0[
08
0A
1C
10
0B
0C
1E
1B
0D
0E
1D
1F
0F
#480000
0#
1%
0-
