ex4/simulation/qsim/timer.msim.vcd
$comment
	File created using the following command:
		vcd file timer.msim.vcd -direction
$end
$date
	Fri Sep 18 15:45:20 2015
$end
$version
	ModelSim Version 10.1d
$end
$timescale
	1ps
$end
$scope module timer_vlg_vec_tst $end
$var reg 1 ! en $end
$var reg 9 " fin [8:0] $end
$var reg 1 # hor $end
$var wire 1 $ hordiv $end
$var wire 1 % sampler $end
$scope module i1 $end
$var wire 1 & gnd $end
$var wire 1 ' vcc $end
$var wire 1 ( unknown $end
$var tri1 1 ) devclrn $end
$var tri1 1 * devpor $end
$var tri1 1 + devoe $end
$var wire 1 , cpt[0]~9_combout $end
$var wire 1 - cpt[0]~10 $end
$var wire 1 . cpt[1]~11_combout $end
$var wire 1 / cpt[1]~12 $end
$var wire 1 0 cpt[2]~13_combout $end
$var wire 1 1 cpt[2]~14 $end
$var wire 1 2 cpt[3]~15_combout $end
$var wire 1 3 cpt[3]~16 $end
$var wire 1 4 cpt[4]~17_combout $end
$var wire 1 5 cpt[4]~18 $end
$var wire 1 6 cpt[5]~19_combout $end
$var wire 1 7 cpt[5]~20 $end
$var wire 1 8 cpt[6]~21_combout $end
$var wire 1 9 cpt[6]~22 $end
$var wire 1 : cpt[7]~23_combout $end
$var wire 1 ; cpt[7]~24 $end
$var wire 1 < cpt[8]~25_combout $end
$var wire 1 = cpt[8]~27_combout $end
$var wire 1 > hordiv~output_o $end
$var wire 1 ? hor~input_o $end
$var wire 1 @ fin[8]~input_o $end
$var wire 1 A fin[7]~input_o $end
$var wire 1 B fin[6]~input_o $end
$var wire 1 C fin[5]~input_o $end
$var wire 1 D fin[4]~input_o $end
$var wire 1 E fin[3]~input_o $end
$var wire 1 F fin[2]~input_o $end
$var wire 1 G fin[1]~input_o $end
$var wire 1 H fin[0]~input_o $end
$var wire 1 I LessThan0~1_cout $end
$var wire 1 J LessThan0~3_cout $end
$var wire 1 K LessThan0~5_cout $end
$var wire 1 L LessThan0~7_cout $end
$var wire 1 M LessThan0~9_cout $end
$var wire 1 N LessThan0~11_cout $end
$var wire 1 O LessThan0~13_cout $end
$var wire 1 P LessThan0~15_cout $end
$var wire 1 Q LessThan0~16_combout $end
$var wire 1 R en~input_o $end
$var wire 1 S div~0_combout $end
$var wire 1 T div~q $end
$var wire 1 U cpt [8] $end
$var wire 1 V cpt [7] $end
$var wire 1 W cpt [6] $end
$var wire 1 X cpt [5] $end
$var wire 1 Y cpt [4] $end
$var wire 1 Z cpt [3] $end
$var wire 1 [ cpt [2] $end
$var wire 1 \ cpt [1] $end
$var wire 1 ] cpt [0] $end
$upscope $end
$upscope $end
$enddefinitions $end
#0
$dumpvars
1!
b0 "
0#
0$
x%
0&
1'
x(
1)
1*
1+
1,
0-
0.
1/
00
01
02
13
04
05
06
17
08
09
0:
1;
0<
1=
0>
0?
0@
0A
0B
0C
0D
0E
0F
0G
0H
0I
1J
0K
1L
0M
1N
0O
1P
0Q
1R
1S
0T
0]
0\
0[
0Z
0Y
0X
0W
0V
0U
$end
#1000
1#
1?
0%
1T
0S
1>
1$
#2000
0#
0?
1%
#3000
1#
1?
0%
0T
1S
0>
0$
#4000
0#
0?
1%
#5000
1#
1?
0%
1T
0S
1>
1$
#6000
0#
0?
1%
#7000
1#
1?
0%
0T
1S
0>
0$
#8000
0#
0?
1%
#9000
1#
1?
0%
1T
0S
1>
1$
#10000
b1 "
0#
1H
0?
1%
1I
0J
1K
0L
1M
0N
1O
0P
1Q
1S
0=
#11000
1#
1?
0%
1]
0I
1-
0,
1J
1.
0K
1L
0M
1N
0O
1P
0Q
0S
1=
#12000
0#
0?
1%
#13000
1#
1?
0%
0]
0T
1I
0-
1,
1S
0>
0$
0J
0.
1K
0L
1M
0N
1O
0P
1Q
0S
0=
#14000
0#
0?
1%
#15000
1#
1?
0%
1]
0I
1-
0,
1J
1.
0K
1L
0M
1N
0O
1P
0Q
1S
1=
#16000
0#
0?
1%
#17000
1#
1?
0%
0]
1T
1I
0-
1,
0S
1>
1$
0J
0.
1K
0L
1M
0N
1O
0P
1Q
1S
0=
#18000
0#
0?
1%
#19000
1#
1?
0%
1]
0I
1-
0,
1J
1.
0K
1L
0M
1N
0O
1P
0Q
0S
1=
#20000
b11 "
b10 "
0#
0H
1G
0?
1%
0J
1K
0L
1M
0N
1O
0P
1Q
1S
0=
#21000
1#
1?
0%
0]
1\
0-
1,
1J
0/
0.
1/
1.
0K
10
00
1L
0M
1N
0O
1P
0Q
0S
1=
#22000
0#
0?
1%
#23000
1#
1?
0%
0\
0T
0J
0.
1S
0>
0$
1K
0L
1M
0N
1O
0P
1Q
0S
0=
#24000
0#
0?
1%
#25000
1#
1?
0%
1]
1-
0,
1.
#26000
0#
0?
1%
#27000
1#
1?
0%
0]
1\
0-
1,
1J
0/
0.
1/
1.
0K
10
00
1L
0M
1N
0O
1P
0Q
1S
1=
#28000
0#
0?
1%
#29000
1#
1?
0%
0\
1T
0J
0.
0S
1>
1$
1K
0L
1M
0N
1O
0P
1Q
1S
0=
#30000
b11 "
0#
1H
0?
1%
1I
#31000
1#
1?
0%
1]
0I
1-
0,
1.
#32000
0#
0?
1%
#33000
1#
1?
0%
0]
1\
1I
0-
1,
1J
0/
0.
0J
1/
1.
0K
10
1K
00
1L
0L
0M
1M
1N
0N
0O
1O
1P
0P
0Q
1Q
0S
1=
1S
0=
#34000
0#
0?
1%
#35000
1#
1?
0%
1]
0I
1-
0,
1J
0/
0.
0K
10
1L
0M
1N
0O
1P
0Q
0S
1=
#36000
0#
0?
1%
#37000
1#
1?
0%
0]
0\
0T
1I
0-
1,
0J
1/
1.
1S
0>
0$
0.
1K
00
0L
1M
0N
1O
0P
1Q
0S
0=
#38000
0#
0?
1%
#39000
1#
1?
0%
1]
0I
1-
0,
1.
#40000
b111 "
b101 "
b100 "
0#
0H
0G
1F
0?
1%
1J
#41000
1#
1?
0%
0]
1\
0-
1,
0/
0.
1/
1.
10
00
#42000
0#
0?
1%
#43000
1#
1?
0%
1]
1-
0,
0/
0.
10
#44000
0#
0?
1%
#45000
1#
1?
0%
0]
0\
1[
0-
1,
1/
1.
0K
11
00
0.
01
10
1L
12
02
0M
1N
0O
1P
0Q
1S
1=
#46000
0#
0?
1%
#47000
1#
1?
0%
0[
1T
1K
00
0S
1>
1$
0L
1M
0N
1O
0P
1Q
1S
0=
#48000
0#
0?
1%
#49000
1#
1?
0%
1]
1-
0,
1.
#50000
b101 "
0#
1H
0?
1%
#51000
1#
1?
0%
0]
1\
1I
0-
1,
0/
0.
1/
1.
10
00
#52000
0#
0?
1%
#53000
1#
1?
0%
1]
0I
1-
0,
0/
0.
10
#54000
0#
0?
1%
#55000
1#
1?
0%
0]
0\
1[
1I
0-
1,
1/
1.
0K
11
00
0J
0.
01
10
1L
12
1K
02
0M
0L
1N
1M
0O
0N
1P
1O
0Q
0P
0S
1=
1Q
1S
0=
#56000
0#
0?
1%
#57000
1#
1?
0%
1]
0I
1-
0,
1J
1.
0K
1L
0M
1N
0O
1P
0Q
0S
1=
#58000
0#
0?
1%
#59000
1#
1?
0%
0]
0[
0T
1I
0-
1,
1K
00
1S
0>
0$
0J
0.
0L
1M
0N
1O
0P
1Q
0S
0=
#60000
b111 "
b110 "
0#
0H
1G
0?
1%
0I
#61000
1#
1?
0%
1]
1-
0,
1.
#62000
0#
0?
1%
#63000
1#
1?
0%
0]
1\
0-
1,
1J
0/
0.
1/
1.
10
00
#64000
0#
0?
1%
#65000
1#
1?
0%
1]
1-
0,
0/
0.
10
#66000
0#
0?
1%
#67000
1#
1?
0%
0]
0\
1[
0-
1,
0J
1/
1.
0K
11
00
0.
1K
01
10
1L
12
0L
02
0M
1M
1N
0N
0O
1O
1P
0P
0Q
1Q
1S
1=
0S
0=
#68000
0#
0?
1%
#69000
1#
1?
0%
1]
1-
0,
1.
#70000
b111 "
0#
1H
0?
1%
#71000
1#
1?
0%
0]
1\
1I
0-
1,
1J
0/
0.
0J
1/
1.
0K
11
00
1K
01
10
1L
12
0L
02
0M
1M
1N
0N
0O
1O
1P
0P
0Q
1Q
1S
1=
0S
0=
#72000
0#
0?
1%
#73000
1#
1?
0%
1]
0I
1-
0,
1J
0/
0.
0K
11
00
1L
12
0M
1N
0O
1P
0Q
1S
1=
#74000
0#
0?
1%
#75000
1#
1?
0%
0]
0\
0[
1T
1I
0-
1,
0J
1/
1.
1K
01
10
0S
1>
1$
0.
00
0L
02
1M
0N
1O
0P
1Q
1S
0=
#76000
0#
0?
1%
#77000
1#
1?
0%
1]
0I
1-
0,
1.
#78000
0#
0?
1%
#79000
1#
1?
0%
0]
1\
1I
0-
1,
1J
0/
0.
0J
1/
1.
10
00
#80000
b1111 "
b1011 "
b1001 "
b1000 "
0#
0H
0G
0F
1E
0?
1%
0I
1J
0K
#81000
1#
1?
0%
1]
1-
0,
0/
0.
10
#82000
0#
0?
1%
#83000
1#
1?
0%
0]
0\
1[
0-
1,
1/
1.
11
00
0.
01
10
12
02
#84000
0#
0?
1%
#85000
1#
1?
0%
1]
1-
0,
1.
#86000
0#
0?
1%
#87000
1#
1?
0%
0]
1\
0-
1,
0/
0.
1/
1.
11
00
01
10
12
02
#88000
0#
0?
1%
#89000
1#
1?
0%
1]
1-
0,
0/
0.
11
00
12
#90000
b1001 "
0#
1H
0?
1%
#91000
1#
1?
0%
0]
0\
0[
1Z
1I
0-
1,
1/
1.
01
10
1L
03
02
0J
0.
00
13
12
0M
14
1K
04
1N
0L
0O
1M
1P
0N
0Q
1O
0S
1=
0P
1Q
1S
0=
#92000
0#
0?
1%
#93000
1#
1?
0%
1]
0I
1-
0,
1J
1.
0K
1L
0M
1N
0O
1P
0Q
0S
1=
#94000
0#
0?
1%
#95000
1#
1?
0%
0]
0Z
0T
1I
0-
1,
0L
02
1S
0>
0$
0J
0.
1M
1K
0N
1O
0P
1Q
0S
0=
#96000
0#
0?
1%
#97000
1#
1?
0%
1]
0I
1-
0,
1J
1.
0K
#98000
0#
0?
1%
#99000
1#
1?
0%
0]
1\
1I
0-
1,
0/
0.
1/
1.
10
00
#100000
b1011 "
b1010 "
0#
0H
1G
0?
1%
0I
0J
1J
1K
0K
#101000
1#
1?
0%
1]
1-
0,
0/
0.
10
#102000
0#
0?
1%
#103000
1#
1?
0%
0]
0\
1[
0-
1,
0J
1/
1.
11
00
0.
01
10
12
02
#104000
0#
0?
1%
#105000
1#
1?
0%
1]
1-
0,
1.
#106000
0#
0?
1%
#107000
1#
1?
0%
0]
1\
0-
1,
1J
0/
0.
1/
1.
11
00
01
10
12
02
#108000
0#
0?
1%
#109000
1#
1?
0%
1]
1-
0,
0/
0.
11
00
12
#110000
b1011 "
0#
1H
0?
1%
#111000
1#
1?
0%
0]
0\
0[
1Z
1I
0-
1,
0J
1/
1.
01
10
1L
03
02
0.
1K
00
13
12
0M
14
0L
04
1N
1M
0O
0N
1P
1O
0Q
0P
1S
1=
1Q
0S
0=
#112000
0#
0?
1%
#113000
1#
1?
0%
1]
0I
1-
0,
1.
#114000
0#
0?
1%
#115000
1#
1?
0%
0]
1\
1I
0-
1,
1J
0/
0.
0J
1/
1.
0K
10
1K
00
1L
0L
0M
1M
1N
0N
0O
1O
1P
0P
0Q
1Q
1S
1=
0S
0=
#116000
0#
0?
1%
#117000
1#
1?
0%
1]
0I
1-
0,
1J
0/
0.
0K
10
1L
0M
1N
0O
1P
0Q
1S
1=
#118000
0#
0?
1%
#119000
1#
1?
0%
0]
0\
0Z
1T
1I
0-
1,
0J
1/
1.
0L
02
0S
1>
1$
0.
1K
00
1M
0N
1O
0P
1Q
1S
0=
#120000
b1111 "
b1101 "
b1100 "
0#
0H
0G
1F
0?
1%
0I
1J
#121000
1#
1?
0%
1]
1-
0,
1.
#122000
0#
0?
1%
#123000
1#
1?
0%
0]
1\
0-
1,
0/
0.
1/
1.
10
00
#124000
0#
0?
1%
#125000
1#
1?
0%
1]
1-
0,
0/
0.
10
#126000
0#
0?
1%
#127000
1#
1?
0%
0]
0\
1[
0-
1,
1/
1.
0K
11
00
0.
01
10
12
02
#128000
0#
0?
1%
#129000
1#
1?
0%
1]
1-
0,
1.
#130000
b1101 "
0#
1H
0?
1%
#131000
1#
1?
0%
0]
1\
1I
0-
1,
0/
0.
1/
1.
11
00
01
10
12
02
#132000
0#
0?
1%
#133000
1#
1?
0%
1]
0I
1-
0,
0/
0.
11
00
12
#134000
0#
0?
1%
#135000
1#
1?
0%
0]
0\
0[
1Z
1I
0-
1,
1/
1.
1K
01
10
1L
03
02
0J
0.
00
0L
13
12
0M
14
1M
04
1N
0N
0O
1O
1P
0P
0Q
1Q
0S
1=
1S
0=
#136000
0#
0?
1%
#137000
1#
1?
0%
1]
0I
1-
0,
1J
1.
#138000
0#
0?
1%
#139000
1#
1?
0%
0]
1\
1I
0-
1,
0/
0.
1/
1.
10
00
#140000
b1111 "
b1110 "
0#
0H
1G
0?
1%
0I
0J
1J
#141000
1#
1?
0%
1]
1-
0,
0/
0.
10
#142000
0#
0?
1%
#143000
1#
1?
0%
0]
0\
1[
0-
1,
0J
1/
1.
0K
11
00
0.
1K
01
10
1L
03
02
0L
13
12
0M
14
1M
04
1N
0N
0O
1O
1P
0P
0Q
1Q
0S
1=
1S
0=
#144000
0#
0?
1%
#145000
1#
1?
0%
1]
1-
0,
1.
#146000
0#
0?
1%
#147000
1#
1?
0%
0]
1\
0-
1,
1J
0/
0.
1/
1.
0K
11
00
01
10
1L
03
02
13
12
0M
14
04
1N
0O
1P
0Q
0S
1=
#148000
0#
0?
1%
#149000
1#
1?
0%
0\
0[
0Z
0T
0J
0.
1K
00
0L
02
1S
0>
0$
1M
0N
1O
0P
1Q
0S
0=
#150000
b1111 "
0#
1H
0?
1%
1I
#151000
1#
1?
0%
1]
0I
1-
0,
1.
#152000
0#
0?
1%
#153000
1#
1?
0%
0]
1\
1I
0-
1,
1J
0/
0.
0J
1/
1.
10
00
#154000
0#
0?
1%
#155000
1#
1?
0%
1]
0I
1-
0,
1J
0/
0.
10
#156000
0#
0?
1%
#157000
1#
1?
0%
0]
0\
1[
1I
0-
1,
0J
1/
1.
0K
11
00
0.
1K
01
10
12
02
#158000
0#
0?
1%
#159000
1#
1?
0%
1]
0I
1-
0,
1.
#160000
b11111 "
b10111 "
b10011 "
b10001 "
b10000 "
0#
0H
0G
0F
0E
1D
0?
1%
1J
0K
1L
#161000
1#
1?
0%
0]
1\
0-
1,
0/
0.
1/
1.
11
00
01
10
12
02
#162000
0#
0?
1%
#163000
1#
1?
0%
1]
1-
0,
0/
0.
11
00
12
#164000
0#
0?
1%
#165000
1#
1?
0%
0]
0\
0[
1Z
0-
1,
1/
1.
01
10
03
02
0.
00
13
12
14
04
#166000
0#
0?
1%
#167000
1#
1?
0%
1]
1-
0,
1.
#168000
0#
0?
1%
#169000
1#
1?
0%
0]
1\
0-
1,
0/
0.
1/
1.
10
00
#170000
b10001 "
0#
1H
0?
1%
1I
#171000
1#
1?
0%
1]
0I
1-
0,
0/
0.
10
#172000
0#
0?
1%
#173000
1#
1?
0%
0]
0\
1[
1I
0-
1,
1/
1.
11
00
0J
0.
01
10
03
02
13
12
14
04
#174000
0#
0?
1%
#175000
1#
1?
0%
1]
0I
1-
0,
1J
1.
#176000
0#
0?
1%
#177000
1#
1?
0%
0]
1\
1I
0-
1,
0/
0.
1/
1.
11
00
01
10
03
02
13
12
14
04
#178000
0#
0?
1%
#179000
1#
1?
0%
1]
0I
1-
0,
0/
0.
11
00
03
02
14
#180000
b10011 "
b10010 "
0#
0H
1G
0?
1%
#181000
1#
1?
0%
0]
0\
0[
0Z
1Y
0-
1,
0J
1/
1.
01
10
13
12
0M
15
04
0.
1K
00
02
05
14
1N
16
0L
06
0O
1M
1P
0N
0Q
1O
1S
1=
0P
1Q
0S
0=
#182000
0#
0?
1%
#183000
1#
1?
0%
1]
1-
0,
1.
#184000
0#
0?
1%
#185000
1#
1?
0%
0]
1\
0-
1,
1J
0/
0.
1/
1.
0K
10
00
1L
0M
1N
0O
1P
0Q
1S
1=
#186000
0#
0?
1%
#187000
1#
1?
0%
0\
0Y
1T
0J
0.
1M
04
0S
1>
1$
1K
0N
0L
1O
0P
1Q
1S
0=
#188000
0#
0?
1%
#189000
1#
1?
0%
1]
1-
0,
1.
#190000
b10011 "
0#
1H
0?
1%
#191000
1#
1?
0%
0]
1\
1I
0-
1,
1J
0/
0.
0J
1/
1.
0K
10
1K
00
1L
0L
#192000
0#
0?
1%
#193000
1#
1?
0%
1]
0I
1-
0,
1J
0/
0.
0K
10
1L
#194000
0#
0?
1%
#195000
1#
1?
0%
0]
0\
1[
1I
0-
1,
0J
1/
1.
11
00
0.
01
10
12
02
#196000
0#
0?
1%
#197000
1#
1?
0%
1]
0I
1-
0,
1.
#198000
0#
0?
1%
#199000
1#
1?
0%
0]
1\
1I
0-
1,
1J
0/
0.
0J
1/
1.
11
00
01
10
12
02
#200000
b10111 "
b10101 "
b10100 "
0#
0H
0G
1F
0?
1%
0I
1J
1K
0K
0L
1L
#201000
1#
1?
0%
1]
1-
0,
0/
0.
11
00
12
#202000
0#
0?
1%
#203000
1#
1?
0%
0]
0\
0[
1Z
0-
1,
1/
1.
1K
01
10
03
02
0.
00
13
12
14
04
#204000
0#
0?
1%
#205000
1#
1?
0%
1]
1-
0,
1.
#206000
0#
0?
1%
#207000
1#
1?
0%
0]
1\
0-
1,
0/
0.
1/
1.
10
00
#208000
0#
0?
1%
#209000
1#
1?
0%
1]
1-
0,
0/
0.
10
#210000
b10101 "
0#
1H
0?
1%
#211000
1#
1?
0%
0]
0\
1[
1I
0-
1,
1/
1.
0K
11
00
0J
0.
01
10
03
02
1K
13
12
14
04
#212000
0#
0?
1%
#213000
1#
1?
0%
1]
0I
1-
0,
1J
1.
0K
#214000
0#
0?
1%
#215000
1#
1?
0%
0]
1\
1I
0-
1,
0/
0.
1/
1.
11
00
01
10
03
02
13
12
14
04
#216000
0#
0?
1%
#217000
1#
1?
0%
1]
0I
1-
0,
0/
0.
11
00
03
02
14
#218000
0#
0?
1%
#219000
1#
1?
0%
0]
0\
0[
0Z
1Y
1I
0-
1,
1/
1.
1K
01
10
13
12
0M
15
04
0J
0.
00
0L
02
05
14
1N
16
1M
06
0O
0N
1P
1O
0Q
0P
0S
1=
1Q
1S
0=
#220000
b10111 "
b10110 "
0#
0H
1G
0?
1%
0I
#221000
1#
1?
0%
1]
1-
0,
1.
#222000
0#
0?
1%
#223000
1#
1?
0%
0]
1\
0-
1,
1J
0/
0.
1/
1.
10
00
#224000
0#
0?
1%
#225000
1#
1?
0%
1]
1-
0,
0/
0.
10
#226000
0#
0?
1%
#227000
1#
1?
0%
0]
0\
1[
0-
1,
0J
1/
1.
0K
11
00
0.
1K
01
10
1L
12
0L
02
0M
1M
1N
0N
0O
1O
1P
0P
0Q
1Q
0S
1=
1S
0=
#228000
0#
0?
1%
#229000
1#
1?
0%
1]
1-
0,
1.
#230000
b10111 "
0#
1H
0?
1%
#231000
1#
1?
0%
0]
1\
1I
0-
1,
1J
0/
0.
0J
1/
1.
0K
11
00
1K
01
10
1L
12
0L
02
0M
1M
1N
0N
0O
1O
1P
0P
0Q
1Q
0S
1=
1S
0=
#232000
0#
0?
1%
#233000
1#
1?
0%
1]
0I
1-
0,
1J
0/
0.
0K
11
00
1L
12
0M
1N
0O
1P
0Q
0S
1=
#234000
0#
0?
1%
#235000
1#
1?
0%
0]
0\
0[
0Y
0T
1I
0-
1,
0J
1/
1.
1K
01
10
1M
04
1S
0>
0$
0.
00
0L
02
0N
1O
0P
1Q
0S
0=
#236000
0#
0?
1%
#237000
1#
1?
0%
1]
0I
1-
0,
1.
#238000
0#
0?
1%
#239000
1#
1?
0%
0]
1\
1I
0-
1,
1J
0/
0.
0J
1/
1.
10
00
#240000
b11111 "
b11011 "
b11001 "
b11000 "
0#
0H
0G
0F
1E
0?
1%
0I
1J
0K
#241000
1#
1?
0%
1]
1-
0,
0/
0.
10
#242000
0#
0?
1%
#243000
1#
1?
0%
0]
0\
1[
0-
1,
1/
1.
11
00
0.
01
10
12
02
#244000
0#
0?
1%
#245000
1#
1?
0%
1]
1-
0,
1.
#246000
0#
0?
1%
#247000
1#
1?
0%
0]
1\
0-
1,
0/
0.
1/
1.
11
00
01
10
12
02
#248000
0#
0?
1%
#249000
1#
1?
0%
1]
1-
0,
0/
0.
11
00
12
#250000
b11001 "
0#
1H
0?
1%
#251000
1#
1?
0%
0]
0\
0[
1Z
1I
0-
1,
1/
1.
01
10
1L
03
02
0J
0.
00
13
12
14
1K
04
0L
#252000
0#
0?
1%
#253000
1#
1?
0%
1]
0I
1-
0,
1J
1.
0K
1L
#254000
0#
0?
1%
#255000
1#
1?
0%
0]
1\
1I
0-
1,
0/
0.
1/
1.
10
00
#256000
0#
0?
1%
#257000
1#
1?
0%
1]
0I
1-
0,
0/
0.
10
#258000
0#
0?
1%
#259000
1#
1?
0%
0]
0\
1[
1I
0-
1,
1/
1.
11
00
0J
0.
01
10
03
02
13
12
14
04
#260000
b11011 "
b11010 "
0#
0H
1G
0?
1%
0I
#261000
1#
1?
0%
1]
1-
0,
1.
#262000
0#
0?
1%
#263000
1#
1?
0%
0]
1\
0-
1,
1J
0/
0.
1/
1.
11
00
01
10
03
02
13
12
14
04
#264000
0#
0?
1%
#265000
1#
1?
0%
1]
1-
0,
0/
0.
11
00
03
02
14
#266000
0#
0?
1%
#267000
1#
1?
0%
0]
0\
0[
0Z
1Y
0-
1,
0J
1/
1.
01
10
0L
13
12
0M
15
04
0.
1K
00
02
1M
05
14
1N
16
0N
06
0O
1O
1P
0P
0Q
1Q
1S
1=
0S
0=
#268000
0#
0?
1%
#269000
1#
1?
0%
1]
1-
0,
1.
#270000
b11011 "
0#
1H
0?
1%
#271000
1#
1?
0%
0]
1\
1I
0-
1,
1J
0/
0.
0J
1/
1.
0K
10
1K
00
#272000
0#
0?
1%
#273000
1#
1?
0%
1]
0I
1-
0,
1J
0/
0.
0K
10
#274000
0#
0?
1%
#275000
1#
1?
0%
0]
0\
1[
1I
0-
1,
0J
1/
1.
11
00
0.
01
10
12
02
#276000
0#
0?
1%
#277000
1#
1?
0%
1]
0I
1-
0,
1.
#278000
0#
0?
1%
#279000
1#
1?
0%
0]
1\
1I
0-
1,
1J
0/
0.
0J
1/
1.
11
00
01
10
12
02
#280000
b11111 "
b11101 "
b11100 "
0#
0H
0G
1F
0?
1%
0I
1J
1K
0K
#281000
1#
1?
0%
1]
1-
0,
0/
0.
11
00
12
#282000
0#
0?
1%
#283000
1#
1?
0%
0]
0\
0[
1Z
0-
1,
1/
1.
1K
01
10
1L
03
02
0.
00
0L
13
12
0M
15
04
1M
05
14
1N
16
0N
06
0O
1O
1P
0P
0Q
1Q
1S
1=
0S
0=
#284000
0#
0?
1%
#285000
1#
1?
0%
1]
1-
0,
1.
#286000
0#
0?
1%
#287000
1#
1?
0%
0]
1\
0-
1,
0/
0.
1/
1.
10
00
#288000
0#
0?
1%
#289000
1#
1?
0%
1]
1-
0,
0/
0.
10
#290000
b11101 "
0#
1H
0?
1%
#291000
1#
1?
0%
0]
0\
1[
1I
0-
1,
1/
1.
0K
11
00
0J
0.
01
10
1L
03
02
1K
13
12
0M
15
04
0L
05
14
1N
16
1M
06
0O
0N
1P
1O
0Q
0P
1S
1=
1Q
0S
0=
#292000
0#
0?
1%
#293000
1#
1?
0%
1]
0I
1-
0,
1J
1.
0K
1L
0M
1N
0O
1P
0Q
1S
1=
#294000
0#
0?
1%
#295000
1#
1?
0%
0]
0[
0Z
0Y
1T
1I
0-
1,
1K
00
0L
02
1M
04
0S
1>
1$
0J
0.
0N
1O
0P
1Q
1S
0=
#296000
0#
0?
1%
#297000
1#
1?
0%
1]
0I
1-
0,
1J
1.
#298000
0#
0?
1%
#299000
1#
1?
0%
0]
1\
1I
0-
1,
0/
0.
1/
1.
10
00
#300000
b11111 "
b11110 "
0#
0H
1G
0?
1%
0I
0J
1J
#301000
1#
1?
0%
1]
1-
0,
0/
0.
10
#302000
0#
0?
1%
#303000
1#
1?
0%
0]
0\
1[
0-
1,
0J
1/
1.
0K
11
00
0.
1K
01
10
12
02
#304000
0#
0?
1%
#305000
1#
1?
0%
1]
1-
0,
1.
#306000
0#
0?
1%
#307000
1#
1?
0%
0]
1\
0-
1,
1J
0/
0.
1/
1.
0K
11
00
01
10
12
02
#308000
0#
0?
1%
#309000
1#
1?
0%
1]
1-
0,
0/
0.
11
00
12
#310000
b11111 "
0#
1H
0?
1%
#311000
1#
1?
0%
0]
0\
0[
1Z
1I
0-
1,
0J
1/
1.
1K
01
10
1L
03
02
0.
00
0L
13
12
14
04
#312000
0#
0?
1%
#313000
1#
1?
0%
1]
0I
1-
0,
1.
#314000
0#
0?
1%
#315000
1#
1?
0%
0]
1\
1I
0-
1,
1J
0/
0.
0J
1/
1.
10
00
#316000
0#
0?
1%
#317000
1#
1?
0%
1]
0I
1-
0,
1J
0/
0.
10
#318000
0#
0?
1%
#319000
1#
1?
0%
0]
0\
1[
1I
0-
1,
0J
1/
1.
0K
11
00
0.
1K
01
10
1L
03
02
0L
13
12
14
04
#320000
b111111 "
b101111 "
b100111 "
b100011 "
b100001 "
b100000 "
0#
0H
0G
0F
0E
0D
1C
0?
1%
0I
0K
1L
1J
0M
#321000
1#
1?
0%
1]
1-
0,
1.
#322000
0#
0?
1%
#323000
1#
1?
0%
0]
1\
0-
1,
0/
0.
1/
1.
11
00
01
10
03
02
13
12
14
04
#324000
0#
0?
1%
#325000
1#
1?
0%
1]
1-
0,
0/
0.
11
00
03
02
14
#326000
0#
0?
1%
#327000
1#
1?
0%
0]
0\
0[
0Z
1Y
0-
1,
1/
1.
01
10
13
12
15
04
0.
00
02
05
14
16
06
#328000
0#
0?
1%
#329000
1#
1?
0%
1]
1-
0,
1.
#330000
b100001 "
0#
1H
0?
1%
#331000
1#
1?
0%
0]
1\
1I
0-
1,
0/
0.
1/
1.
10
00
#332000
0#
0?
1%
#333000
1#
1?
0%
1]
0I
1-
0,
0/
0.
10
#334000
0#
0?
1%
#335000
1#
1?
0%
0]
0\
1[
1I
0-
1,
1/
1.
11
00
0J
0.
01
10
12
02
#336000
0#
0?
1%
#337000
1#
1?
0%
1]
0I
1-
0,
1J
1.
#338000
0#
0?
1%
#339000
1#
1?
0%
0]
1\
1I
0-
1,
0/
0.
1/
1.
11
00
01
10
12
02
#340000
b100011 "
b100010 "
0#
0H
1G
0?
1%
0I
0J
1J
#341000
1#
1?
0%
1]
1-
0,
0/
0.
11
00
12
#342000
0#
0?
1%
#343000
1#
1?
0%
0]
0\
0[
1Z
0-
1,
0J
1/
1.
01
10
03
02
0.
1K
00
13
12
15
04
05
14
16
06
#344000
0#
0?
1%
#345000
1#
1?
0%
1]
1-
0,
1.
#346000
0#
0?
1%
#347000
1#
1?
0%
0]
1\
0-
1,
1J
0/
0.
1/
1.
0K
10
00
#348000
0#
0?
1%
#349000
1#
1?
0%
1]
1-
0,
0/
0.
10
#350000
b100011 "
0#
1H
0?
1%
#351000
1#
1?
0%
0]
0\
1[
1I
0-
1,
0J
1/
1.
11
00
0.
01
10
03
02
13
12
15
04
05
14
16
06
#352000
0#
0?
1%
#353000
1#
1?
0%
1]
0I
1-
0,
1.
#354000
0#
0?
1%
#355000
1#
1?
0%
0]
1\
1I
0-
1,
1J
0/
0.
0J
1/
1.
11
00
01
10
03
02
13
12
15
04
05
14
16
06
#356000
0#
0?
1%
#357000
1#
1?
0%
1]
0I
1-
0,
1J
0/
0.
11
00
03
02
15
04
16
#358000
0#
0?
1%
#359000
1#
1?
0%
0]
0\
0[
0Z
0Y
1X
1I
0-
1,
0J
1/
1.
01
10
13
12
05
14
1N
07
06
0.
1K
00
02
04
17
16
0O
18
0L
08
1P
1M
0Q
0N
0S
1=
1O
0P
1Q
1S
0=
#360000
b100111 "
b100101 "
b100100 "
0#
0H
0G
1F
0?
1%
0I
1J
#361000
1#
1?
0%
1]
1-
0,
1.
#362000
0#
0?
1%
#363000
1#
1?
0%
0]
1\
0-
1,
0/
0.
1/
1.
10
00
#364000
0#
0?
1%
#365000
1#
1?
0%
1]
1-
0,
0/
0.
10
#366000
0#
0?
1%
#367000
1#
1?
0%
0]
0\
1[
0-
1,
1/
1.
0K
11
00
0.
01
10
1L
12
02
0M
1N
0O
1P
0Q
0S
1=
#368000
0#
0?
1%
#369000
1#
1?
0%
0[
0X
0T
1K
00
0N
06
1S
0>
0$
0L
1O
1M
0P
1Q
0S
0=
#370000
b100101 "
0#
1H
0?
1%
1I
0J
#371000
1#
1?
0%
1]
0I
1-
0,
1J
1.
#372000
0#
0?
1%
#373000
1#
1?
0%
0]
1\
1I
0-
1,
0/
0.
1/
1.
10
00
#374000
0#
0?
1%
#375000
1#
1?
0%
1]
0I
1-
0,
0/
0.
10
#376000
0#
0?
1%
#377000
1#
1?
0%
0]
0\
1[
1I
0-
1,
1/
1.
0K
11
00
0J
0.
01
10
1L
12
1K
02
0M
0L
1M
#378000
0#
0?
1%
#379000
1#
1?
0%
1]
0I
1-
0,
1J
1.
0K
1L
0M
#380000
b100111 "
b100110 "
0#
0H
1G
0?
1%
0J
1K
0L
1M
#381000
1#
1?
0%
0]
1\
0-
1,
1J
0/
0.
1/
1.
0K
11
00
01
10
1L
12
02
0M
#382000
0#
0?
1%
#383000
1#
1?
0%
1]
1-
0,
0/
0.
11
00
12
#384000
0#
0?
1%
#385000
1#
1?
0%
0]
0\
0[
1Z
0-
1,
0J
1/
1.
1K
01
10
03
02
0.
00
13
12
14
04
#386000
0#
0?
1%
#387000
1#
1?
0%
1]
1-
0,
1.
#388000
0#
0?
1%
#389000
1#
1?
0%
0]
1\
0-
1,
1J
0/
0.
1/
1.
10
00
