leds/simulation/qsim/leds.msim.vcd
$comment
	File created using the following command:
		vcd file leds.msim.vcd -direction
$end
$date
	Sat Dec 12 14:20:11 2015
$end
$version
	ModelSim Version 10.3d
$end
$timescale
	1ps
$end

$scope module leds_vlg_vec_tst $end
$var reg 10 ! numeric_value [9:0] $end
$var wire 1 " leds_output [9] $end
$var wire 1 # leds_output [8] $end
$var wire 1 $ leds_output [7] $end
$var wire 1 % leds_output [6] $end
$var wire 1 & leds_output [5] $end
$var wire 1 ' leds_output [4] $end
$var wire 1 ( leds_output [3] $end
$var wire 1 ) leds_output [2] $end
$var wire 1 * leds_output [1] $end
$var wire 1 + leds_output [0] $end
$var wire 1 , sampler $end

$scope module i1 $end
$var wire 1 - gnd $end
$var wire 1 . vcc $end
$var wire 1 / unknown $end
$var tri1 1 0 devclrn $end
$var tri1 1 1 devpor $end
$var tri1 1 2 devoe $end
$var wire 1 3 leds_output[0]~output_o $end
$var wire 1 4 leds_output[1]~output_o $end
$var wire 1 5 leds_output[2]~output_o $end
$var wire 1 6 leds_output[3]~output_o $end
$var wire 1 7 leds_output[4]~output_o $end
$var wire 1 8 leds_output[5]~output_o $end
$var wire 1 9 leds_output[6]~output_o $end
$var wire 1 : leds_output[7]~output_o $end
$var wire 1 ; leds_output[8]~output_o $end
$var wire 1 < leds_output[9]~output_o $end
$var wire 1 = numeric_value[9]~input_o $end
$var wire 1 > numeric_value[0]~input_o $end
$var wire 1 ? numeric_value[1]~input_o $end
$var wire 1 @ numeric_value[2]~input_o $end
$var wire 1 A numeric_value[3]~input_o $end
$var wire 1 B numeric_value[4]~input_o $end
$var wire 1 C LessThan0~0_combout $end
$var wire 1 D numeric_value[5]~input_o $end
$var wire 1 E numeric_value[6]~input_o $end
$var wire 1 F numeric_value[7]~input_o $end
$var wire 1 G numeric_value[8]~input_o $end
$var wire 1 H LessThan0~1_combout $end
$var wire 1 I LessThan1~0_combout $end
$var wire 1 J LessThan1~1_combout $end
$var wire 1 K LessThan2~0_combout $end
$var wire 1 L LessThan2~1_combout $end
$var wire 1 M Equal0~0_combout $end
$var wire 1 N LessThan3~0_combout $end
$var wire 1 O LessThan3~1_combout $end
$var wire 1 P LessThan4~0_combout $end
$var wire 1 Q LessThan4~1_combout $end
$var wire 1 R LessThan5~0_combout $end
$var wire 1 S LessThan6~0_combout $end
$var wire 1 T LessThan7~0_combout $end
$var wire 1 U LessThan8~0_combout $end
$var wire 1 V LessThan8~1_combout $end
$var wire 1 W Equal0~1_combout $end
$var wire 1 X Equal0~2_combout $end
$upscope $end
$upscope $end
$enddefinitions $end
#0
$dumpvars
b0 !
0+
0*
0)
0(
0'
0&
0%
0$
0#
0"
x,
0-
1.
x/
10
11
12
03
04
05
06
07
08
09
0:
0;
0<
0=
0>
0?
0@
0A
0B
1C
0D
0E
0F
0G
0H
1I
0J
0K
0L
0M
1N
0O
1P
0Q
0R
0S
0T
0U
0V
0W
0X
$end
#1000
b1 !
1>
0,
0P
#2000
b11 !
b10 !
0>
1?
1,
#3000
b11 !
1>
0,
#4000
b111 !
b101 !
b100 !
0>
0?
1@
1,
#5000
b101 !
1>
0,
#6000
b111 !
b110 !
0>
1?
1,
#7000
b111 !
1>
0,
1W
0C
#8000
b1111 !
b1011 !
b1001 !
b1000 !
0>
0?
0@
1A
1,
0W
1P
#9000
b1001 !
1>
0,
0P
#10000
b1011 !
b1010 !
0>
1?
1,
#11000
b1011 !
1>
0,
#12000
b1111 !
b1101 !
b1100 !
0>
0?
1@
1,
#13000
b1101 !
1>
0,
#14000
b1111 !
b1110 !
0>
1?
1,
0I
#15000
b1111 !
1>
0,
1W
#16000
b11111 !
b10111 !
b10011 !
b10001 !
b10000 !
0>
0?
0@
0A
1B
1,
0W
1P
#17000
b10001 !
1>
0,
0P
#18000
b10011 !
b10010 !
0>
1?
1,
#19000
b10011 !
1>
0,
#20000
b10111 !
b10101 !
b10100 !
0>
0?
1@
1,
#21000
b10101 !
1>
0,
#22000
b10111 !
b10110 !
0>
1?
1,
#23000
b10111 !
1>
0,
1W
#24000
b11111 !
b11011 !
b11001 !
b11000 !
0>
0?
0@
1A
1,
0W
1P
#25000
b11001 !
1>
0,
0P
#26000
b11011 !
b11010 !
0>
1?
1,
1U
#27000
b11011 !
1>
0,
#28000
b11111 !
b11101 !
b11100 !
0>
0?
1@
1,
#29000
b11101 !
1>
0,
#30000
b11111 !
b11110 !
0>
1?
1,
#31000
b11111 !
1>
0,
1W
#32000
b111111 !
b101111 !
b100111 !
b100011 !
b100001 !
b100000 !
0>
0?
0@
0A
0B
1D
1,
0U
1C
0W
#33000
b100001 !
1>
0,
#34000
b100011 !
b100010 !
0>
1?
1,
#35000
b100011 !
1>
0,
#36000
b100111 !
b100101 !
b100100 !
0>
0?
1@
1,
#37000
b100101 !
1>
0,
#38000
b100111 !
b100110 !
0>
1?
1,
#39000
b100111 !
1>
0,
1W
0C
#40000
b101111 !
b101011 !
b101001 !
b101000 !
0>
0?
0@
1A
1,
0W
#41000
b101001 !
1>
0,
#42000
b101011 !
b101010 !
0>
1?
1,
#43000
b101011 !
1>
0,
#44000
b101111 !
b101101 !
b101100 !
0>
0?
1@
1,
#45000
b101101 !
1>
0,
#46000
b101111 !
b101110 !
0>
1?
1,
#47000
b101111 !
1>
0,
1W
#48000
b111111 !
b110111 !
b110011 !
b110001 !
b110000 !
0>
0?
0@
0A
1B
1,
0W
#49000
b110001 !
1>
0,
#50000
b110011 !
b110010 !
0>
1?
1,
#51000
b110011 !
1>
0,
#52000
b110111 !
b110101 !
b110100 !
0>
0?
1@
1,
1K
#53000
b110101 !
1>
0,
#54000
b110111 !
b110110 !
0>
1?
1,
#55000
b110111 !
1>
0,
1W
#56000
b111111 !
b111011 !
b111001 !
b111000 !
0>
0?
0@
1A
1,
0W
#57000
b111001 !
1>
0,
#58000
b111011 !
b111010 !
0>
1?
1,
1U
#59000
b111011 !
1>
0,
#60000
b111111 !
b111101 !
b111100 !
0>
0?
1@
1,
#61000
b111101 !
1>
0,
#62000
b111111 !
b111110 !
0>
1?
1,
#63000
b111111 !
1>
0,
1W
#64000
b1111111 !
b1011111 !
b1001111 !
b1000111 !
b1000011 !
b1000001 !
b1000000 !
0>
0?
0@
0A
0B
0D
1E
1,
0K
1I
0U
1C
0W
#65000
b1000001 !
1>
0,
#66000
b1000011 !
b1000010 !
0>
1?
1,
#67000
b1000011 !
1>
0,
#68000
b1000111 !
b1000101 !
b1000100 !
0>
0?
1@
1,
#69000
b1000101 !
1>
0,
#70000
b1000111 !
b1000110 !
0>
1?
1,
#71000
b1000111 !
1>
0,
1W
0C
#72000
b1001111 !
b1001011 !
b1001001 !
b1001000 !
0>
0?
0@
1A
1,
0W
#73000
b1001001 !
1>
0,
#74000
b1001011 !
b1001010 !
0>
1?
1,
#75000
b1001011 !
1>
0,
#76000
b1001111 !
b1001101 !
b1001100 !
0>
0?
1@
1,
#77000
b1001101 !
1>
0,
#78000
b1001111 !
b1001110 !
0>
1?
1,
0I
#79000
b1001111 !
1>
0,
1W
#80000
b1011111 !
b1010111 !
b1010011 !
b1010001 !
b1010000 !
0>
0?
0@
0A
1B
1,
0W
#81000
b1010001 !
1>
0,
#82000
b1010011 !
b1010010 !
0>
1?
1,
#83000
b1010011 !
1>
0,
#84000
b1010111 !
b1010101 !
b1010100 !
0>
0?
1@
1,
#85000
b1010101 !
1>
0,
#86000
b1010111 !
b1010110 !
0>
1?
1,
#87000
b1010111 !
1>
0,
1W
#88000
b1011111 !
b1011011 !
b1011001 !
b1011000 !
0>
0?
0@
1A
1,
0W
#89000
b1011001 !
1>
0,
#90000
b1011011 !
b1011010 !
0>
1?
1,
1U
#91000
b1011011 !
1>
0,
#92000
b1011111 !
b1011101 !
b1011100 !
0>
0?
1@
1,
#93000
b1011101 !
1>
0,
#94000
b1011111 !
b1011110 !
0>
1?
1,
#95000
b1011111 !
1>
0,
1W
#96000
b1111111 !
b1101111 !
b1100111 !
b1100011 !
b1100001 !
b1100000 !
0>
0?
0@
0A
0B
1D
1,
0U
1C
0W
1H
13
1+
0H
03
0+
#97000
b1100001 !
1>
0,
#98000
b1100011 !
b1100010 !
0>
1?
1,
#99000
b1100011 !
1>
0,
#100000
b1100111 !
b1100101 !
b1100100 !
0>
0?
1@
1,
#101000
b1100101 !
1>
0,
#102000
b1100111 !
b1100110 !
0>
1?
1,
#103000
b1100111 !
1>
0,
1W
0C
1H
13
1+
#104000
b1101111 !
b1101011 !
b1101001 !
b1101000 !
0>
0?
0@
1A
1,
0W
#105000
b1101001 !
1>
0,
#106000
b1101011 !
b1101010 !
0>
1?
1,
#107000
b1101011 !
1>
0,
#108000
b1101111 !
b1101101 !
b1101100 !
0>
0?
1@
1,
#109000
b1101101 !
1>
0,
#110000
b1101111 !
b1101110 !
0>
1?
1,
#111000
b1101111 !
1>
0,
1W
#112000
b1111111 !
b1110111 !
b1110011 !
b1110001 !
b1110000 !
0>
0?
0@
0A
1B
1,
0W
#113000
b1110001 !
1>
0,
#114000
b1110011 !
b1110010 !
0>
1?
1,
#115000
b1110011 !
1>
0,
#116000
b1110111 !
b1110101 !
b1110100 !
0>
0?
1@
1,
1K
#117000
b1110101 !
1>
0,
#118000
b1110111 !
b1110110 !
0>
1?
1,
#119000
b1110111 !
1>
0,
1W
#120000
b1111111 !
b1111011 !
b1111001 !
b1111000 !
0>
0?
0@
1A
1,
0W
#121000
b1111001 !
1>
0,
#122000
b1111011 !
b1111010 !
0>
1?
1,
1U
#123000
b1111011 !
1>
0,
#124000
b1111111 !
b1111101 !
b1111100 !
0>
0?
1@
1,
#125000
b1111101 !
1>
0,
#126000
b1111111 !
b1111110 !
0>
1?
1,
#127000
b1111111 !
1>
0,
1W
#128000
b11111111 !
b10111111 !
b10011111 !
b10001111 !
b10000111 !
b10000011 !
b10000001 !
b10000000 !
0>
0?
0@
0A
0B
0D
0E
1F
1,
1P
0K
1I
0U
1C
0W
#129000
b10000001 !
1>
0,
0P
#130000
b10000011 !
b10000010 !
0>
1?
1,
#131000
b10000011 !
1>
0,
#132000
b10000111 !
b10000101 !
b10000100 !
0>
0?
1@
1,
#133000
b10000101 !
1>
0,
#134000
b10000111 !
b10000110 !
0>
1?
1,
#135000
b10000111 !
1>
0,
1W
0C
#136000
b10001111 !
b10001011 !
b10001001 !
b10001000 !
0>
0?
0@
1A
1,
0W
1P
#137000
b10001001 !
1>
0,
0P
#138000
b10001011 !
b10001010 !
0>
1?
1,
#139000
b10001011 !
1>
0,
#140000
b10001111 !
b10001101 !
b10001100 !
0>
0?
1@
1,
#141000
b10001101 !
1>
0,
#142000
b10001111 !
b10001110 !
0>
1?
1,
0I
#143000
b10001111 !
1>
0,
1W
#144000
b10011111 !
b10010111 !
b10010011 !
b10010001 !
b10010000 !
0>
0?
0@
0A
1B
1,
0W
1P
#145000
b10010001 !
1>
0,
0P
#146000
b10010011 !
b10010010 !
0>
1?
1,
#147000
b10010011 !
1>
0,
#148000
b10010111 !
b10010101 !
b10010100 !
0>
0?
1@
1,
#149000
b10010101 !
1>
0,
#150000
b10010111 !
b10010110 !
0>
1?
1,
#151000
b10010111 !
1>
0,
1W
#152000
b10011111 !
b10011011 !
b10011001 !
b10011000 !
0>
0?
0@
1A
1,
0W
1P
#153000
b10011001 !
1>
0,
0P
#154000
b10011011 !
b10011010 !
0>
1?
1,
1U
#155000
b10011011 !
1>
0,
#156000
b10011111 !
b10011101 !
b10011100 !
0>
0?
1@
1,
#157000
b10011101 !
1>
0,
#158000
b10011111 !
b10011110 !
0>
1?
1,
#159000
b10011111 !
1>
0,
1W
#160000
b10111111 !
b10101111 !
b10100111 !
b10100011 !
b10100001 !
b10100000 !
0>
0?
0@
0A
0B
1D
1,
0U
1C
0W
#161000
b10100001 !
1>
0,
#162000
b10100011 !
b10100010 !
0>
1?
1,
#163000
b10100011 !
1>
0,
#164000
b10100111 !
b10100101 !
b10100100 !
0>
0?
1@
1,
#165000
b10100101 !
1>
0,
#166000
b10100111 !
b10100110 !
0>
1?
1,
#167000
b10100111 !
1>
0,
1W
0C
#168000
b10101111 !
b10101011 !
b10101001 !
b10101000 !
0>
0?
0@
1A
1,
0W
#169000
b10101001 !
1>
0,
#170000
b10101011 !
b10101010 !
0>
1?
1,
#171000
b10101011 !
1>
0,
#172000
b10101111 !
b10101101 !
b10101100 !
0>
0?
1@
1,
#173000
b10101101 !
1>
0,
#174000
b10101111 !
b10101110 !
0>
1?
1,
#175000
b10101111 !
1>
0,
1W
#176000
b10111111 !
b10110111 !
b10110011 !
b10110001 !
b10110000 !
0>
0?
0@
0A
1B
1,
0W
#177000
b10110001 !
1>
0,
#178000
b10110011 !
b10110010 !
0>
1?
1,
#179000
b10110011 !
1>
0,
#180000
b10110111 !
b10110101 !
b10110100 !
0>
0?
1@
1,
1K
#181000
b10110101 !
1>
0,
#182000
b10110111 !
b10110110 !
0>
1?
1,
#183000
b10110111 !
1>
0,
1W
#184000
b10111111 !
b10111011 !
b10111001 !
b10111000 !
0>
0?
0@
1A
1,
0W
#185000
b10111001 !
1>
0,
#186000
b10111011 !
b10111010 !
0>
1?
1,
1U
#187000
b10111011 !
1>
0,
#188000
b10111111 !
b10111101 !
b10111100 !
0>
0?
1@
1,
#189000
b10111101 !
1>
0,
#190000
b10111111 !
b10111110 !
0>
1?
1,
#191000
b10111111 !
1>
0,
1W
#192000
b11111111 !
b11011111 !
b11001111 !
b11000111 !
b11000011 !
b11000001 !
b11000000 !
0>
0?
0@
0A
0B
0D
1E
1,
0K
1I
0U
1C
0W
1J
14
1*
0J
04
0*
#193000
b11000001 !
1>
0,
#194000
b11000011 !
b11000010 !
0>
1?
1,
#195000
b11000011 !
1>
0,
#196000
b11000111 !
b11000101 !
b11000100 !
0>
0?
1@
1,
#197000
b11000101 !
1>
0,
#198000
b11000111 !
b11000110 !
0>
1?
1,
#199000
b11000111 !
1>
0,
1W
0C
#200000
b11001111 !
b11001011 !
b11001001 !
b11001000 !
0>
0?
0@
1A
1,
0W
#201000
b11001001 !
1>
0,
#202000
b11001011 !
b11001010 !
0>
1?
1,
#203000
b11001011 !
1>
0,
#204000
b11001111 !
b11001101 !
b11001100 !
0>
0?
1@
1,
#205000
b11001101 !
1>
0,
#206000
b11001111 !
b11001110 !
0>
1?
1,
0I
1J
14
1*
#207000
b11001111 !
1>
0,
1W
#208000
b11011111 !
b11010111 !
b11010011 !
b11010001 !
b11010000 !
0>
0?
0@
0A
1B
1,
0W
#209000
b11010001 !
1>
0,
#210000
b11010011 !
b11010010 !
0>
1?
1,
#211000
b11010011 !
1>
0,
#212000
b11010111 !
b11010101 !
b11010100 !
0>
0?
1@
1,
#213000
b11010101 !
1>
0,
#214000
b11010111 !
b11010110 !
0>
1?
1,
#215000
b11010111 !
1>
0,
1W
#216000
b11011111 !
b11011011 !
b11011001 !
b11011000 !
0>
0?
0@
1A
1,
0W
#217000
b11011001 !
1>
0,
#218000
b11011011 !
b11011010 !
0>
1?
1,
1U
#219000
b11011011 !
1>
0,
#220000
b11011111 !
b11011101 !
b11011100 !
0>
0?
1@
1,
#221000
b11011101 !
1>
0,
#222000
b11011111 !
b11011110 !
0>
1?
1,
#223000
b11011111 !
1>
0,
1W
#224000
b11111111 !
b11101111 !
b11100111 !
b11100011 !
b11100001 !
b11100000 !
0>
0?
0@
0A
0B
1D
1,
0U
1C
0W
#225000
b11100001 !
1>
0,
#226000
b11100011 !
b11100010 !
0>
1?
1,
#227000
b11100011 !
1>
0,
#228000
b11100111 !
b11100101 !
b11100100 !
0>
0?
1@
1,
#229000
b11100101 !
1>
0,
#230000
b11100111 !
b11100110 !
0>
1?
1,
#231000
b11100111 !
1>
0,
1W
0C
#232000
b11101111 !
b11101011 !
b11101001 !
b11101000 !
0>
0?
0@
1A
1,
0W
#233000
b11101001 !
1>
0,
#234000
b11101011 !
b11101010 !
0>
1?
1,
#235000
b11101011 !
1>
0,
#236000
b11101111 !
b11101101 !
b11101100 !
0>
0?
1@
1,
#237000
b11101101 !
1>
0,
#238000
b11101111 !
b11101110 !
0>
1?
1,
#239000
b11101111 !
1>
0,
1W
#240000
b11111111 !
b11110111 !
b11110011 !
b11110001 !
b11110000 !
0>
0?
0@
0A
1B
1,
0W
#241000
b11110001 !
1>
0,
#242000
b11110011 !
b11110010 !
0>
1?
1,
#243000
b11110011 !
1>
0,
#244000
b11110111 !
b11110101 !
b11110100 !
0>
0?
1@
1,
1K
#245000
b11110101 !
1>
0,
#246000
b11110111 !
b11110110 !
0>
1?
1,
#247000
b11110111 !
1>
0,
1W
#248000
b11111111 !
b11111011 !
b11111001 !
b11111000 !
0>
0?
0@
1A
1,
0W
#249000
b11111001 !
1>
0,
#250000
b11111011 !
b11111010 !
0>
1?
1,
1U
#251000
b11111011 !
1>
0,
#252000
b11111111 !
b11111101 !
b11111100 !
0>
0?
1@
1,
#253000
b11111101 !
1>
0,
#254000
b11111111 !
b11111110 !
0>
1?
1,
#255000
b11111111 !
1>
0,
1W
#256000
b111111111 !
b101111111 !
b100111111 !
b100011111 !
b100001111 !
b100000111 !
b100000011 !
b100000001 !
b100000000 !
0>
0?
0@
0A
0B
0D
0E
0F
1G
1,
1P
0K
1I
0U
1C
0W
1L
15
1)
0L
05
0)
#257000
b100000001 !
1>
0,
0P
#258000
b100000011 !
b100000010 !
0>
1?
1,
#259000
b100000011 !
1>
0,
#260000
b100000111 !
b100000101 !
b100000100 !
0>
0?
1@
1,
#261000
b100000101 !
1>
0,
#262000
b100000111 !
b100000110 !
0>
1?
1,
#263000
b100000111 !
1>
0,
1W
0C
#264000
b100001111 !
b100001011 !
b100001001 !
b100001000 !
0>
0?
0@
1A
1,
0W
1P
#265000
b100001001 !
1>
0,
0P
#266000
b100001011 !
b100001010 !
0>
1?
1,
#267000
b100001011 !
1>
0,
#268000
b100001111 !
b100001101 !
b100001100 !
0>
0?
1@
1,
#269000
b100001101 !
1>
0,
#270000
b100001111 !
b100001110 !
0>
1?
1,
0I
#271000
b100001111 !
1>
0,
1W
#272000
b100011111 !
b100010111 !
b100010011 !
b100010001 !
b100010000 !
0>
0?
0@
0A
1B
1,
0W
1P
#273000
b100010001 !
1>
0,
0P
#274000
b100010011 !
b100010010 !
0>
1?
1,
#275000
b100010011 !
1>
0,
#276000
b100010111 !
b100010101 !
b100010100 !
0>
0?
1@
1,
#277000
b100010101 !
1>
0,
#278000
b100010111 !
b100010110 !
0>
1?
1,
#279000
b100010111 !
1>
0,
1W
#280000
b100011111 !
b100011011 !
b100011001 !
b100011000 !
0>
0?
0@
1A
1,
0W
1P
#281000
b100011001 !
1>
0,
0P
#282000
b100011011 !
b100011010 !
0>
1?
1,
1U
#283000
b100011011 !
1>
0,
#284000
b100011111 !
b100011101 !
b100011100 !
0>
0?
1@
1,
#285000
b100011101 !
1>
0,
#286000
b100011111 !
b100011110 !
0>
1?
1,
#287000
b100011111 !
1>
0,
1W
#288000
b100111111 !
b100101111 !
b100100111 !
b100100011 !
b100100001 !
b100100000 !
0>
0?
0@
0A
0B
1D
1,
0U
1C
0W
#289000
b100100001 !
1>
0,
#290000
b100100011 !
b100100010 !
0>
1?
1,
#291000
b100100011 !
1>
0,
#292000
b100100111 !
b100100101 !
b100100100 !
0>
0?
1@
1,
#293000
b100100101 !
1>
0,
#294000
b100100111 !
b100100110 !
0>
1?
1,
#295000
b100100111 !
1>
0,
1W
0C
#296000
b100101111 !
b100101011 !
b100101001 !
b100101000 !
0>
0?
0@
1A
1,
0W
#297000
b100101001 !
1>
0,
#298000
b100101011 !
b100101010 !
0>
1?
1,
#299000
b100101011 !
1>
0,
#300000
b100101111 !
b100101101 !
b100101100 !
0>
0?
1@
1,
#301000
b100101101 !
1>
0,
#302000
b100101111 !
b100101110 !
0>
1?
1,
#303000
b100101111 !
1>
0,
1W
#304000
b100111111 !
b100110111 !
b100110011 !
b100110001 !
b100110000 !
0>
0?
0@
0A
1B
1,
0W
#305000
b100110001 !
1>
0,
#306000
b100110011 !
b100110010 !
0>
1?
1,
#307000
b100110011 !
1>
0,
#308000
b100110111 !
b100110101 !
b100110100 !
0>
0?
1@
1,
1K
1L
15
1)
#309000
b100110101 !
1>
0,
#310000
b100110111 !
b100110110 !
0>
1?
1,
#311000
b100110111 !
1>
0,
1W
#312000
b100111111 !
b100111011 !
b100111001 !
b100111000 !
0>
0?
0@
1A
1,
0W
#313000
b100111001 !
1>
0,
#314000
b100111011 !
b100111010 !
0>
1?
1,
1U
#315000
b100111011 !
1>
0,
#316000
b100111111 !
b100111101 !
b100111100 !
0>
0?
1@
1,
#317000
b100111101 !
1>
0,
#318000
b100111111 !
b100111110 !
0>
1?
1,
#319000
b100111111 !
1>
0,
1W
#320000
b101111111 !
b101011111 !
b101001111 !
b101000111 !
b101000011 !
b101000001 !
b101000000 !
0>
0?
0@
0A
0B
0D
1E
1,
0K
1I
0U
1C
0W
#321000
b101000001 !
1>
0,
#322000
b101000011 !
b101000010 !
0>
1?
1,
#323000
b101000011 !
1>
0,
#324000
b101000111 !
b101000101 !
b101000100 !
0>
0?
1@
1,
#325000
b101000101 !
1>
0,
#326000
b101000111 !
b101000110 !
0>
1?
1,
#327000
b101000111 !
1>
0,
1W
0C
#328000
b101001111 !
b101001011 !
b101001001 !
b101001000 !
0>
0?
0@
1A
1,
0W
#329000
b101001001 !
1>
0,
#330000
b101001011 !
b101001010 !
0>
1?
1,
#331000
b101001011 !
1>
0,
#332000
b101001111 !
b101001101 !
b101001100 !
0>
0?
1@
1,
#333000
b101001101 !
1>
0,
#334000
b101001111 !
b101001110 !
0>
1?
1,
0I
#335000
b101001111 !
1>
0,
1W
#336000
b101011111 !
b101010111 !
b101010011 !
b101010001 !
b101010000 !
0>
0?
0@
0A
1B
1,
0W
#337000
b101010001 !
1>
0,
#338000
b101010011 !
b101010010 !
0>
1?
1,
#339000
b101010011 !
1>
0,
#340000
b101010111 !
b101010101 !
b101010100 !
0>
0?
1@
1,
#341000
b101010101 !
1>
0,
#342000
b101010111 !
b101010110 !
0>
1?
1,
#343000
b101010111 !
1>
0,
1W
#344000
b101011111 !
b101011011 !
b101011001 !
b101011000 !
0>
0?
0@
1A
1,
0W
#345000
b101011001 !
1>
0,
#346000
b101011011 !
b101011010 !
0>
1?
1,
1U
#347000
b101011011 !
1>
0,
#348000
b101011111 !
b101011101 !
b101011100 !
0>
0?
1@
1,
#349000
b101011101 !
1>
0,
#350000
b101011111 !
b101011110 !
0>
1?
1,
#351000
b101011111 !
1>
0,
1W
#352000
b101111111 !
b101101111 !
b101100111 !
b101100011 !
b101100001 !
b101100000 !
0>
0?
0@
0A
0B
1D
1,
0U
1C
0W
#353000
b101100001 !
1>
0,
#354000
b101100011 !
b101100010 !
0>
1?
1,
#355000
b101100011 !
1>
0,
#356000
b101100111 !
b101100101 !
b101100100 !
0>
0?
1@
1,
#357000
b101100101 !
1>
0,
#358000
b101100111 !
b101100110 !
0>
1?
1,
#359000
b101100111 !
1>
0,
1W
0C
#360000
b101101111 !
b101101011 !
b101101001 !
b101101000 !
0>
0?
0@
1A
1,
0W
#361000
b101101001 !
1>
0,
#362000
b101101011 !
b101101010 !
0>
1?
1,
#363000
b101101011 !
1>
0,
#364000
b101101111 !
b101101101 !
b101101100 !
0>
0?
1@
1,
#365000
b101101101 !
1>
0,
#366000
b101101111 !
b101101110 !
0>
1?
1,
#367000
b101101111 !
1>
0,
1W
#368000
b101111111 !
b101110111 !
b101110011 !
b101110001 !
b101110000 !
0>
0?
0@
0A
1B
1,
0W
#369000
b101110001 !
1>
0,
#370000
b101110011 !
b101110010 !
0>
1?
1,
#371000
b101110011 !
1>
0,
#372000
b101110111 !
b101110101 !
b101110100 !
0>
0?
1@
1,
1K
#373000
b101110101 !
1>
0,
#374000
b101110111 !
b101110110 !
0>
1?
1,
#375000
b101110111 !
1>
0,
1W
#376000
b101111111 !
b101111011 !
b101111001 !
b101111000 !
0>
0?
0@
1A
1,
0W
#377000
b101111001 !
1>
0,
#378000
b101111011 !
b101111010 !
0>
1?
1,
1U
#379000
b101111011 !
1>
0,
#380000
b101111111 !
b101111101 !
b101111100 !
0>
0?
1@
1,
#381000
b101111101 !
1>
0,
#382000
b101111111 !
b101111110 !
0>
1?
1,
#383000
b101111111 !
1>
0,
1W
#384000
b111111111 !
b110111111 !
b110011111 !
b110001111 !
b110000111 !
b110000011 !
b110000001 !
b110000000 !
0>
0?
0@
0A
0B
0D
0E
1F
1,
1P
0K
1I
0U
1C
0W
#385000
b110000001 !
1>
0,
0P
#386000
b110000011 !
b110000010 !
0>
1?
1,
#387000
b110000011 !
1>
0,
#388000
b110000111 !
b110000101 !
b110000100 !
0>
0?
1@
1,
#389000
b110000101 !
1>
0,
#390000
b110000111 !
b110000110 !
0>
1?
1,
#391000
b110000111 !
1>
0,
1W
0C
#392000
b110001111 !
b110001011 !
b110001001 !
b110001000 !
0>
0?
0@
1A
1,
0W
1P
#393000
b110001001 !
1>
0,
0P
#394000
b110001011 !
b110001010 !
0>
1?
1,
#395000
b110001011 !
1>
0,
#396000
b110001111 !
b110001101 !
b110001100 !
0>
0?
1@
1,
#397000
b110001101 !
1>
0,
#398000
b110001111 !
b110001110 !
0>
1?
1,
0I
#399000
b110001111 !
1>
0,
1W
#400000
b110011111 !
b110010111 !
b110010011 !
b110010001 !
b110010000 !
0>
0?
0@
0A
1B
1,
0W
1P
#401000
b110010001 !
1>
0,
0P
#402000
b110010011 !
b110010010 !
0>
1?
1,
#403000
b110010011 !
1>
0,
#404000
b110010111 !
b110010101 !
b110010100 !
0>
0?
1@
1,
#405000
b110010101 !
1>
0,
#406000
b110010111 !
b110010110 !
0>
1?
1,
#407000
b110010111 !
1>
0,
1W
#408000
b110011111 !
b110011011 !
b110011001 !
b110011000 !
0>
0?
0@
1A
1,
1M
0W
1P
#409000
b110011001 !
1>
0,
0P
#410000
b110011011 !
b110011010 !
0>
1?
1,
1U
#411000
b110011011 !
1>
0,
1O
16
1(
#412000
b110011111 !
b110011101 !
b110011100 !
0>
0?
1@
1,
#413000
b110011101 !
1>
0,
#414000
b110011111 !
b110011110 !
0>
1?
1,
#415000
b110011111 !
1>
0,
1W
#416000
b110111111 !
b110101111 !
b110100111 !
b110100011 !
b110100001 !
b110100000 !
0>
0?
0@
0A
0B
1D
1,
0N
0U
0M
1C
0W
0O
06
0(
1O
16
1(
#417000
b110100001 !
1>
0,
#418000
b110100011 !
b110100010 !
0>
1?
1,
#419000
b110100011 !
1>
0,
#420000
b110100111 !
b110100101 !
b110100100 !
0>
0?
1@
1,
#421000
b110100101 !
1>
0,
#422000
b110100111 !
b110100110 !
0>
1?
1,
#423000
b110100111 !
1>
0,
1W
0C
#424000
b110101111 !
b110101011 !
b110101001 !
b110101000 !
0>
0?
0@
1A
1,
0W
#425000
b110101001 !
1>
0,
#426000
b110101011 !
b110101010 !
0>
1?
1,
#427000
b110101011 !
1>
0,
#428000
b110101111 !
b110101101 !
b110101100 !
0>
0?
1@
1,
#429000
b110101101 !
1>
0,
#430000
b110101111 !
b110101110 !
0>
1?
1,
#431000
b110101111 !
1>
0,
1W
#432000
b110111111 !
b110110111 !
b110110011 !
b110110001 !
b110110000 !
0>
0?
0@
0A
1B
1,
0W
#433000
b110110001 !
1>
0,
#434000
b110110011 !
b110110010 !
0>
1?
1,
#435000
b110110011 !
1>
0,
#436000
b110110111 !
b110110101 !
b110110100 !
0>
0?
1@
1,
1K
#437000
b110110101 !
1>
0,
#438000
b110110111 !
b110110110 !
0>
1?
1,
#439000
b110110111 !
1>
0,
1W
#440000
b110111111 !
b110111011 !
b110111001 !
b110111000 !
0>
0?
0@
1A
1,
1M
0W
#441000
b110111001 !
1>
0,
#442000
b110111011 !
b110111010 !
0>
1?
1,
1U
#443000
b110111011 !
1>
0,
#444000
b110111111 !
b110111101 !
b110111100 !
0>
0?
1@
1,
#445000
b110111101 !
1>
0,
#446000
b110111111 !
b110111110 !
0>
1?
1,
#447000
b110111111 !
1>
0,
1W
#448000
b111111111 !
b111011111 !
b111001111 !
b111000111 !
b111000011 !
b111000001 !
b111000000 !
0>
0?
0@
0A
0B
0D
1E
1,
0K
1I
0U
0M
1C
0W
#449000
b111000001 !
1>
0,
#450000
b111000011 !
b111000010 !
0>
1?
1,
#451000
b111000011 !
1>
0,
#452000
b111000111 !
b111000101 !
b111000100 !
0>
0?
1@
1,
#453000
b111000101 !
1>
0,
#454000
b111000111 !
b111000110 !
0>
1?
1,
#455000
b111000111 !
1>
0,
1W
0C
#456000
b111001111 !
b111001011 !
b111001001 !
b111001000 !
0>
0?
0@
1A
1,
0W
#457000
b111001001 !
1>
0,
#458000
b111001011 !
b111001010 !
0>
1?
1,
#459000
b111001011 !
1>
0,
#460000
b111001111 !
b111001101 !
b111001100 !
0>
0?
1@
1,
#461000
b111001101 !
1>
0,
#462000
b111001111 !
b111001110 !
0>
1?
1,
0I
#463000
b111001111 !
1>
0,
1W
#464000
b111011111 !
b111010111 !
b111010011 !
b111010001 !
b111010000 !
0>
0?
0@
0A
1B
1,
0W
#465000
b111010001 !
1>
0,
#466000
b111010011 !
b111010010 !
0>
1?
1,
#467000
b111010011 !
1>
0,
#468000
b111010111 !
b111010101 !
b111010100 !
0>
0?
1@
1,
#469000
b111010101 !
1>
0,
#470000
b111010111 !
b111010110 !
0>
1?
1,
#471000
b111010111 !
1>
0,
1W
#472000
b111011111 !
b111011011 !
b111011001 !
b111011000 !
0>
0?
0@
1A
1,
1M
0W
#473000
b111011001 !
1>
0,
#474000
b111011011 !
b111011010 !
0>
1?
1,
1U
#475000
b111011011 !
1>
0,
#476000
b111011111 !
b111011101 !
b111011100 !
0>
0?
1@
1,
#477000
b111011101 !
1>
0,
